{
  "name": "Armour and Shield Addons",
  "description": "",
  "results": [
    {
      "_id": "RXACpfbkRsOJW7Hu",
      "flags": {},
      "type": 0,
      "text": "Armor Spikes",
      "img": "icons/svg/d20-black.svg",
      "weight": 1,
      "range": [1, 1],
      "drawn": false,
      "documentId": null,
      "documentCollection": ""
    },
    {
      "_id": "CYydzOVQ0PqLytxO",
      "flags": {},
      "type": 0,
      "text": "Locked Gauntlet",
      "img": "icons/svg/d20-black.svg",
      "weight": 1,
      "range": [2, 2],
      "drawn": false,
      "documentId": null,
      "documentCollection": ""
    },
    {
      "_id": "ApIbgxtd9lhdsP65",
      "flags": {},
      "type": 0,
      "text": "Shield Spikes",
      "img": "icons/svg/d20-black.svg",
      "weight": 1,
      "range": [3, 3],
      "drawn": false,
      "documentId": null,
      "documentCollection": ""
    }
  ],
  "formula": "1d3",
  "replacement": true,
  "displayRoll": true,
  "_id": "BXxZdNZVUmDAAU2D",
  "img": "icons/svg/d20-grey.svg",
  "sort": 0
}
