{
  "name": "Greater Medium Wrists",
  "description": "",
  "results": [
    {
      "_id": "KV2gm4UiNQdoHkww",
      "flags": {},
      "type": 0,
      "text": "Vambraces of the Genie (Djinni)",
      "weight": 10,
      "range": [1, 10],
      "drawn": false,
      "img": null,
      "documentCollection": "",
      "documentId": null
    },
    {
      "_id": "yCDEZcixXwDN1pV5",
      "flags": {},
      "type": 0,
      "text": "Vambraces of the Genie (Marid)",
      "weight": 10,
      "range": [11, 20],
      "drawn": false,
      "img": null,
      "documentCollection": "",
      "documentId": null
    },
    {
      "_id": "eRyweIBZxAfu3zMX",
      "flags": {},
      "type": 0,
      "text": "Vambraces of the Genie (Shaitan)",
      "weight": 10,
      "range": [21, 30],
      "drawn": false,
      "img": null,
      "documentCollection": "",
      "documentId": null
    },
    {
      "_id": "XVxo5I9vmmGyov7x",
      "flags": {},
      "type": 0,
      "text": "Bracelet of Friends",
      "weight": 20,
      "range": [31, 50],
      "drawn": false,
      "img": null,
      "documentCollection": "",
      "documentId": null
    },
    {
      "_id": "1JDvQHWpjWAKfjCu",
      "flags": {},
      "type": 0,
      "text": "Bracers of Archery, Greater",
      "weight": 20,
      "range": [51, 70],
      "drawn": false,
      "img": null,
      "documentCollection": "",
      "documentId": null
    },
    {
      "_id": "XVrPSjWwRHzHHXOQ",
      "flags": {},
      "type": 0,
      "text": "Bracers of Armor +5",
      "weight": 20,
      "range": [71, 90],
      "drawn": false,
      "img": null,
      "documentCollection": "",
      "documentId": null
    },
    {
      "_id": "EEnrS0wCw0pVM8wF",
      "flags": {},
      "type": 0,
      "text": "Bracers of Sworn Vengeance",
      "weight": 10,
      "range": [91, 100],
      "drawn": false,
      "img": null,
      "documentCollection": "",
      "documentId": null
    }
  ],
  "formula": "1d100",
  "replacement": true,
  "displayRoll": true,
  "_id": "vcrKX0t1wTTVqNpd",
  "img": "icons/svg/d20-grey.svg",
  "sort": 0
}
