{
  "name": "Greater Medium Headband",
  "description": "",
  "results": [
    {
      "_id": "1wX9jok9OZRgn3j8",
      "flags": {},
      "type": 0,
      "text": "Headband of Arcane Energy",
      "weight": 30,
      "range": [1, 30],
      "drawn": false,
      "img": null,
      "documentCollection": "",
      "documentId": null
    },
    {
      "_id": "UNLkdMmjUkpY4w1W",
      "flags": {},
      "type": 0,
      "text": "Headband of Counterspelling",
      "weight": 40,
      "range": [31, 70],
      "drawn": false,
      "img": null,
      "documentCollection": "",
      "documentId": null
    },
    {
      "_id": "XqQa3LMQUZVGuOXd",
      "flags": {},
      "type": 0,
      "text": "Headband of Knucklebones",
      "weight": 30,
      "range": [71, 100],
      "drawn": false,
      "img": null,
      "documentCollection": "",
      "documentId": null
    }
  ],
  "formula": "1d100",
  "replacement": true,
  "displayRoll": true,
  "_id": "aEDH6KSDkboMpbbR",
  "img": "icons/svg/d20-grey.svg",
  "sort": 0
}
