{
  "_id": "0PVubenbyMwawXb4",
  "name": "Greater Major Armour and Shields",
  "description": "",
  "results": [
    {
      "_id": "4qqoeu9XFtfL1ekA",
      "flags": {},
      "type": 0,
      "text": "+4",
      "img": "icons/svg/d20-black.svg",
      "weight": 10,
      "range": [1, 10],
      "drawn": false,
      "documentId": null,
      "documentCollection": ""
    },
    {
      "_id": "xIdM11u3IkETEQxz",
      "flags": {},
      "type": 2,
      "text": "Armour Type",
      "img": "icons/svg/d20-black.svg",
      "weight": 10,
      "range": [1, 60],
      "drawn": false,
      "documentCollection": "pf1.ultimate-equipment",
      "documentId": "epzojqBeYIGA9ZkT"
    },
    {
      "_id": "APvqc1bWkq5p5YEn",
      "flags": {},
      "type": 0,
      "text": "+5",
      "img": "icons/svg/d20-black.svg",
      "weight": 10,
      "range": [11, 20],
      "drawn": false,
      "documentId": null,
      "documentCollection": ""
    },
    {
      "_id": "0VT6O6RSSvTsMpNg",
      "flags": {},
      "type": 0,
      "text": "+4, with one +1 special ability:",
      "img": "icons/svg/d20-black.svg",
      "weight": 10,
      "range": [21, 30],
      "drawn": false,
      "documentId": null,
      "documentCollection": ""
    },
    {
      "_id": "Haai93WZpbD6vQlK",
      "flags": {},
      "type": 2,
      "text": "+1 Armour Special Abilities",
      "img": "icons/svg/d20-black.svg",
      "weight": 10,
      "range": [21, 36],
      "drawn": false,
      "documentCollection": "pf1.ultimate-equipment",
      "documentId": "T3CFLxbmJCKB33Fq"
    },
    {
      "_id": "WHga8AlYdLrjAHth",
      "flags": {},
      "type": 0,
      "text": "+5, with one +1 special ability:",
      "img": "icons/svg/d20-black.svg",
      "weight": 8,
      "range": [31, 36],
      "drawn": false,
      "documentId": null,
      "documentCollection": ""
    },
    {
      "_id": "1e4OedRwzGjXWWTI",
      "flags": {},
      "type": 0,
      "text": "+4, with one +2 special ability:",
      "img": "icons/svg/d20-black.svg",
      "weight": 8,
      "range": [37, 41],
      "drawn": false,
      "documentId": null,
      "documentCollection": ""
    },
    {
      "_id": "8ZtNxsR8u9NDz9xj",
      "flags": {},
      "type": 2,
      "text": "+2 Armour Special Abilities",
      "img": "icons/svg/d20-black.svg",
      "weight": 10,
      "range": [37, 48],
      "drawn": false,
      "documentCollection": "pf1.ultimate-equipment",
      "documentId": "YvQv6sJxSfsc3EDe"
    },
    {
      "_id": "ZCHZPk8UUjUp48ZL",
      "flags": {},
      "type": 0,
      "text": "+5, with one +2 special ability:",
      "img": "icons/svg/d20-black.svg",
      "weight": 8,
      "range": [42, 45],
      "drawn": false,
      "documentId": null,
      "documentCollection": ""
    },
    {
      "_id": "6jMe6obJKW5fRCGj",
      "flags": {},
      "type": 0,
      "text": "+5, with two +2 special abilities:",
      "img": "icons/svg/d20-black.svg",
      "weight": 3,
      "range": [46, 48],
      "drawn": false,
      "documentId": null,
      "documentCollection": ""
    },
    {
      "_id": "nyyToO2F9Cx6viL2",
      "flags": {},
      "type": 2,
      "text": "+2 Armour Special Abilities",
      "img": "icons/svg/d20-black.svg",
      "weight": 10,
      "range": [46, 48],
      "drawn": false,
      "documentCollection": "pf1.ultimate-equipment",
      "documentId": "YvQv6sJxSfsc3EDe"
    },
    {
      "_id": "IhI2FIjvsdS1G4RA",
      "flags": {},
      "type": 0,
      "text": "+4, with one +3 special ability:",
      "img": "icons/svg/d20-black.svg",
      "weight": 8,
      "range": [49, 51],
      "drawn": false,
      "documentId": null,
      "documentCollection": ""
    },
    {
      "_id": "KuBW7ExXc4aE0UXB",
      "flags": {},
      "type": 2,
      "text": "+3 Armour Special Abilities",
      "img": "icons/svg/d20-black.svg",
      "weight": 10,
      "range": [49, 54],
      "drawn": false,
      "documentCollection": "pf1.ultimate-equipment",
      "documentId": "qYIEE5rBdKRQsnVt"
    },
    {
      "_id": "dbhuwU6KNTz3e021",
      "flags": {},
      "type": 0,
      "text": "+5, with one +3 special ability:",
      "img": "icons/svg/d20-black.svg",
      "weight": 4,
      "range": [52, 54],
      "drawn": false,
      "documentId": null,
      "documentCollection": ""
    },
    {
      "_id": "V5v1badeFmmLp149",
      "flags": {},
      "type": 0,
      "text": "+4, with one +4 special ability:",
      "img": "icons/svg/d20-black.svg",
      "weight": 5,
      "range": [55, 56],
      "drawn": false,
      "documentId": null,
      "documentCollection": ""
    },
    {
      "_id": "kzIu8UED6l36w16Z",
      "flags": {},
      "type": 2,
      "text": "+4 Armour Special Abilities",
      "img": "icons/svg/d20-black.svg",
      "weight": 10,
      "range": [55, 58],
      "drawn": false,
      "documentCollection": "pf1.ultimate-equipment",
      "documentId": "yE5XhRARt8pSu1cr"
    },
    {
      "_id": "IIO9UxKyVoaQFnih",
      "flags": {},
      "type": 0,
      "text": "+5, with one +4 special ability:",
      "img": "icons/svg/d20-black.svg",
      "weight": 3,
      "range": [57, 58],
      "drawn": false,
      "documentId": null,
      "documentCollection": ""
    },
    {
      "_id": "6zEJ3eD0au0JwLyf",
      "flags": {},
      "type": 0,
      "text": "+5, with one +5 special ability:",
      "img": "icons/svg/d20-black.svg",
      "weight": 2,
      "range": [59, 60],
      "drawn": false,
      "documentId": null,
      "documentCollection": ""
    },
    {
      "_id": "am8V7dLVB9O3hzoJ",
      "flags": {},
      "type": 2,
      "text": "+5 Armour Special Abilities",
      "img": "icons/svg/d20-black.svg",
      "weight": 10,
      "range": [59, 60],
      "drawn": false,
      "documentCollection": "pf1.ultimate-equipment",
      "documentId": "hIuANPsNhZCC6vGk"
    },
    {
      "_id": "7WZ21UvxP1WJTlwv",
      "flags": {},
      "type": 0,
      "text": "+4",
      "img": "icons/svg/d20-black.svg",
      "weight": 10,
      "range": [61, 64],
      "drawn": false,
      "documentId": null,
      "documentCollection": ""
    },
    {
      "_id": "LnQFHQjtJB2NwYcX",
      "flags": {},
      "type": 2,
      "text": "Shields",
      "img": "icons/svg/d20-black.svg",
      "weight": 10,
      "range": [61, 80],
      "drawn": false,
      "documentCollection": "pf1.ultimate-equipment",
      "documentId": "ssyKTRimRMVHtM0H"
    },
    {
      "_id": "OKQYHkWvWZ3vWKjC",
      "flags": {},
      "type": 0,
      "text": "+5",
      "img": "icons/svg/d20-black.svg",
      "weight": 10,
      "range": [65, 68],
      "drawn": false,
      "documentId": null,
      "documentCollection": ""
    },
    {
      "_id": "EOYQYqySajNhU7Lk",
      "flags": {},
      "type": 0,
      "text": "+4, with one +1 special ability:",
      "img": "icons/svg/d20-black.svg",
      "weight": 10,
      "range": [69, 71],
      "drawn": false,
      "documentId": null,
      "documentCollection": ""
    },
    {
      "_id": "3n5bBgQp6vYSRv9p",
      "flags": {},
      "type": 2,
      "text": "+1 Shield Special Abilities",
      "img": "icons/svg/d20-black.svg",
      "weight": 10,
      "range": [69, 72],
      "drawn": false,
      "documentCollection": "pf1.ultimate-equipment",
      "documentId": "E4bXrk4chpUqf7Xe"
    },
    {
      "_id": "mDHaxteMvbcSgRiX",
      "flags": {},
      "type": 0,
      "text": "+5, with one +1 special ability:",
      "img": "icons/svg/d20-black.svg",
      "weight": 10,
      "range": [72, 72],
      "drawn": false,
      "documentId": null,
      "documentCollection": ""
    },
    {
      "_id": "DyAvykddxmXD9Sw0",
      "flags": {},
      "type": 0,
      "text": "+4, with one +2 special ability:",
      "img": "icons/svg/d20-black.svg",
      "weight": 10,
      "range": [73, 73],
      "drawn": false,
      "documentId": null,
      "documentCollection": ""
    },
    {
      "_id": "7lEof5b7YTJtG0XZ",
      "flags": {},
      "type": 2,
      "text": "+2 Shield Special Abilities",
      "img": "icons/svg/d20-black.svg",
      "weight": 10,
      "range": [73, 75],
      "drawn": false,
      "documentCollection": "pf1.ultimate-equipment",
      "documentId": "oTf08HGIdHbf3gQP"
    },
    {
      "_id": "OFZSFozxaEiKJiMt",
      "flags": {},
      "type": 0,
      "text": "+5, with one +2 special ability:",
      "img": "icons/svg/d20-black.svg",
      "weight": 10,
      "range": [74, 74],
      "drawn": false,
      "documentId": null,
      "documentCollection": ""
    },
    {
      "_id": "R4b44yP6XzEP82Fq",
      "flags": {},
      "type": 0,
      "text": "+5, with two +2 special abilities:",
      "img": "icons/svg/d20-black.svg",
      "weight": 10,
      "range": [75, 75],
      "drawn": false,
      "documentId": null,
      "documentCollection": ""
    },
    {
      "_id": "5rMeeOzLOR5QBK3c",
      "flags": {},
      "type": 2,
      "text": "+2 Shield Special Abilities",
      "img": "icons/svg/d20-black.svg",
      "weight": 10,
      "range": [75, 75],
      "drawn": false,
      "documentCollection": "pf1.ultimate-equipment",
      "documentId": "oTf08HGIdHbf3gQP"
    },
    {
      "_id": "D1f5dJWubT1c3am0",
      "flags": {},
      "type": 0,
      "text": "+4, with one +3 special ability:",
      "img": "icons/svg/d20-black.svg",
      "weight": 10,
      "range": [76, 76],
      "drawn": false,
      "documentId": null,
      "documentCollection": ""
    },
    {
      "_id": "e7kcQKXATtbbBb9Q",
      "flags": {},
      "type": 2,
      "text": "+3 Shield Special Abilities",
      "img": "icons/svg/d20-black.svg",
      "weight": 10,
      "range": [76, 77],
      "drawn": false,
      "documentCollection": "pf1.ultimate-equipment",
      "documentId": "z5z0iTlGLlsHonWE"
    },
    {
      "_id": "jWpXhG5T0tqaO0M4",
      "flags": {},
      "type": 0,
      "text": "+5, with one +3 special ability:",
      "img": "icons/svg/d20-black.svg",
      "weight": 10,
      "range": [77, 77],
      "drawn": false,
      "documentId": null,
      "documentCollection": ""
    },
    {
      "_id": "sQETdj0oPHRGyYur",
      "flags": {},
      "type": 0,
      "text": "+4, with one +4 special ability:",
      "img": "icons/svg/d20-black.svg",
      "weight": 10,
      "range": [78, 78],
      "drawn": false,
      "documentId": null,
      "documentCollection": ""
    },
    {
      "_id": "Cnl2a42BuDUXllHQ",
      "flags": {},
      "type": 2,
      "text": "+4 Shield Special Abilities",
      "img": "icons/svg/d20-black.svg",
      "weight": 10,
      "range": [78, 79],
      "drawn": false,
      "documentCollection": "pf1.ultimate-equipment",
      "documentId": "fgCE9DTIHLAmoHaP"
    },
    {
      "_id": "pDYKakTYkEAHc10D",
      "flags": {},
      "type": 0,
      "text": "+5, with one +4 special ability:",
      "img": "icons/svg/d20-black.svg",
      "weight": 10,
      "range": [79, 79],
      "drawn": false,
      "documentId": null,
      "documentCollection": ""
    },
    {
      "_id": "F0sYCnghRz6YQntb",
      "flags": {},
      "type": 0,
      "text": "+5, with one +5 special ability:",
      "img": "icons/svg/d20-black.svg",
      "weight": 10,
      "range": [80, 80],
      "drawn": false,
      "documentId": null,
      "documentCollection": ""
    },
    {
      "_id": "V24soA6xK9gOght5",
      "flags": {},
      "type": 2,
      "text": "+5 Shield Special Abilities",
      "img": "icons/svg/d20-black.svg",
      "weight": 10,
      "range": [80, 80],
      "drawn": false,
      "documentCollection": "pf1.ultimate-equipment",
      "documentId": "IgFtgWsDBRwsJV0N"
    },
    {
      "_id": "fmFI3rJG03gvBgqU",
      "flags": {},
      "type": 2,
      "text": "Greater Major Specific Armours",
      "img": "icons/svg/d20-black.svg",
      "weight": 10,
      "range": [81, 90],
      "drawn": false,
      "documentCollection": "pf1.ultimate-equipment",
      "documentId": "rThvP7MawZvNzoCY"
    },
    {
      "_id": "mLJN8L1FKNwKzvip",
      "flags": {},
      "type": 2,
      "text": "Greater Major Specific Shields",
      "img": "icons/svg/d20-black.svg",
      "weight": 10,
      "range": [91, 100],
      "drawn": false,
      "documentCollection": "pf1.ultimate-equipment",
      "documentId": "CaQhCWev7u0Ba4eb"
    }
  ],
  "formula": "1d100",
  "replacement": true,
  "displayRoll": true,
  "img": "icons/svg/d20-grey.svg",
  "sort": 0
}
