{
  "name": "Greater Minor Specific Weapons",
  "description": "",
  "results": [
    {
      "_id": "Q1i1FtqmCmT4UScU",
      "flags": {},
      "type": 0,
      "text": "Adamantine Dagger",
      "weight": 20,
      "range": [1, 20],
      "drawn": false,
      "img": null,
      "documentCollection": "",
      "documentId": null
    },
    {
      "_id": "RhJZwPJBbhnfa1ej",
      "flags": {},
      "type": 0,
      "text": "Adamantine Battleaxe",
      "weight": 20,
      "range": [21, 40],
      "drawn": false,
      "img": null,
      "documentCollection": "",
      "documentId": null
    },
    {
      "_id": "dISPOGpSxbSL7Sgt",
      "flags": {},
      "type": 0,
      "text": "Burrowing Bullet, Greater",
      "weight": 10,
      "range": [41, 50],
      "drawn": false,
      "img": null,
      "documentCollection": "",
      "documentId": null
    },
    {
      "_id": "h2AKsFkalzyu03u4",
      "flags": {},
      "type": 0,
      "text": "Halfling Slaying Arrow, Greater",
      "weight": 20,
      "range": [51, 70],
      "drawn": false,
      "img": null,
      "documentCollection": "",
      "documentId": null
    },
    {
      "_id": "xU1L4TDSdHznCest",
      "flags": {},
      "type": 0,
      "text": "Lance of Jousting",
      "weight": 10,
      "range": [71, 80],
      "drawn": false,
      "img": null,
      "documentCollection": "",
      "documentId": null
    },
    {
      "_id": "0j8x6vugV2Nlu4S6",
      "flags": {},
      "type": 0,
      "text": "Shatterspike",
      "weight": 20,
      "range": [81, 100],
      "drawn": false,
      "img": null,
      "documentCollection": "",
      "documentId": null
    }
  ],
  "formula": "1d100",
  "replacement": true,
  "displayRoll": true,
  "_id": "Djgwm2PCstVZEJup",
  "img": "icons/svg/d20-grey.svg",
  "sort": 0
}
