{
  "name": "Lesser Minor Eye",
  "description": "",
  "results": [
    {
      "_id": "QdxyLSUBMkExtsgm",
      "flags": {},
      "type": 0,
      "text": "Deathwatch Eyes",
      "weight": 18,
      "range": [1, 18],
      "drawn": false,
      "img": null,
      "documentCollection": "",
      "documentId": null
    },
    {
      "_id": "ejN7yui1J2PziLQ6",
      "flags": {},
      "type": 0,
      "text": "Eyes of the Eagle",
      "weight": 20,
      "range": [19, 38],
      "drawn": false,
      "img": null,
      "documentCollection": "",
      "documentId": null
    },
    {
      "_id": "SOGcW9bpUJxHguIL",
      "flags": {},
      "type": 0,
      "text": "Goggles of Minute Seeing",
      "weight": 20,
      "range": [39, 58],
      "drawn": false,
      "img": null,
      "documentCollection": "",
      "documentId": null
    },
    {
      "_id": "viIteOYBsZyKX83o",
      "flags": {},
      "type": 0,
      "text": "Pirate's Eye Patch",
      "weight": 14,
      "range": [59, 72],
      "drawn": false,
      "img": null,
      "documentCollection": "",
      "documentId": null
    },
    {
      "_id": "X8FcWLyRwM2eA7rd",
      "flags": {},
      "type": 0,
      "text": "Spectacles of Understanding",
      "weight": 15,
      "range": [73, 87],
      "drawn": false,
      "img": null,
      "documentCollection": "",
      "documentId": null
    },
    {
      "_id": "4iifZTh5kgh5vzYx",
      "flags": {},
      "type": 0,
      "text": "Lenses of Detection",
      "weight": 13,
      "range": [88, 100],
      "drawn": false,
      "img": null,
      "documentCollection": "",
      "documentId": null
    }
  ],
  "formula": "1d100",
  "replacement": true,
  "displayRoll": true,
  "_id": "RdtqAAJ7ixYDJye6",
  "img": "icons/svg/d20-grey.svg",
  "sort": 0
}
