{
  "name": "Lesser Major Specific Shields",
  "description": "",
  "results": [
    {
      "_id": "gkMUYINOPDbtBSei",
      "flags": {},
      "type": 0,
      "text": "Battlement Shield",
      "weight": 20,
      "range": [1, 20],
      "drawn": false,
      "img": null,
      "documentCollection": "",
      "documentId": null
    },
    {
      "_id": "KL1VHXfMhh2plywk",
      "flags": {},
      "type": 0,
      "text": "Winged Shield",
      "weight": 20,
      "range": [21, 40],
      "drawn": false,
      "img": null,
      "documentCollection": "",
      "documentId": null
    },
    {
      "_id": "xOUv5CQ17lk8GSJx",
      "flags": {},
      "type": 0,
      "text": "Avalanche Shield",
      "weight": 20,
      "range": [41, 60],
      "drawn": false,
      "img": null,
      "documentCollection": "",
      "documentId": null
    },
    {
      "_id": "nHsD4CD8jh0McLH2",
      "flags": {},
      "type": 0,
      "text": "Fortress Shield",
      "weight": 20,
      "range": [61, 80],
      "drawn": false,
      "img": null,
      "documentCollection": "",
      "documentId": null
    },
    {
      "_id": "yd4LSd1o8UqB4wdd",
      "flags": {},
      "type": 0,
      "text": "Wyrmslayer's Shield",
      "weight": 20,
      "range": [81, 100],
      "drawn": false,
      "img": null,
      "documentCollection": "",
      "documentId": null
    }
  ],
  "formula": "1d100",
  "replacement": true,
  "displayRoll": true,
  "_id": "P79FCi5Obad1ZVFw",
  "img": "icons/svg/d20-grey.svg",
  "sort": 0
}
