{
  "name": "Lesser Minor Feet",
  "description": "",
  "results": [
    {
      "_id": "FHJb96Syu15i3s99",
      "flags": {},
      "type": 0,
      "text": "Boots of the Cat",
      "weight": 11,
      "range": [1, 11],
      "drawn": false,
      "img": null,
      "documentCollection": "",
      "documentId": null
    },
    {
      "_id": "0BRM2mHtgUwBlcbJ",
      "flags": {},
      "type": 0,
      "text": "Daredevil Boots",
      "weight": 11,
      "range": [12, 22],
      "drawn": false,
      "img": null,
      "documentCollection": "",
      "documentId": null
    },
    {
      "_id": "FDGk1hPpxV1pKFuZ",
      "flags": {},
      "type": 0,
      "text": "Boots of the Enduring March",
      "weight": 9,
      "range": [23, 31],
      "drawn": false,
      "img": null,
      "documentCollection": "",
      "documentId": null
    },
    {
      "_id": "dXIcK3Sm1ufutpyd",
      "flags": {},
      "type": 0,
      "text": "Feather Step Slippers",
      "weight": 10,
      "range": [32, 41],
      "drawn": false,
      "img": null,
      "documentCollection": "",
      "documentId": null
    },
    {
      "_id": "kiwQwsG2IhJ8dSOt",
      "flags": {},
      "type": 0,
      "text": "Boots of Friendly Terrain",
      "weight": 9,
      "range": [42, 50],
      "drawn": false,
      "img": null,
      "documentCollection": "",
      "documentId": null
    },
    {
      "_id": "GBPmaJXyjEQiiq5u",
      "flags": {},
      "type": 0,
      "text": "Boots of the Winterlands",
      "weight": 10,
      "range": [51, 60],
      "drawn": false,
      "img": null,
      "documentCollection": "",
      "documentId": null
    },
    {
      "_id": "FzyC9vkes0uhayK3",
      "flags": {},
      "type": 0,
      "text": "Boots of Elvenkind",
      "weight": 16,
      "range": [61, 76],
      "drawn": false,
      "img": null,
      "documentCollection": "",
      "documentId": null
    },
    {
      "_id": "4KyO0cgN2LsCmzFV",
      "flags": {},
      "type": 0,
      "text": "Acrobat Slippers",
      "weight": 9,
      "range": [77, 85],
      "drawn": false,
      "img": null,
      "documentCollection": "",
      "documentId": null
    },
    {
      "_id": "HW1WMykIZUMB1tWO",
      "flags": {},
      "type": 0,
      "text": "Horseshoes of Speed",
      "weight": 7,
      "range": [86, 92],
      "drawn": false,
      "img": null,
      "documentCollection": "",
      "documentId": null
    },
    {
      "_id": "jqRs3aeBYi2pzcYc",
      "flags": {},
      "type": 0,
      "text": "Boots of the Mire",
      "weight": 8,
      "range": [93, 100],
      "drawn": false,
      "img": null,
      "documentCollection": "",
      "documentId": null
    }
  ],
  "formula": "1d100",
  "replacement": true,
  "displayRoll": true,
  "_id": "GhK94oQ7mfioCSaI",
  "img": "icons/svg/d20-grey.svg",
  "sort": 0
}
