{
  "name": "Lesser Major Headband",
  "description": "",
  "results": [
    {
      "_id": "d7MTDqma29TTeVLk",
      "flags": {},
      "type": 0,
      "text": "Soulbound Eye",
      "weight": 9,
      "range": [1, 9],
      "drawn": false,
      "img": null,
      "documentCollection": "",
      "documentId": null
    },
    {
      "_id": "Yh9ZLo6EXCoEbEmq",
      "flags": {},
      "type": 0,
      "text": "Winter Wolf Headband",
      "weight": 10,
      "range": [10, 19],
      "drawn": false,
      "img": null,
      "documentCollection": "",
      "documentId": null
    },
    {
      "_id": "QAtrVgerf41ybhsK",
      "flags": {},
      "type": 0,
      "text": "Headband of Alluring Charisma +6",
      "weight": 13,
      "range": [20, 32],
      "drawn": false,
      "img": null,
      "documentCollection": "",
      "documentId": null
    },
    {
      "_id": "tnae87vg76rfn7Em",
      "flags": {},
      "type": 0,
      "text": "Headband of Inspired Wisdom +6",
      "weight": 13,
      "range": [33, 45],
      "drawn": false,
      "img": null,
      "documentCollection": "",
      "documentId": null
    },
    {
      "_id": "yp3LVmxGxsYMTTKq",
      "flags": {},
      "type": 0,
      "text": "Headband of Vast Intelligence +6",
      "weight": 13,
      "range": [46, 58],
      "drawn": false,
      "img": null,
      "documentCollection": "",
      "documentId": null
    },
    {
      "_id": "hpIaB67AeHV8momZ",
      "flags": {},
      "type": 0,
      "text": "Shift.r's Headband +6",
      "weight": 8,
      "range": [59, 66],
      "drawn": false,
      "img": null,
      "documentCollection": "",
      "documentId": null
    },
    {
      "_id": "iQ1Bt6l0ycwJkbH3",
      "flags": {},
      "type": 0,
      "text": "Headband of Mental Prowess +4",
      "weight": 15,
      "range": [67, 81],
      "drawn": false,
      "img": null,
      "documentCollection": "",
      "documentId": null
    },
    {
      "_id": "dhALljbfQSQ92419",
      "flags": {},
      "type": 0,
      "text": "Headband of Seduction",
      "weight": 9,
      "range": [82, 90],
      "drawn": false,
      "img": null,
      "documentCollection": "",
      "documentId": null
    },
    {
      "_id": "uWYMARzuOqtLmxh3",
      "flags": {},
      "type": 0,
      "text": "Headband of Aerial Agility +4",
      "weight": 10,
      "range": [91, 100],
      "drawn": false,
      "img": null,
      "documentCollection": "",
      "documentId": null
    }
  ],
  "formula": "1d100",
  "replacement": true,
  "displayRoll": true,
  "_id": "iLOFGvcHV4qyMnA7",
  "img": "icons/svg/d20-grey.svg",
  "sort": 0
}
