{
  "name": "Lesser Major Eye",
  "description": "",
  "results": [
    {
      "_id": "Fu7k5QlbOHl2544n",
      "flags": {},
      "type": 0,
      "text": "Eyes of Eyebite",
      "weight": 60,
      "range": [1, 60],
      "drawn": false,
      "img": null,
      "documentCollection": "",
      "documentId": null
    },
    {
      "_id": "dBCAM2mUBfCiA9UD",
      "flags": {},
      "type": 0,
      "text": "Sniper Goggles, Greater",
      "weight": 40,
      "range": [61, 100],
      "drawn": false,
      "img": null,
      "documentCollection": "",
      "documentId": null
    }
  ],
  "formula": "1d100",
  "replacement": true,
  "displayRoll": true,
  "_id": "u2OvICXFX6hEC9IR",
  "img": "icons/svg/d20-grey.svg",
  "sort": 0
}
