{
  "_id": "k4AfGCVMTYYjWiyO",
  "name": "Lesser Minor Divine Scrolls",
  "description": "",
  "results": [
    {
      "_id": "RG931TAH19SLupzr",
      "flags": {},
      "type": 2,
      "text": "Common Level 0 Divine Scrolls",
      "img": "icons/svg/d20-black.svg",
      "weight": 15,
      "range": [1, 15],
      "drawn": false,
      "documentCollection": "pf1.ultimate-equipment",
      "documentId": "oQJAp9ehquwTQoEG"
    },
    {
      "_id": "j20j4RFweJTSDkdE",
      "flags": {},
      "type": 2,
      "text": "Common Level 1 Divine Scrolls",
      "img": "icons/svg/d20-black.svg",
      "weight": 80,
      "range": [16, 95],
      "drawn": false,
      "documentCollection": "pf1.ultimate-equipment",
      "documentId": "ChuzetMXj6gRKCaI"
    },
    {
      "_id": "ocTL2gYiNYbCwdl7",
      "flags": {},
      "type": 2,
      "text": "Common Level 2 Divine Scrolls",
      "weight": 5,
      "range": [96, 100],
      "drawn": false,
      "documentCollection": "pf1.ultimate-equipment",
      "documentId": "4K2GxrliYpHJs3tT",
      "img": null
    }
  ],
  "formula": "1d100",
  "replacement": true,
  "displayRoll": true,
  "img": "icons/svg/d20-grey.svg",
  "sort": 0
}
