{
  "name": "Lesser Medium Feet",
  "description": "",
  "results": [
    {
      "_id": "aQxEpiHSPGEdKzo5",
      "flags": {},
      "type": 0,
      "text": "Boots of Escape",
      "weight": 8,
      "range": [1, 8],
      "drawn": false,
      "img": null,
      "documentCollection": "",
      "documentId": null
    },
    {
      "_id": "Dv1nm9dA8s7OFwVE",
      "flags": {},
      "type": 0,
      "text": "Earth Root Boots",
      "weight": 6,
      "range": [9, 14],
      "drawn": false,
      "img": null,
      "documentCollection": "",
      "documentId": null
    },
    {
      "_id": "dgUXjjkH7Dpgcrly",
      "flags": {},
      "type": 0,
      "text": "Nightmare Boots",
      "weight": 7,
      "range": [15, 21],
      "drawn": false,
      "img": null,
      "documentCollection": "",
      "documentId": null
    },
    {
      "_id": "JTxLTgvAMWJ9L67H",
      "flags": {},
      "type": 0,
      "text": "Nightmare Horseshoes",
      "weight": 5,
      "range": [22, 26],
      "drawn": false,
      "img": null,
      "documentCollection": "",
      "documentId": null
    },
    {
      "_id": "M7SZi8v5KSu0FO6k",
      "flags": {},
      "type": 0,
      "text": "Caltrop Boots",
      "weight": 6,
      "range": [27, 32],
      "drawn": false,
      "img": null,
      "documentCollection": "",
      "documentId": null
    },
    {
      "_id": "eocjOPCbh3n5uR6A",
      "flags": {},
      "type": 0,
      "text": "Tremor Boots",
      "weight": 7,
      "range": [33, 39],
      "drawn": false,
      "img": null,
      "documentCollection": "",
      "documentId": null
    },
    {
      "_id": "e7xeyvqqOuZ3iAvZ",
      "flags": {},
      "type": 0,
      "text": "Boots of the Mastodon",
      "weight": 8,
      "range": [40, 47],
      "drawn": false,
      "img": null,
      "documentCollection": "",
      "documentId": null
    },
    {
      "_id": "pM4ZpeZS2sx3vt9d",
      "flags": {},
      "type": 0,
      "text": "Shoes of the Lightning Leaper",
      "weight": 7,
      "range": [48, 54],
      "drawn": false,
      "img": null,
      "documentCollection": "",
      "documentId": null
    },
    {
      "_id": "GSIJrZjSvjDyrTpc",
      "flags": {},
      "type": 0,
      "text": "Boots of Speed",
      "weight": 16,
      "range": [55, 70],
      "drawn": false,
      "img": null,
      "documentCollection": "",
      "documentId": null
    },
    {
      "_id": "Ehv4q9cBnBXC7kgx",
      "flags": {},
      "type": 0,
      "text": "Verdant Boots",
      "weight": 7,
      "range": [71, 77],
      "drawn": false,
      "img": null,
      "documentCollection": "",
      "documentId": null
    },
    {
      "_id": "cvv8ONLtNFHh7yXj",
      "flags": {},
      "type": 0,
      "text": "Horseshoes of Crushing Blows +2",
      "weight": 7,
      "range": [78, 84],
      "drawn": false,
      "img": null,
      "documentCollection": "",
      "documentId": null
    },
    {
      "_id": "OB8SvkQF6ZhA3Y1h",
      "flags": {},
      "type": 0,
      "text": "Winged Boots",
      "weight": 16,
      "range": [85, 100],
      "drawn": false,
      "img": null,
      "documentCollection": "",
      "documentId": null
    }
  ],
  "formula": "1d100",
  "replacement": true,
  "displayRoll": true,
  "_id": "H5O2yEua379XhU5t",
  "img": "icons/svg/d20-grey.svg",
  "sort": 0
}
