{
  "_id": "7buBBmB2sA2FqP4E",
  "name": "Lesser Major Magic Items",
  "description": "",
  "results": [
    {
      "_id": "G7cr9fnI7FvccaUF",
      "flags": {},
      "type": 2,
      "text": "Lesser Major Armour and Shields",
      "img": "icons/svg/d20-black.svg",
      "weight": 10,
      "range": [1, 10],
      "drawn": false,
      "documentCollection": "pf1.ultimate-equipment",
      "documentId": "EApz1mjxhTnDY7wQ"
    },
    {
      "_id": "UUzBILwaECO0WYoz",
      "flags": {},
      "type": 2,
      "text": "Lesser Major Weapon",
      "img": "icons/svg/d20-black.svg",
      "weight": 10,
      "range": [11, 20],
      "drawn": false,
      "documentCollection": "pf1.ultimate-equipment",
      "documentId": "PynO9m3MC3swHndv"
    },
    {
      "_id": "cb0uza8gqhQwLgPT",
      "flags": {},
      "type": 2,
      "text": "Common Level 3 Potions and Oils",
      "img": "icons/svg/d20-black.svg",
      "weight": 3,
      "range": [21, 23],
      "drawn": false,
      "documentCollection": "pf1.ultimate-equipment",
      "documentId": "PsQiiIpx8B3PHcOf"
    },
    {
      "_id": "69D3YZ9lIeRQZLFC",
      "flags": {},
      "type": 2,
      "text": "Uncommon Level 3 Potions and Oils",
      "img": "icons/svg/d20-black.svg",
      "weight": 2,
      "range": [24, 25],
      "drawn": false,
      "documentCollection": "pf1.ultimate-equipment",
      "documentId": "syOK3i5SVcAKvYuC"
    },
    {
      "_id": "VbuER5eJYQnIYjzw",
      "flags": {},
      "type": 2,
      "text": "Lesser Major Ring",
      "img": "icons/svg/d20-black.svg",
      "weight": 10,
      "range": [26, 35],
      "drawn": false,
      "documentCollection": "pf1.ultimate-equipment",
      "documentId": "27S2TQrfJ7zdYmX4"
    },
    {
      "_id": "n41cUmqky7dgYupe",
      "flags": {},
      "type": 2,
      "text": "Lesser Major Rods",
      "img": "icons/svg/d20-black.svg",
      "weight": 7,
      "range": [36, 42],
      "drawn": false,
      "documentCollection": "pf1.ultimate-equipment",
      "documentId": "x1iE81wAnyDfVCU3"
    },
    {
      "_id": "RUFrxj0dYWmbcj2e",
      "flags": {},
      "type": 2,
      "text": "Metamagic Rods +2 Level",
      "img": "icons/svg/d20-black.svg",
      "weight": 3,
      "range": [43, 45],
      "drawn": false,
      "documentCollection": "pf1.ultimate-equipment",
      "documentId": "fVtebKXOC6OlBcKl"
    },
    {
      "_id": "J0z3FI3ErQffSF6Y",
      "flags": {},
      "type": 2,
      "text": "Lesser Major Arcane Scrolls",
      "img": "icons/svg/d20-black.svg",
      "weight": 5,
      "range": [46, 50],
      "drawn": false,
      "documentCollection": "pf1.ultimate-equipment",
      "documentId": "zzxds6HBqb1rZHhI"
    },
    {
      "_id": "E2wpNArB1KmgFiUH",
      "flags": {},
      "type": 2,
      "text": "Lesser Major Divine Scrolls",
      "img": "icons/svg/d20-black.svg",
      "weight": 5,
      "range": [51, 55],
      "drawn": false,
      "documentCollection": "pf1.ultimate-equipment",
      "documentId": "QeTShHO47dPTHdOm"
    },
    {
      "_id": "CN8xN260LbBf2SgK",
      "flags": {},
      "type": 2,
      "text": "Lesser Major Staff",
      "img": "icons/svg/d20-black.svg",
      "weight": 13,
      "range": [56, 68],
      "drawn": false,
      "documentCollection": "pf1.ultimate-equipment",
      "documentId": "usiS9NTj4FXec3l7"
    },
    {
      "_id": "s4HSTiRHzAorn0EB",
      "flags": {},
      "type": 2,
      "text": "Common Level 3 Wands",
      "img": "icons/svg/d20-black.svg",
      "weight": 2,
      "range": [69, 70],
      "drawn": false,
      "documentCollection": "pf1.ultimate-equipment",
      "documentId": "dB3WvGIjmNmuI0kP"
    },
    {
      "_id": "gL4zop5BWkpgb3bJ",
      "flags": {},
      "type": 2,
      "text": "Uncommon Level 3 Wands",
      "img": "icons/svg/d20-black.svg",
      "weight": 2,
      "range": [71, 72],
      "drawn": false,
      "documentCollection": "pf1.ultimate-equipment",
      "documentId": "tQ3dzkGqsrzhzHKl"
    },
    {
      "_id": "FFhJEQshRkhkQfpt",
      "flags": {},
      "type": 2,
      "text": "Common Level 4 Wands",
      "img": "icons/svg/d20-black.svg",
      "weight": 2,
      "range": [73, 74],
      "drawn": false,
      "documentCollection": "pf1.ultimate-equipment",
      "documentId": "tZRMfjJerg5a9O5N"
    },
    {
      "_id": "hRg4sZvGQHn7ZnDG",
      "flags": {},
      "type": 2,
      "text": "Uncommon Level 4 Wands",
      "img": "icons/svg/d20-black.svg",
      "weight": 2,
      "range": [75, 76],
      "drawn": false,
      "documentCollection": "pf1.ultimate-equipment",
      "documentId": "AoVoLFKJpX4bPUqh"
    },
    {
      "_id": "NoIwrQeEYhOjduqF",
      "flags": {},
      "type": 2,
      "text": "Lesser Major Belt",
      "img": "icons/svg/d20-black.svg",
      "weight": 2,
      "range": [77, 78],
      "drawn": false,
      "documentCollection": "pf1.ultimate-equipment",
      "documentId": "RdxNHFjg9vhXma5p"
    },
    {
      "_id": "37eBbYbPmJmjLaM3",
      "flags": {},
      "type": 2,
      "text": "Lesser Major Body",
      "img": "icons/svg/d20-black.svg",
      "weight": 2,
      "range": [79, 80],
      "drawn": false,
      "documentCollection": "pf1.ultimate-equipment",
      "documentId": "UZPaNBBXrNuar3MU"
    },
    {
      "_id": "fpN58CPUf9vwJJpr",
      "flags": {},
      "type": 2,
      "text": "Lesser Major Chest",
      "img": "icons/svg/d20-black.svg",
      "weight": 2,
      "range": [81, 82],
      "drawn": false,
      "documentCollection": "pf1.ultimate-equipment",
      "documentId": "mYYGzlk8xSc4dYfZ"
    },
    {
      "_id": "wXHL86HudaDHGd2d",
      "flags": {},
      "type": 2,
      "text": "Lesser Major Eye",
      "img": "icons/svg/d20-black.svg",
      "weight": 2,
      "range": [83, 84],
      "drawn": false,
      "documentCollection": "pf1.ultimate-equipment",
      "documentId": "u2OvICXFX6hEC9IR"
    },
    {
      "_id": "mf58cffKyazbLwOR",
      "flags": {},
      "type": 2,
      "text": "Lesser Major Feet",
      "img": "icons/svg/d20-black.svg",
      "weight": 2,
      "range": [85, 86],
      "drawn": false,
      "documentCollection": "pf1.ultimate-equipment",
      "documentId": "VmceqU0a8dnBWEBl"
    },
    {
      "_id": "oalQ9rPqxo55lrBL",
      "flags": {},
      "type": 2,
      "text": "Lesser Major Hand",
      "img": "icons/svg/d20-black.svg",
      "weight": 2,
      "range": [87, 88],
      "drawn": false,
      "documentCollection": "pf1.ultimate-equipment",
      "documentId": "1GT0e5OB1sL2C1i6"
    },
    {
      "_id": "cZNQntf1Xovgxi7n",
      "flags": {},
      "type": 2,
      "text": "Lesser Major Head",
      "img": "icons/svg/d20-black.svg",
      "weight": 2,
      "range": [89, 90],
      "drawn": false,
      "documentCollection": "pf1.ultimate-equipment",
      "documentId": "BwN5gvs2HY3xnM9O"
    },
    {
      "_id": "gaSUmqqn9ctTnibB",
      "flags": {},
      "type": 2,
      "text": "Lesser Major Headband",
      "img": "icons/svg/d20-black.svg",
      "weight": 2,
      "range": [91, 92],
      "drawn": false,
      "documentCollection": "pf1.ultimate-equipment",
      "documentId": "iLOFGvcHV4qyMnA7"
    },
    {
      "_id": "crkcNdqVMi8LLTXX",
      "flags": {},
      "type": 2,
      "text": "Lesser Major Neck",
      "img": "icons/svg/d20-black.svg",
      "weight": 2,
      "range": [93, 94],
      "drawn": false,
      "documentCollection": "pf1.ultimate-equipment",
      "documentId": "gNu1huVcHqEfaOsj"
    },
    {
      "_id": "NsVpOBM4PZQVzNAm",
      "flags": {},
      "type": 2,
      "text": "Lesser Major Shoulders",
      "img": "icons/svg/d20-black.svg",
      "weight": 2,
      "range": [95, 96],
      "drawn": false,
      "documentCollection": "pf1.ultimate-equipment",
      "documentId": "yiO4RuVs9hMgPd8E"
    },
    {
      "_id": "0v3DXuke0Hisa1ei",
      "flags": {},
      "type": 2,
      "text": "Lesser Major Wrists",
      "img": "icons/svg/d20-black.svg",
      "weight": 2,
      "range": [97, 98],
      "drawn": false,
      "documentCollection": "pf1.ultimate-equipment",
      "documentId": "v5dyjmWDFjr71B0s"
    },
    {
      "_id": "G6jMDKX0pr5OLXhE",
      "flags": {},
      "type": 2,
      "text": "Lesser Major Slotless",
      "img": "icons/svg/d20-black.svg",
      "weight": 2,
      "range": [99, 100],
      "drawn": false,
      "documentCollection": "pf1.ultimate-equipment",
      "documentId": "wEGI07y5TyF2yGdS"
    }
  ],
  "formula": "1d100",
  "replacement": true,
  "displayRoll": true,
  "img": "icons/svg/d20-grey.svg",
  "sort": 0
}
