{
  "_id": "6i0yr19dgO50GygU",
  "name": "Field Plate",
  "type": "equipment",
  "img": "systems/pf1/icons/items/armor/field-plate.png",
  "system": {
    "description": {
      "value": "<p>This heavy armor is similar to full plate but lighter in construction, sacrificing a bit of protection for greater flexibility and mobility.</p>"
    },
    "weight": {
      "value": 50
    },
    "price": 1200,
    "hp": {
      "max": 35,
      "value": 35
    },
    "hardness": 10,
    "baseTypes": ["Field Plate"],
    "equipmentSubtype": "heavyArmor",
    "armor": {
      "value": 7,
      "dex": 1,
      "acp": 5
    },
    "spellFailure": 35,
    "slot": "armor"
  }
}
