{
  "_id": "6zjwZeZmhqmAFC82",
  "name": "Heavy Wooden Shield",
  "type": "equipment",
  "img": "systems/pf1/icons/items/armor/shield-heavy-wood.png",
  "system": {
    "description": {
      "value": "<p>A heavy wooden shield is essentially the same as a heavy steel shield, except that it responds differently to some spells and effects (such as <em>rusting grasp</em>). A druid can use a heavy wooden shield, but not a heavy steel shield.</p>"
    },
    "weight": {
      "value": 10
    },
    "price": 7,
    "hp": {
      "max": 15,
      "value": 15
    },
    "hardness": 5,
    "subType": "shield",
    "equipmentSubtype": "heavyShield",
    "armor": {
      "value": 2,
      "acp": 2
    },
    "spellFailure": 15,
    "slot": "shield"
  }
}
