{
  "_id": "CRtBIIyBtNCsxztO",
  "name": "Splint Mail",
  "type": "equipment",
  "img": "systems/pf1/icons/items/armor/splint-mail.png",
  "system": {
    "description": {
      "value": "<p>Splint mail is made up of overlapping layers of metal strips attached to a backing of leather or sturdy fabric. These splints are of greater size and durability than those that compose a suit of scale mail, improving the protection they afford the wearer, but at the cost of flexibility. A suit of splint mail includes gauntlets.</p>"
    },
    "weight": {
      "value": 45
    },
    "price": 200,
    "hp": {
      "max": 35,
      "value": 35
    },
    "hardness": 10,
    "baseTypes": ["Splint Mail"],
    "equipmentSubtype": "heavyArmor",
    "armor": {
      "value": 7,
      "dex": 0,
      "acp": 7
    },
    "spellFailure": 40,
    "slot": "armor"
  }
}
