{
  "_id": "1JyzDvOVL6t9uw2K",
  "name": "Cleric (Quick)",
  "type": "feat",
  "img": "systems/pf1/icons/skills/violet_07.jpg",
  "system": {
    "description": {
      "value": "<p><b>Acquired/Inherited Template</b> Acquired<br><b>Simple Template</b> Yes<br><b>Usable with Summons</b> No<p>As a conduit of divine power, a cleric creature is often viewed with great respect by its community. A cleric creature's CR increases by 2 if the creature has 7 or more HD, and it increases by 3 if the creature has 13 or more HD. A cleric creature must worship a deity (which must be determined when the template is added) and its alignment must be within one step of that deity's.<p><b>Quick Rules:</b> +2 on all rolls based on Wis; can channel energy† a number of times per day equal to 3 + its Cha modifier (positive if good, negative if evil, choose if neutral; using its HD – 2 as its cleric level to determine the effect and DC, minimum 1); can cast a small number of cleric spells (see the Cleric, Druid, and Wizard Spell Slots table on page 251) using its HD as its CL.<p><b>Rebuild Rules:</b> Special Attacks channel energy† (can be used a number of times per day equal to 3 + is Cha modifier—positive if good, negative if evil, choose if neutral—using its HD – 2 as its cleric level to determine effect and DC, minimum 1); Cleric Spells can cast a small number of cleric spells (see the Cleric, Druid, and Wizard Spell Slots table on page 251) using its HD as its CL; Ability Scores +4 Wisdom.</p>\n<p><b>Cleric, Druid, and Wizard Spells Slots</b></p>\n<hr>\n<table>\n<tbody>\n<tr>\n<td><b>HD</b></td>\n<td><b>0</b></td>\n<td><b>1</b></td>\n<td><b>2</b></td>\n<td><b>3</b></td>\n<td><b>4</b></td>\n<td><b>5</b></td>\n<td><b>6</b></td>\n<td><b>7</b></td>\n<td><b>8</b></td>\n<td><b>9</b></td>\n</tr>\n<tr>\n<td>1-3</td>\n<td>2</td>\n<td>1</td>\n<td>—</td>\n<td>—</td>\n<td>—</td>\n<td>—</td>\n<td>—</td>\n<td>—</td>\n<td>—</td>\n<td>—</td>\n</tr>\n<tr>\n<td>4-6</td>\n<td>2</td>\n<td>2</td>\n<td>1</td>\n<td>—</td>\n<td>—</td>\n<td>—</td>\n<td>—</td>\n<td>—</td>\n<td>—</td>\n<td>—</td>\n</tr>\n<tr>\n<td>7-9</td>\n<td>‡</td>\n<td>2</td>\n<td>2</td>\n<td>1</td>\n<td>—</td>\n<td>—</td>\n<td>—</td>\n<td>—</td>\n<td>—</td>\n<td>—</td>\n</tr>\n<tr>\n<td>10-12</td>\n<td>‡</td>\n<td>‡</td>\n<td>2</td>\n<td>2</td>\n<td>1</td>\n<td>—</td>\n<td>—</td>\n<td>—</td>\n<td>—</td>\n<td>—</td>\n</tr>\n<tr>\n<td>13-15</td>\n<td>‡</td>\n<td>‡</td>\n<td>‡</td>\n<td>2</td>\n<td>2</td>\n<td>1</td>\n<td>—</td>\n<td>—</td>\n<td>—</td>\n<td>—</td>\n</tr>\n<tr>\n<td>16-18</td>\n<td>‡</td>\n<td>‡</td>\n<td>‡</td>\n<td>‡</td>\n<td>2</td>\n<td>2</td>\n<td>1</td>\n<td>—</td>\n<td>—</td>\n<td>—</td>\n</tr>\n<tr>\n<td>19-21</td>\n<td>‡</td>\n<td>‡</td>\n<td>‡</td>\n<td>‡</td>\n<td>‡</td>\n<td>2</td>\n<td>2</td>\n<td>1</td>\n<td>—</td>\n<td>—</td>\n</tr>\n<tr>\n<td>22-24</td>\n<td>‡</td>\n<td>‡</td>\n<td>‡</td>\n<td>‡</td>\n<td>‡</td>\n<td>‡</td>\n<td>2</td>\n<td>2</td>\n<td>1</td>\n<td>—</td>\n</tr>\n<tr>\n<td>25+</td>\n<td>‡</td>\n<td>‡</td>\n<td>‡</td>\n<td>‡</td>\n<td>‡</td>\n<td>‡</td>\n<td>‡</td>\n<td>2</td>\n<td>2</td>\n<td>1</td>\n</tr>\n</tbody>\n</table>"
    },
    "changes": [
      {
        "_id": "a1qpmyzs",
        "formula": "2",
        "subTarget": "will",
        "modifier": "untyped"
      },
      {
        "_id": "4ismtjh1",
        "formula": "2",
        "subTarget": "wisSkills",
        "modifier": "untyped"
      },
      {
        "_id": "aszb7v22",
        "formula": "2",
        "subTarget": "wisChecks",
        "modifier": "untyped"
      }
    ],
    "subType": "template",
    "crOffset": "(@attributes.hd.total >= 13) ? 3 : ((@attributes.hd.total > 6 && @attributes.hd.total < 13) ? 2 : 1)"
  }
}
