{
  "_id": "g3gX00gTvJU478ju",
  "name": "Vermin",
  "type": "class",
  "img": "systems/pf1/icons/skills/green_05.jpg",
  "system": {
    "description": {
      "value": "<p>This type includes insects, arachnids, other arthropods, worms, and similar invertebrates.</p>\n<h2>Features</h2>\n<p>Vermin have the following features.</p>\n<ul>\n<li>d8 Hit Die.</li>\n<li>Base attack bonus equal to 3/4 total Hit Dice (medium progression).</li>\n<li>Good <em>Fortitude</em> saves.</li>\n<li>Skill points equal to 2 + Int modifier (minimum 1) per Hit Die. Most vermin, however, are mindless and gain no skill points or feats. Vermin have no class skills.</li>\n</ul>\n<h2>Traits</h2>\n<p>Vermin possess the following traits (unless otherwise noted in a creature’s entry).</p>\n<ul>\n<li>Mindless: No <em>Intelligence</em> score, and immunity to all mind-affecting effects (charms, compulsions, morale effects, patterns, and phantasms). A vermin-like creature with an <em>Intelligence</em> score is usually either an animal or a magical beast, depending on its other abilities.</li>\n<li><em>Darkvision</em> 60 feet.</li>\n<li>Proficient with its natural weapons only.</li>\n<li>Proficient with no armor.</li>\n<li>Vermin breathe, eat, and sleep.</li>\n</ul>"
    },
    "links": "",
    "tag": "vermin",
    "subType": "racial",
    "bab": "med",
    "skillsPerLevel": 2,
    "savingThrows": {
      "fort": {
        "value": "high"
      }
    }
  }
}
