{
  "_id": "bZ1YdzkT8NtRIEJ4",
  "name": "Catch Off-Guard",
  "type": "feat",
  "img": "systems/pf1/icons/items/inventory/fork.jpg",
  "system": {
    "description": {
      "value": "<em>Foes are surprised by your skilled use of unorthodox and improvised weapons.</em><p><b>Benefits</b><br>You do not suffer any penalties for using an improvised melee weapon. Unarmed opponents are flat-footed against any attacks you make with an improvised melee weapon.<p><b>Normal</b><br>You take a -4 penalty on attack rolls made with an improvised weapon.<p><b>Combat Trick</b><br>When making an attack with an improvised weapon against an armed opponent, you can spend 5 stamina points. If you do, the target is considered flat-footed during that attack. An opponent who recognizes you and has seen you use Catch Off-Guard in this way is immune to this effect."
    },
    "tags": ["PFS", "Combat"],
    "contextNotes": [
      {
        "subTarget": "attack",
        "text": "Catch Off-Guard: unarmed opponents are flat-footed against any attacks you make with an improvised melee weapon."
      }
    ],
    "tag": "feat_catchOffguard",
    "useCustomTag": true
  }
}
