{
  "_id": "ieltigobtFrlTXIt",
  "name": "Greater Two-Weapon Fighting",
  "type": "feat",
  "img": "systems/pf1/icons/feats/greater-two-weapon-fighting.jpg",
  "system": {
    "description": {
      "value": "<i>You are incredibly skilled at fighting with two weapons at the same time.</i>\n<p><b>Prerequisites</b></p>\n<p>Dex 19, Improved Two-Weapon Fighting, Two-Weapon Fighting, base attack bonus +11.</p>\n<p><b>Benefits</b></p>\n<p>You get a third attack with your off-hand weapon, albeit at a -10 penalty.</p>"
    },
    "tags": ["Combat", "Two Weapons", "Weapon", "Offensive"],
    "tag": "feat_greaterTwoweaponFighting",
    "useCustomTag": true
  }
}
