{
  "_id": "dn2KgHFQRbuoNRx0",
  "name": "Improved Bull Rush",
  "type": "feat",
  "img": "systems/pf1/icons/feats/improved-bull-rush.jpg",
  "system": {
    "description": {
      "value": "<i>You are skilled at pushing your foes around.</i>\n<p><b>Prerequisites</b></p>\n<p>Str 13, Power Attack, base attack bonus +1.</p>\n<p><b>Benefits</b></p>\n<p>You do not provoke an attack of opportunity when performing a bull rush combat maneuver. In addition, you receive a +2 bonus on checks made to bull rush a foe. You also receive a +2 bonus to your Combat Maneuver Defense whenever an opponent tries to bull rush you.</p>\n<p><b>Normal</b></p>\n<p>You provoke an attack of opportunity when performing a bull rush combat maneuver.</p>"
    },
    "tags": ["Combat", "Combat Maneuver", "Offensive"],
    "tag": "feat_improvedBullRush",
    "useCustomTag": true
  }
}
