{
  "_id": "0bZf3SDkvVOe2ujH",
  "name": "Lightning Reflexes",
  "type": "feat",
  "img": "systems/pf1/icons/feats/lighting-reflexes.jpg",
  "system": {
    "description": {
      "value": "<i>You have faster reflexes than normal.</i>\n<p><b>Benefits</b></p>\n<p>You get a +2 bonus on all Reflex saving throws.</p>"
    },
    "tags": ["General", "Saving Throw"],
    "changes": [
      {
        "_id": "ni86uxwa",
        "formula": "2",
        "subTarget": "ref",
        "modifier": "untyped"
      }
    ],
    "tag": "feat_lightningReflexes",
    "useCustomTag": true
  }
}
