{
  "_id": "yE3hVOvBq9rx6TAw",
  "name": "Spellbreaker",
  "type": "feat",
  "img": "systems/pf1/icons/feats/spellbreaker.jpg",
  "system": {
    "description": {
      "value": "<i>You can strike at enemy spellcasters who fail to cast defensively when you threaten them.</i>\n<p><b>Prerequisites</b></p>\n<p>Disruptive, 10th-level fighter.</p>\n<p><b>Benefits</b></p>\n<p>Enemies in your threatened area that fail their checks to cast spells defensively provoke attacks of opportunity from you.</p>\n<p><b>Normal</b></p>\n<p>Enemies that fail to cast spells defensively do not provoke attacks of opportunity.</p>"
    },
    "tags": ["Combat", "Magic", "Offensive"],
    "tag": "feat_spellbreaker",
    "useCustomTag": true
  }
}
