{
  "_id": "V2zY7BltkpSXwejy",
  "name": "Spell Focus",
  "type": "feat",
  "img": "systems/pf1/icons/feats/spell-focus.jpg",
  "system": {
    "description": {
      "value": "<i>Choose a school of magic. Any spells you cast of that school are more difficult to resist.</i>\n<p><b>Benefits</b></p>\n<p>Add +1 to the Difficulty Class for all saving throws against spells from the school of magic you select.</p>\n<p><b>Special</b></p>\n<p>You can gain this feat multiple times. Its effects do not stack. Each time you take the feat, it applies to a new school of magic.</p>"
    },
    "tags": ["General", "Magic"],
    "tag": "feat_spellFocus",
    "useCustomTag": true
  }
}
