{
  "_id": "7aDvyO68K8hm58Qm",
  "name": "Lashunta (Female)",
  "type": "race",
  "img": "systems/pf1/icons/spells/air-burst-magenta-1.jpg",
  "system": {
    "description": {
      "value": "<h2>Standard Racial Traits</h2><ul><li><strong>Ability Score Modifiers</strong>: Lashunta are almost universally intelligent and eager to learn. As a result, lashunta gain a +2 bonus to <em>Intelligence</em>.</li><li><strong>Lashunta</strong>: Lashunta are <em>humanoid</em> with the <em>lashunta</em> subtype.</li><li><strong>Size</strong>: Lashunta are Medium creatures and have no bonuses or penalties due to their size.</li><li><strong>Base Speed</strong>: Lashunta have a base speed of 30 feet.</li><li><strong>Languages</strong>: Lashunta begin play speaking Elven and Lashunta. Lashunta with high <em>Intelligence</em> scores can choose any languages they want (except Druidic and other secret languages).</li></ul><h3>Feat and Skill Racial Traits</h3><ul><li><strong>Knowledgeable</strong>: A lashunta gains a +2 <em>racial bonus</em> to any one <em>Knowledge</em> skill.</li></ul><h3>Spell-Like Abilities</h3><ul><li><strong>Lashunta Magic</strong>: A lashunta possessing an <em>Intelligence</em> score of 11 or higher gains the following <em>spell-like abilities</em>: At will–@Compendium[pf1.spells.hk3xhc08blqzniv0]{daze}, @Compendium[pf1.spells.p8lm7khq3ynyif21]{mage hand}; 1/day–@Compendium[pf1.spells.xllxylvvqr82o2d5]{detect thoughts}. The <em>caster level</em> for these effects is equal to the lashunta's class levels.</li></ul><h3>Senses Racial Traits</h3><ul><li><strong>Limited Telepathy</strong>: A lashunta is able to mentally communicate with any creature within 30 feet with whom she shares a language. Otherwise this ability is identical to the <em>telepathy</em> ability.</li></ul><h3>Other Racial Traits</h3><ul><li><strong>Sexual Dimorphism</strong>: Male and female lashunta have very different body and personality types, more so than most humanoid species. Female lashunta, though beautiful and commanding (+2 <em>Charisma</em>), lack the males' rugged builds (–2 <em>Constitution</em>).</li></ul>"
    },
    "tags": ["Rare", "Alien"],
    "changes": [
      {
        "_id": "jm1op2cc",
        "formula": "2",
        "subTarget": "int",
        "modifier": "racial",
        "priority": null
      },
      {
        "_id": "r6t4q16e",
        "formula": "2",
        "subTarget": "cha",
        "modifier": "racial",
        "priority": null
      },
      {
        "_id": "q90pjsvd",
        "formula": "-2",
        "subTarget": "con",
        "modifier": "racial",
        "priority": null
      }
    ],
    "languages": {
      "value": ["elven"],
      "custom": "Lashunta"
    },
    "subTypes": ["Lashunta"]
  }
}
