{
  "_id": "aZ4tLZL0LIZAHnQ1",
  "name": "Armor Spikes",
  "type": "weapon",
  "img": "systems/pf1/icons/items/weapons/spiked-armor.png",
  "system": {
    "description": {
      "value": "<p>You can have spikes added to your <em>armor</em>, which allow you to deal extra piercing damage on a successful grapple attack. If you are not proficient with martial weapons, you take a –4 penalty on grapple checks when you try to use armor spikes.</p>\n<p>You can also make a regular melee attack (or off-hand attack) with the spikes, and they count as a light weapon in this case. You can’t also make an attack with armor spikes if you have already made an attack with another off-hand weapon, and vice versa.</p>\n<p>An enhancement bonus to a suit of armor does not improve the spikes’ effectiveness, but the spikes can be made into magic weapons in their own right.</p>"
    },
    "weight": {
      "value": 10
    },
    "price": 50,
    "hp": {
      "max": 2,
      "value": 2
    },
    "hardness": 10,
    "actions": [
      {
        "_id": "ys3erpgs4lt5iszd",
        "name": "Attack",
        "img": "systems/pf1/icons/items/weapons/spiked-armor.png",
        "activation": {
          "type": "attack"
        },
        "duration": {
          "units": "inst"
        },
        "range": {
          "units": "melee"
        },
        "actionType": "mwak",
        "damage": {
          "parts": [
            {
              "formula": "sizeRoll(1, 6, @size)",
              "type": {
                "values": ["piercing"],
                "custom": ""
              }
            }
          ]
        },
        "formulaicAttacks": {
          "count": {
            "formula": "min(3, ceil(@attributes.bab.total / 5) - 1)"
          },
          "bonus": {
            "formula": "@formulaicAttack * -5"
          }
        },
        "ability": {
          "attack": "str",
          "damage": "str",
          "critRange": "20",
          "critMult": "2"
        }
      }
    ],
    "baseTypes": ["Armor Spikes"],
    "weaponGroups": {
      "value": ["close"]
    },
    "subType": "martial"
  }
}
