{
  "_id": "o6KcJwTvbUYlmX3W",
  "name": "Bardiche",
  "type": "weapon",
  "img": "systems/pf1/icons/items/weapons/bardiche.PNG",
  "system": {
    "description": {
      "value": "<p><b>Source</b> <em>Ultimate Equipment pg. 18</em>, <em>Adventurer's Armory pg. 2</em>, <em>Advanced Player's Guide pg. 176</em></p><h3>Statistics</h3><p><b>Damage</b> 1d8 (small), 1d10 (medium); <b>Critical</b> 19-20/x2; <b>Range</b> -; <b>Type</b> S</p><p><b>Weapon Groups</b> Axes; Polearms</p><h3>Description</h3><p>The crescent axe-blade of this polearm is attached to the haft at two points: the center of the blade attaches to a socket at the top of the haft, and the lower point of the blade attaches to a secondary mount point. The blade is often very long, sometimes almost as long as the haft. You gain a +2 bonus to your CMD to resist sunder attempts made against a bardiche.</p>"
    },
    "tags": ["PFS"],
    "weight": {
      "value": 14
    },
    "price": 13,
    "hardness": 10,
    "actions": [
      {
        "_id": "3jb9cx2d8np2f8kp",
        "name": "Attack",
        "img": "systems/pf1/icons/items/weapons/bardiche.PNG",
        "activation": {
          "type": "attack"
        },
        "duration": {
          "units": "inst"
        },
        "range": {
          "value": "0",
          "units": "reach"
        },
        "actionType": "mwak",
        "damage": {
          "parts": [
            {
              "formula": "sizeRoll(1, 10, @size)",
              "type": {
                "values": ["slashing"],
                "custom": ""
              }
            }
          ]
        },
        "formulaicAttacks": {
          "count": {
            "formula": "min(3, ceil(@attributes.bab.total / 5) - 1)"
          },
          "bonus": {
            "formula": "@formulaicAttack * -5"
          }
        },
        "ability": {
          "attack": "str",
          "damage": "str",
          "damageMult": 1.5,
          "critRange": 19
        }
      }
    ],
    "tag": "bardiche",
    "held": "2h",
    "baseTypes": ["Bardiche"],
    "weaponGroups": {
      "value": ["axes", "polearms"]
    },
    "subType": "martial",
    "weaponSubtype": "2h",
    "properties": {
      "brc": true,
      "rch": true,
      "spc": true
    }
  }
}
