{
  "_id": "hk9XXmx25qaSgOUV",
  "name": "Bo Staff",
  "type": "weapon",
  "img": "icons/weapons/staves/staff-simple-gold.webp",
  "system": {
    "description": {
      "value": "<p><b>Source</b> <em>Ultimate Equipment pg. 20</em>, <em>Ultimate Combat pg. 130</em></p><h3>Statistics</h3><p><b>Damage</b> 1d4/1d4 (small), 1d6/1d6 (medium); <b>Critical</b> x2; <b>Range</b> -; <b>Type</b> B</p><p><b>Weapon Groups</b> Double; Monk</p><h3>Description</h3><p>Similar to a quarterstaff, only more slender and tapered at one end, the bo staff is both a defensive device and a weapon.</p>"
    },
    "tags": ["PFS"],
    "weight": {
      "value": 3
    },
    "price": 1,
    "hardness": 10,
    "actions": [
      {
        "_id": "gnwl9jr457mseghz",
        "name": "Attack",
        "img": "icons/weapons/staves/staff-simple-gold.webp",
        "activation": {
          "type": "attack"
        },
        "duration": {
          "units": "inst"
        },
        "range": {
          "value": "0",
          "units": "melee"
        },
        "actionType": "mwak",
        "damage": {
          "parts": [
            {
              "formula": "sizeRoll(1, 6, @size)",
              "type": {
                "values": ["bludgeoning"],
                "custom": ""
              }
            }
          ]
        },
        "formulaicAttacks": {
          "count": {
            "formula": "min(3, ceil(@attributes.bab.total / 5) - 1)"
          },
          "bonus": {
            "formula": "@formulaicAttack * -5"
          }
        },
        "ability": {
          "attack": "str",
          "damage": "str",
          "damageMult": 1.5,
          "critRange": null
        }
      }
    ],
    "tag": "boStaff",
    "held": "2h",
    "baseTypes": ["Bo Staff"],
    "weaponGroups": {
      "value": ["double", "monk"]
    },
    "subType": "exotic",
    "weaponSubtype": "2h",
    "properties": {
      "blc": true,
      "dbl": true,
      "mnk": true
    }
  }
}
