{
  "_id": "b5FfLdVhbcxQrNdU",
  "name": "Brass Knuckles",
  "type": "weapon",
  "img": "systems/pf1/icons/items/weapons/brass-knuckles.PNG",
  "system": {
    "description": {
      "value": "<p><b>Source</b> <em>Ultimate Equipment pg. 17</em>, <em>Adventurer's Armory pg. 2</em>, <em>Advanced Player's Guide pg. 176</em></p><h3>Statistics</h3><p><b>Damage</b> 1d2 (small), 1d3 (medium); <b>Critical</b> x2; <b>Range</b> -; <b>Type</b> B</p><p><b>Weapon Groups</b> Close; Monk</p><h3>Description</h3><p>These weapons fit snugly around the knuckles and allow you to deal lethal damage with an unarmed strike. You may hold, but not wield, a weapon or other object in a hand wearing brass knuckles. You may cast a spell with a somatic component while wearing brass knuckles if you make a successful concentration check (DC 10 + the level of the spell you're casting). Monks are proficient with brass knuckles. Brass knuckles can't be disarmed.</p>"
    },
    "tags": ["PFS"],
    "weight": {
      "value": 1
    },
    "price": 1,
    "hp": {
      "max": 2,
      "value": 2
    },
    "hardness": 10,
    "actions": [
      {
        "_id": "akp02rdy2ak69os8",
        "name": "Attack",
        "img": "systems/pf1/icons/items/weapons/brass-knuckles.PNG",
        "activation": {
          "type": "attack"
        },
        "duration": {
          "units": "inst"
        },
        "range": {
          "value": "0",
          "units": "melee"
        },
        "actionType": "mwak",
        "damage": {
          "parts": [
            {
              "formula": "sizeRoll(1, 3, @size)",
              "type": {
                "values": ["bludgeoning"],
                "custom": ""
              }
            }
          ]
        },
        "formulaicAttacks": {
          "count": {
            "formula": "min(3, ceil(@attributes.bab.total / 5) - 1)"
          },
          "bonus": {
            "formula": "@formulaicAttack * -5"
          }
        },
        "ability": {
          "attack": "str",
          "damage": "str"
        }
      }
    ],
    "tag": "brassKnuckles",
    "baseTypes": ["Brass Knuckles"],
    "weaponGroups": {
      "value": ["close", "monk"]
    },
    "properties": {
      "mnk": true,
      "spc": true
    }
  }
}
