{
  "_id": "kY1zv3pOlGUfyX29",
  "name": "Broken-Back Seax",
  "type": "weapon",
  "img": "systems/pf1/icons/items/weapons/broken-back-seax.png",
  "system": {
    "description": {
      "value": "<p><b>Source</b> <em>Martial Arts Handbook pg. 30</em></p><h3>Statistics</h3><p><b>Damage</b> 1d8 (small), 1d10 (medium); <b>Critical</b> 19-20/x2; <b>Range</b> -; <b>Type</b> P &amp; S</p><p><b>Weapon Groups</b> Blades, Light</p><h3>Description</h3><p>Used in Avistan since before Earthfall, seaxes are straight, single-edged blades. The broken-back seax is the size of a short sword, and has a broad blade with a distinctive trapezoidal shape. If your Strength score is less than 15, you take a -2 penalty on attack rolls with a broken-back seax, as you're unable to put enough force into the blows to land them effectively.</p>"
    },
    "tags": ["PFS"],
    "weight": {
      "value": 4
    },
    "price": 40,
    "hp": {
      "max": 5,
      "value": 5
    },
    "hardness": 10,
    "actions": [
      {
        "_id": "wgdhkz0e8my0zlfd",
        "name": "Attack",
        "img": "systems/pf1/icons/items/weapons/broken-back-seax.png",
        "activation": {
          "type": "attack"
        },
        "duration": {
          "units": "inst"
        },
        "range": {
          "value": "0",
          "units": "melee"
        },
        "actionType": "mwak",
        "damage": {
          "parts": [
            {
              "formula": "sizeRoll(1, 10, @size)",
              "type": {
                "values": ["untyped"],
                "custom": ""
              }
            }
          ]
        },
        "formulaicAttacks": {
          "count": {
            "formula": "min(3, ceil(@attributes.bab.total / 5) - 1)"
          },
          "bonus": {
            "formula": "@formulaicAttack * -5"
          }
        },
        "ability": {
          "attack": "str",
          "damage": "str",
          "critRange": 19
        }
      }
    ],
    "tag": "brokenbackSeax",
    "baseTypes": ["Broken-Back Seax"],
    "weaponGroups": {
      "value": ["bladesLight"]
    },
    "subType": "exotic",
    "weaponSubtype": "1h",
    "properties": {
      "spc": true
    }
  }
}
