{
  "_id": "MgcUgsDhxQPUjljs",
  "name": "Double Spear",
  "type": "weapon",
  "img": "systems/pf1/icons/items/weapons/double-spear.PNG",
  "system": {
    "description": {
      "value": "<p><b>Source</b> <em>Martial Arts Handbook pg. 30</em></p><h3>Statistics</h3><p><b>Damage</b> 1d6/1d6 (small), 1d8/1d8 (medium); <b>Critical</b> x3; <b>Range</b> -; <b>Type</b> P</p><p><b>Weapon Groups</b> Spears</p><h3>Description</h3><p>This long, heavy spear has a point at each end, allowing it to be used as a double weapon.</p>"
    },
    "tags": ["PFS"],
    "weight": {
      "value": 12
    },
    "price": 25,
    "hardness": 10,
    "actions": [
      {
        "_id": "rnqyyjbsp2exdjo9",
        "name": "Attack",
        "img": "systems/pf1/icons/items/weapons/double-spear.PNG",
        "activation": {
          "type": "attack"
        },
        "duration": {
          "units": "inst"
        },
        "range": {
          "value": "0",
          "units": "melee"
        },
        "actionType": "mwak",
        "damage": {
          "parts": [
            {
              "formula": "sizeRoll(1, 8, @size)",
              "type": {
                "values": ["piercing"],
                "custom": ""
              }
            }
          ]
        },
        "formulaicAttacks": {
          "count": {
            "formula": "min(3, ceil(@attributes.bab.total / 5) - 1)"
          },
          "bonus": {
            "formula": "@formulaicAttack * -5"
          }
        },
        "ability": {
          "attack": "str",
          "damage": "str",
          "damageMult": 1.5,
          "critMult": 3
        }
      }
    ],
    "tag": "doubleSpear",
    "held": "2h",
    "baseTypes": ["Double Spear"],
    "weaponGroups": {
      "value": ["spears"]
    },
    "subType": "exotic",
    "weaponSubtype": "2h",
    "properties": {
      "dbl": true
    }
  }
}
