{
  "_id": "PT81W3PcwSrepF3I",
  "name": "Dragon Pistol",
  "type": "weapon",
  "img": "icons/weapons/guns/gun-red.webp",
  "system": {
    "description": {
      "value": "<p><b>Source</b> <em>Ultimate Equipment pg. 43</em>, <em>Ultimate Combat pg. 139</em></p>\n<h3>Statistics</h3><p><b>Damage</b> 1d4 (small), 1d6 (medium); <b>Critical</b> x4; <b>Range</b> special; <b>Type</b> B and P</p>\n<p><b>Misfire</b> 1-2 (5 ft.); <b>Capacity</b> 1</p>\n<h3>Description</h3>\n<p>Like a miniature blunderbuss, the dragon pistol fires pellets or a bullet from its flared barrel. The dragon pistol fires in a 15-foot cone when firing pellets, and has a 10-foot range increment when firing a bullet.</p>\n<p>A dragon pistol uses either a bullet or group of pellets and 1 dose of black powder, or a single alchemical cartridge (with either bullets or pellets) as ammunition.</p>"
    },
    "tags": ["PFS", "Early Firearm"],
    "weight": {
      "value": 3
    },
    "price": 1000,
    "hardness": 10,
    "actions": [
      {
        "_id": "s11t1p4k1pggrqea",
        "name": "Attack",
        "img": "icons/weapons/guns/gun-red.webp",
        "activation": {
          "type": "attack"
        },
        "duration": {
          "units": "inst"
        },
        "range": {
          "value": "20",
          "units": "ft",
          "maxIncrements": 10
        },
        "actionType": "rwak",
        "damage": {
          "parts": [
            {
              "formula": "sizeRoll(1, 6, @size)",
              "type": {
                "values": ["bludgeoning", "piercing"],
                "custom": ""
              }
            }
          ]
        },
        "formulaicAttacks": {
          "count": {
            "formula": "min(3, ceil(@attributes.bab.total / 5) - 1)"
          },
          "bonus": {
            "formula": "@formulaicAttack * -5"
          }
        },
        "ability": {
          "attack": "dex",
          "critMult": 4
        },
        "usesAmmo": true
      }
    ],
    "tag": "dragonPistol",
    "baseTypes": ["Dragon Pistol"],
    "weaponGroups": {
      "value": ["firearms"]
    },
    "subType": "exotic",
    "weaponSubtype": "ranged",
    "properties": {
      "sct": true
    },
    "ammoType": "gunBullet"
  }
}
