{
  "_id": "NZVOy3ioTWBr7FaU",
  "name": "Drow Poison Crossbow Bolt",
  "type": "loot",
  "img": "icons/weapons/ammunition/arrow-simple-brown.webp",
  "system": {
    "description": {
      "value": "<p><b>Source</b> <em>Pathfinder #15: The Armageddon Echo pg. 18</em></p>\n<h3>Description</h3>\n<p>These iron bolts have small resin tips that break when the bolts strike their targets. Inside is a dose of drow poison.</p>\n<p>Anyone struck by a drow poison bolt must make a DC 13 Fortitude save or fall unconscious for 1 minute. After 1 minute, the subject must succeed on another DC 13 Fortitude save or remain unconscious for 2d4 hours.</p>\n<p>Those using drow poison bolts do not risk poisoning themselves, but the strange tip affects the bolts' accuracy. Double the range penalties when using a drow poison bolt.</p>"
    },
    "tags": ["D&D 3.5"],
    "price": 100,
    "equipped": false,
    "hp": {
      "max": 1,
      "value": 1
    },
    "hardness": 5,
    "tag": "drowPoisonBolt",
    "subType": "ammo",
    "extraType": "bolt"
  }
}
