{
  "_id": "darjoc2dHbh3Czxy",
  "name": "Dwarven Longaxe",
  "type": "weapon",
  "img": "systems/pf1/icons/items/weapons/dwarven-longaxe.PNG",
  "system": {
    "description": {
      "value": "<p><b>Source</b> <em>Advanced Race Guide pg. 17</em></p><h3>Statistics</h3><p><b>Damage</b> 1d10 (small), 1d12 (medium); <b>Critical</b> x3; <b>Range</b> -; <b>Type</b> S</p><h3>Description</h3><p>These ornate and heavy blades are mounted atop a long, steel-shod haft for greater reach. They are rare among cave-dwelling dwarves but common in mountain dwarf clans that commonly feud with giants.</p>"
    },
    "tags": ["PFS", "Dwarven"],
    "weight": {
      "value": 14
    },
    "price": 50,
    "hardness": 10,
    "actions": [
      {
        "_id": "ptbo6jmq7gbglyz4",
        "name": "Attack",
        "img": "systems/pf1/icons/items/weapons/dwarven-longaxe.PNG",
        "activation": {
          "type": "attack"
        },
        "duration": {
          "units": "inst"
        },
        "range": {
          "value": "0",
          "units": "reach"
        },
        "actionType": "mwak",
        "damage": {
          "parts": [
            {
              "formula": "sizeRoll(1, 12, @size)",
              "type": {
                "values": ["slashing"],
                "custom": ""
              }
            }
          ]
        },
        "formulaicAttacks": {
          "count": {
            "formula": "min(3, ceil(@attributes.bab.total / 5) - 1)"
          },
          "bonus": {
            "formula": "@formulaicAttack * -5"
          }
        },
        "ability": {
          "attack": "str",
          "damage": "str",
          "damageMult": 1.5,
          "critMult": 3
        }
      }
    ],
    "tag": "dwarvenLongaxe",
    "held": "2h",
    "baseTypes": ["Dwarven Longaxe"],
    "weaponGroups": {
      "value": ["axes"]
    },
    "subType": "exotic",
    "weaponSubtype": "2h",
    "properties": {
      "rch": true
    }
  }
}
