{
  "_id": "K8dPqxhasxHI3loc",
  "name": "Dwarven Giant-Sticker",
  "type": "weapon",
  "img": "systems/pf1/icons/items/weapons/dwarven-giant-sticker.PNG",
  "system": {
    "description": {
      "value": "<p><b>Source</b> <em>Heroes from the Fringe pg. 8</em></p><h3>Statistics</h3><p><b>Damage</b> 1d8 (small), 2d6 (medium); <b>Critical</b> x3; <b>Range</b> -; <b>Type</b> P or S</p><p><b>Weapon Groups</b> Polearms</p><h3>Description</h3><p>This heavy bladed spear is specifically designed for use against giants, who have long reach and the ability to soak up large amounts of damage.</p>"
    },
    "tags": ["Dwarven"],
    "weight": {
      "value": 12
    },
    "price": 25,
    "hardness": 10,
    "actions": [
      {
        "_id": "1vtp9fdst6oyk00o",
        "name": "Attack",
        "img": "systems/pf1/icons/items/weapons/dwarven-giant-sticker.PNG",
        "activation": {
          "type": "attack"
        },
        "duration": {
          "units": "inst"
        },
        "range": {
          "value": "0",
          "units": "reach"
        },
        "actionType": "mwak",
        "damage": {
          "parts": [
            {
              "formula": "sizeRoll(2, 6, @size)",
              "type": {
                "values": ["piercing", "slashing"],
                "custom": ""
              }
            }
          ]
        },
        "formulaicAttacks": {
          "count": {
            "formula": "min(3, ceil(@attributes.bab.total / 5) - 1)"
          },
          "bonus": {
            "formula": "@formulaicAttack * -5"
          }
        },
        "ability": {
          "attack": "str",
          "damage": "str",
          "damageMult": 1.5,
          "critMult": 3
        }
      }
    ],
    "tag": "dwarvenGiantsticker",
    "held": "2h",
    "baseTypes": ["Dwarven Giant-Sticker"],
    "weaponGroups": {
      "value": ["polearms"]
    },
    "subType": "exotic",
    "weaponSubtype": "2h",
    "properties": {
      "brc": true,
      "rch": true
    }
  }
}
