{
  "_id": "MFGjEFJURHJ9jcGx",
  "name": "Garrote",
  "type": "weapon",
  "img": "systems/pf1/icons/items/weapons/garrote.png",
  "system": {
    "description": {
      "value": "<p><b>Source</b> <em>Adventurer's Armory pg. 3</em></p><h3>Statistics</h3><p><b>Damage</b> 1d4 (small), 1d6 (medium); <b>Critical</b> x2; <b>Range</b> -; <b>Type</b> S</p><h3>Description</h3><p>A garrote is a length of wire or thin rope with wooden handles at both ends. The wire is placed across a victim's throat and crossed behind the neck; when the handles are pulled tight, the garrote strangles him. In order for you to use a garrote, your opponent must be helpless or unaware of you. You must make a grapple check (though you avoid the -4 penalty for not having two hands free) to successfully begin garroting your opponent. Sneak attack damage does not apply to a garrote. Your garroted opponent must make a concentration check (DC 20 + your CMB + level of the spell he's casting) to cast a spell with a verbal component, use a command word item, or use any magic requiring speech. You gain the following additional option when grappling with a garrote.</p><p><em>Choke</em>: You cut off your target's air supply so he has to hold his breath (see Suffocation on page 445 of the <em>Pathfinder RPG Core Rulebook</em>, and the Swim skill on page 108). Any round you do not maintain the choke, your opponent can take a breath and restart when he has to begin making Constitution checks.</p>"
    },
    "tags": ["PFS"],
    "weight": {
      "value": 1
    },
    "price": 3,
    "hardness": 10,
    "actions": [
      {
        "_id": "wg33m8axlucl77j9",
        "name": "Attack",
        "img": "systems/pf1/icons/items/weapons/garrote.png",
        "activation": {
          "type": "attack"
        },
        "duration": {
          "units": "inst"
        },
        "range": {
          "value": "0",
          "units": "melee"
        },
        "actionType": "mwak",
        "damage": {
          "parts": [
            {
              "formula": "sizeRoll(1, 6, @size)",
              "type": {
                "values": ["slashing"],
                "custom": ""
              }
            }
          ]
        },
        "formulaicAttacks": {
          "count": {
            "formula": "min(3, ceil(@attributes.bab.total / 5) - 1)"
          },
          "bonus": {
            "formula": "@formulaicAttack * -5"
          }
        },
        "ability": {
          "attack": "str",
          "damage": "str",
          "damageMult": 1.5
        }
      }
    ],
    "tag": "garrote",
    "held": "2h",
    "baseTypes": ["Garrote"],
    "weaponGroups": {
      "value": ["close"]
    },
    "subType": "exotic",
    "weaponSubtype": "2h",
    "properties": {
      "grp": true,
      "spc": true
    }
  }
}
