{
  "_id": "IdkQOHJcRMq1Rm1r",
  "name": "Gauntlet",
  "type": "weapon",
  "img": "systems/pf1/icons/items/weapons/gauntlet.png",
  "system": {
    "description": {
      "value": "<p><b>Source</b> <em>Ultimate Equipment pg. 17</em>, <em>PRPG Core Rulebook pg. 142</em></p><h3>Statistics</h3><p><b>Damage</b> 1d2 (small), 1d3 (medium); <b>Critical</b> x2; <b>Range</b> -; <b>Type</b> B</p><p><b>Weapon Groups</b> Close</p><h3>Description</h3><p>This metal glove lets you deal lethal damage rather than nonlethal damage with unarmed strikes. A strike with a gauntlet is otherwise considered an unarmed attack. The cost and weight given are for a single gauntlet. Medium and heavy armors (except breastplates) come with gauntlets. Your opponent cannot use a disarm action to disarm you of gauntlets.</p>"
    },
    "tags": ["PFS"],
    "weight": {
      "value": 1
    },
    "price": 2,
    "hp": {
      "max": 2,
      "value": 2
    },
    "hardness": 10,
    "actions": [
      {
        "_id": "wp91ctt1tp7q49eo",
        "name": "Attack",
        "img": "systems/pf1/icons/items/weapons/gauntlet.png",
        "activation": {
          "type": "attack"
        },
        "duration": {
          "units": "inst"
        },
        "range": {
          "value": "0",
          "units": "melee"
        },
        "actionType": "mwak",
        "damage": {
          "parts": [
            {
              "formula": "sizeRoll(1, 3, @size)",
              "type": {
                "values": ["bludgeoning"],
                "custom": ""
              }
            }
          ]
        },
        "formulaicAttacks": {
          "count": {
            "formula": "min(3, ceil(@attributes.bab.total / 5) - 1)"
          },
          "bonus": {
            "formula": "@formulaicAttack * -5"
          }
        },
        "ability": {
          "attack": "str",
          "damage": "str"
        }
      }
    ],
    "tag": "gauntlet",
    "baseTypes": ["Gauntlet"],
    "weaponGroups": {
      "value": ["close"]
    }
  }
}
