{
  "_id": "zLdHrDEnRQGbZJrv",
  "name": "Halberd",
  "type": "weapon",
  "img": "systems/pf1/icons/items/weapons/halberd.PNG",
  "system": {
    "description": {
      "value": "<p><b>Source</b> <em>Ultimate Equipment pg. 19</em>, <em>PRPG Core Rulebook pg. 143</em></p><h3>Statistics</h3><p><b>Damage</b> 1d8 (small), 1d10 (medium); <b>Critical</b> x3; <b>Range</b> -; <b>Type</b> P or S</p><p><b>Weapon Groups</b> Polearms</p><h3>Description</h3><p>A halberd is similar to a 5-foot-long spear, but it also has a small, axelike head mounted near the tip.</p>"
    },
    "tags": ["PFS"],
    "weight": {
      "value": 12
    },
    "price": 10,
    "hardness": 10,
    "actions": [
      {
        "_id": "ef6spzyoh4wacw8m",
        "name": "Attack",
        "img": "systems/pf1/icons/items/weapons/halberd.PNG",
        "activation": {
          "type": "attack"
        },
        "duration": {
          "units": "inst"
        },
        "range": {
          "value": "0",
          "units": "melee"
        },
        "actionType": "mwak",
        "damage": {
          "parts": [
            {
              "formula": "sizeRoll(1, 10, @size)",
              "type": {
                "values": ["piercing", "slashing"],
                "custom": ""
              }
            }
          ]
        },
        "formulaicAttacks": {
          "count": {
            "formula": "min(3, ceil(@attributes.bab.total / 5) - 1)"
          },
          "bonus": {
            "formula": "@formulaicAttack * -5"
          }
        },
        "ability": {
          "attack": "str",
          "damage": "str",
          "damageMult": 1.5,
          "critMult": 3
        }
      }
    ],
    "tag": "halberd",
    "held": "2h",
    "baseTypes": ["Halberd"],
    "weaponGroups": {
      "value": ["polearms"]
    },
    "subType": "martial",
    "weaponSubtype": "2h",
    "properties": {
      "brc": true,
      "trp": true
    }
  }
}
