{
  "_id": "yf0CZx5k5SEHcgOW",
  "name": "Hooked Lance",
  "type": "weapon",
  "img": "icons/weapons/polearms/spear-simple-crescent.webp",
  "system": {
    "description": {
      "value": "<p><b>Source</b> <em>Ultimate Equipment pg. 19</em>, <em>Ultimate Combat pg. 131</em></p><h3>Statistics</h3><p><b>Damage</b> 1d6 (small), 1d8 (medium); <b>Critical</b> x4; <b>Range</b> -; <b>Type</b> P</p><p><b>Weapon Groups</b> Polearms</p><h3>Description</h3><p>This slender, 10-foot-long polearm has an added hook protruding from the head that is used to snag the clothing and armor of opponents. A hooked lance, unlike a lance, can't be wielded in one hand while mounted and doesn't deal extra damage if used while mounted.</p>"
    },
    "tags": ["PFS"],
    "weight": {
      "value": 10
    },
    "price": 3,
    "hardness": 10,
    "actions": [
      {
        "_id": "7s4s4gfdfdmcb9il",
        "name": "Attack",
        "img": "icons/weapons/polearms/spear-simple-crescent.webp",
        "activation": {
          "type": "attack"
        },
        "duration": {
          "units": "inst"
        },
        "range": {
          "value": "0",
          "units": "reach"
        },
        "actionType": "mwak",
        "damage": {
          "parts": [
            {
              "formula": "sizeRoll(1, 8, @size)",
              "type": {
                "values": ["piercing"],
                "custom": ""
              }
            }
          ]
        },
        "formulaicAttacks": {
          "count": {
            "formula": "min(3, ceil(@attributes.bab.total / 5) - 1)"
          },
          "bonus": {
            "formula": "@formulaicAttack * -5"
          }
        },
        "ability": {
          "attack": "str",
          "damage": "str",
          "damageMult": 1.5,
          "critMult": 4
        }
      }
    ],
    "tag": "hookedLance",
    "held": "2h",
    "baseTypes": ["Hooked Lance"],
    "weaponGroups": {
      "value": ["polearms"]
    },
    "subType": "martial",
    "weaponSubtype": "2h",
    "properties": {
      "rch": true,
      "trp": true
    }
  }
}
