{
  "_id": "rsDtJY6xEH7v7uLU",
  "name": "Horsechopper",
  "type": "weapon",
  "img": "systems/pf1/icons/items/weapons/horsechopper.png",
  "system": {
    "description": {
      "value": "<p><b>Source</b> <em>Ultimate Equipment pg. 19</em>, <em>Pathfinder Campaign Setting pg. 209</em>, <em>Inner Sea World Guide pg. 290</em>, <em>Adventurer's Armory pg. 18</em>, <em>Advanced Race Guide pg. 118</em></p><h3>Statistics</h3><p><b>Damage</b> 1d8 (small), 1d10 (medium); <b>Critical</b> x3; <b>Range</b> -; <b>Type</b> P or S</p><p><b>Weapon Groups</b> Polearms</p><h3>Description</h3><p>Crafted by goblins for battling horses, this weapon is essentially a long-handled halberd with an enlarged hook on the blade. Most horsechoppers are sized for Small creatures.</p>"
    },
    "tags": ["PFS"],
    "weight": {
      "value": 12
    },
    "price": 10,
    "hardness": 10,
    "actions": [
      {
        "_id": "e8wetbb5ychiho6f",
        "name": "Attack",
        "img": "systems/pf1/icons/items/weapons/horsechopper.png",
        "activation": {
          "type": "attack"
        },
        "duration": {
          "units": "inst"
        },
        "range": {
          "value": "0",
          "units": "reach"
        },
        "actionType": "mwak",
        "damage": {
          "parts": [
            {
              "formula": "sizeRoll(1, 10, @size)",
              "type": {
                "values": ["piercing", "slashing"],
                "custom": ""
              }
            }
          ]
        },
        "formulaicAttacks": {
          "count": {
            "formula": "min(3, ceil(@attributes.bab.total / 5) - 1)"
          },
          "bonus": {
            "formula": "@formulaicAttack * -5"
          }
        },
        "ability": {
          "attack": "str",
          "damage": "str",
          "damageMult": 1.5,
          "critMult": 3
        }
      }
    ],
    "tag": "horsechopper",
    "held": "2h",
    "baseTypes": ["Horsechopper"],
    "subType": "martial",
    "weaponSubtype": "2h",
    "properties": {
      "rch": true,
      "trp": true
    }
  }
}
