{
  "_id": "hPkTX7pOJ5shyv1n",
  "name": "Kestros",
  "type": "weapon",
  "img": "systems/pf1/icons/items/weapons/arrow-special.PNG",
  "system": {
    "description": {
      "value": "<p><b>Source</b> <em>Ranged Tactics Toolbox pg. 33</em>, <em>Ultimate Equipment pg. 21</em></p><h3>Statistics</h3><p><b>Damage</b> 1d6 (small), 1d8 (medium); <b>Critical</b> x3; <b>Range</b> 50 ft.; <b>Type</b> P</p><p><b>Weapon Groups</b> Thrown</p><h3>Description</h3><p>The kestros is an oddly shaped Bronze Age sling used for launching kestros darts. Your Strength modifier applies on damage rolls when you use a kestros, just as it does for thrown weapons. You can fire-but not load-a kestros with one hand. Loading a kestros is a move action that requires two hands and provokes attacks of opportunity. Halflings treat the kestros as a martial weapon.</p>"
    },
    "tags": ["PFS"],
    "weight": {
      "value": 1
    },
    "price": 1,
    "hp": {
      "max": 5,
      "value": 5
    },
    "hardness": 5,
    "actions": [
      {
        "_id": "ew3jxlvxvtrbvy7x",
        "name": "Attack",
        "img": "systems/pf1/icons/items/weapons/arrow-special.PNG",
        "activation": {
          "type": "attack"
        },
        "duration": {
          "units": "inst"
        },
        "range": {
          "value": "50",
          "units": "ft"
        },
        "actionType": "rwak",
        "damage": {
          "parts": [
            {
              "formula": "sizeRoll(1, 8, @size)",
              "type": {
                "values": ["piercing"],
                "custom": ""
              }
            }
          ]
        },
        "formulaicAttacks": {
          "count": {
            "formula": "min(3, ceil(@attributes.bab.total / 5) - 1)"
          },
          "bonus": {
            "formula": "@formulaicAttack * -5"
          }
        },
        "ability": {
          "attack": "dex",
          "damage": "str",
          "critRange": "20",
          "critMult": "3"
        }
      }
    ],
    "tag": "kestros",
    "baseTypes": ["Kestros"],
    "weaponGroups": {
      "value": ["thrown"]
    },
    "subType": "exotic",
    "weaponSubtype": "ranged"
  }
}
