{
  "_id": "YCrz2YNXSylt4Gl3",
  "name": "Madsen Light Machine Gun",
  "type": "weapon",
  "img": "icons/weapons/guns/rifle-brown.webp",
  "system": {
    "description": {
      "value": "<p><b>Source</b> <em>Pathfinder #71: Rasputin Must Die! pg. 64</em></p>\n<h3>Statistics</h3><p><b>Damage</b> 2d6 (medium); <b>Critical</b> x4; <b>Range</b> 100 ft.; <b>Type</b> B and P</p>\n<p><b>Misfire</b> 1-2; <b>Capacity</b> 20, 30, or 40</p>\n<h3>Description</h3>\n<p>This imposing machine gun is light enough to be transported and wielded by a single user. Chambered for the Russian military in 7.62 54mmR, this machine gun uses a top-loading, detachable 20-, 30-, or 40-round magazine.</p>\n<p>Like most machine guns, it is only capable of automatic fire.</p>"
    },
    "weight": {
      "value": 20
    },
    "price": 1000,
    "hardness": 10,
    "actions": [
      {
        "_id": "vqvb0nnsl1l4vo6x",
        "name": "Attack",
        "img": "icons/weapons/guns/rifle-brown.webp",
        "activation": {
          "type": "attack"
        },
        "duration": {
          "units": "inst"
        },
        "range": {
          "value": "100",
          "units": "ft",
          "maxIncrements": 10
        },
        "actionType": "rwak",
        "damage": {
          "parts": [
            {
              "formula": "sizeRoll(2, 6, @size)",
              "type": {
                "values": ["bludgeoning", "piercing"],
                "custom": ""
              }
            }
          ]
        },
        "formulaicAttacks": {
          "count": {
            "formula": "min(3, ceil(@attributes.bab.total / 5) - 1)"
          },
          "bonus": {
            "formula": "@formulaicAttack * -5"
          }
        },
        "ability": {
          "attack": "dex",
          "damageMult": 1.5,
          "critMult": 4
        }
      }
    ],
    "tag": "madsenLightMachineGun",
    "held": "2h",
    "baseTypes": ["Madsen Light Machine Gun"],
    "weaponGroups": {
      "value": ["firearms"]
    },
    "subType": "exotic",
    "weaponSubtype": "ranged",
    "properties": {
      "ato": true
    }
  }
}
