{
  "_id": "Sq5ocwUeMYr2qBjE",
  "name": "Mere Club",
  "type": "weapon",
  "img": "systems/pf1/icons/items/weapons/club-mere.png",
  "system": {
    "description": {
      "value": "<p><b>Source</b> <em>Ultimate Equipment pg. 17</em>, <em>Adventurer's Armory pg. 4</em></p><h3>Statistics</h3><p><b>Damage</b> 1d3 (small), 1d4 (medium); <b>Critical</b> x2; <b>Range</b> -; <b>Type</b> B or P</p><p><b>Weapon Groups</b> Close; Hammers</p><h3>Description</h3><p>A Stone Age weapon traditionally made of carved stone, a mere (MEH-reh) is a short, flat-sided, sharp-pointed club.</p>"
    },
    "tags": ["PFS"],
    "weight": {
      "value": 2
    },
    "price": 2,
    "hp": {
      "max": 5,
      "value": 5
    },
    "hardness": 10,
    "actions": [
      {
        "_id": "06od18b1y7dl8bjk",
        "name": "Attack",
        "img": "systems/pf1/icons/items/weapons/club-mere.png",
        "activation": {
          "type": "attack"
        },
        "duration": {
          "units": "inst"
        },
        "range": {
          "value": "0",
          "units": "melee"
        },
        "actionType": "mwak",
        "damage": {
          "parts": [
            {
              "formula": "sizeRoll(1, 4, @size)",
              "type": {
                "values": ["bludgeoning", "piercing"],
                "custom": ""
              }
            }
          ]
        },
        "formulaicAttacks": {
          "count": {
            "formula": "min(3, ceil(@attributes.bab.total / 5) - 1)"
          },
          "bonus": {
            "formula": "@formulaicAttack * -5"
          }
        },
        "ability": {
          "attack": "str",
          "damage": "str"
        }
      }
    ],
    "tag": "mereClub",
    "baseTypes": ["Mere Club"],
    "weaponGroups": {
      "value": ["close", "hammers"]
    },
    "weaponSubtype": "1h",
    "properties": {
      "frg": true
    }
  }
}
