{
  "_id": "OSMucqGus8xjMxUT",
  "name": "Pronged Bolt",
  "type": "loot",
  "img": "systems/pf1/icons/items/weapons/bolt.PNG",
  "system": {
    "description": {
      "value": "<p><b>Source</b> <em>Ranged Tactics Toolbox pg. 19</em></p>\n<h3>Statistics</h3>\n<h3>Description</h3>\n<p>Rather than narrowing to a single point, a pronged arrow has a wide face with two points resembling a crescent or V-shape.</p>\n<p>Originally used for hunting game, a pronged arrow deals damage as if <b>one size category smaller</b>, but you gain a <b>+1 bonus on attack rolls</b> against creatures or objects one or more size categories smaller than you.</p>"
    },
    "tags": ["PFS"],
    "quantity": 20,
    "weight": {
      "value": 0.15
    },
    "price": 0.1,
    "equipped": false,
    "hp": {
      "max": 1,
      "value": 1
    },
    "hardness": 5,
    "unidentified": {
      "price": 0.1
    },
    "subType": "ammo",
    "extraType": "bolt"
  }
}
