{
  "_id": "2vXORcAOiFLpgGNP",
  "name": "Sanpkhang",
  "type": "weapon",
  "img": "systems/pf1/icons/items/weapons/sanpkhang.png",
  "system": {
    "description": {
      "value": "<p><b>Source</b> <em>Adventurer's Armory 2 pg. 9</em></p><h3>Statistics</h3><p><b>Damage</b> 1d3 (small), 1d4 (medium); <b>Critical</b> 19-20/x2; <b>Range</b> -; <b>Type</b> P or S</p><p><b>Weapon Groups</b> Blades, Light; Monk</p><h3>Description</h3><p>This elaborate knife is carved with special barbs and grooves, meant to channel toxins into the bloodstream. Any injury poison delivered with a sanpkhang has its DC increased by 1, or by 2 if delivered as part of a critical hit or sneak attack. The vishkanya's<sup>ARG</sup> weapon familiarity racial trait grants proficiency with the sanpkhang.</p>"
    },
    "tags": ["PFS"],
    "weight": {
      "value": 1
    },
    "price": 60,
    "hp": {
      "max": 2,
      "value": 2
    },
    "hardness": 10,
    "actions": [
      {
        "_id": "u4ot9xgo5ikozzsi",
        "name": "Attack",
        "img": "systems/pf1/icons/items/weapons/sanpkhang.png",
        "activation": {
          "type": "attack"
        },
        "duration": {
          "units": "inst"
        },
        "range": {
          "value": "0",
          "units": "melee"
        },
        "actionType": "mwak",
        "damage": {
          "parts": [
            {
              "formula": "sizeRoll(1, 4, @size)",
              "type": {
                "values": ["piercing", "slashing"],
                "custom": ""
              }
            }
          ]
        },
        "formulaicAttacks": {
          "count": {
            "formula": "min(3, ceil(@attributes.bab.total / 5) - 1)"
          },
          "bonus": {
            "formula": "@formulaicAttack * -5"
          }
        },
        "ability": {
          "attack": "str",
          "damage": "str",
          "critRange": 19
        }
      }
    ],
    "tag": "sanpkhang",
    "baseTypes": ["Sanpkhang"],
    "weaponGroups": {
      "value": ["bladesLight", "monk"]
    },
    "subType": "exotic",
    "properties": {
      "mnk": true,
      "spc": true
    }
  }
}
