{
  "_id": "42M7kFLkyccrj1uf",
  "name": "Shuriken",
  "type": "weapon",
  "img": "systems/pf1/icons/items/weapons/shuriken.png",
  "system": {
    "description": {
      "value": "<p><b>Source</b> <em>Ranged Tactics Toolbox pg. 33</em>, <em>PRPG Core Rulebook pg. 143</em>, <em>Ultimate Equipment pg. 21</em></p>\n<h3>Statistics</h3>\n<p><b>Damage</b> 1 (small), 1d2 (medium); <b>Critical</b> x2; <b>Range</b> 10 ft.; <b>Type</b> P</p>\n<h3>Description</h3>\n<p>A shuriken is a small piece of metal with sharpened edges, designed for throwing. A shuriken can't be used as a melee weapon. Although they are thrown weapons, shuriken are treated as ammunition for the purposes of drawing them and crafting masterwork or otherwise special versions of them, and of what happens to them after they are thrown.</p>"
    },
    "quantity": 5,
    "weight": {
      "value": 0.1
    },
    "price": 0.2,
    "hp": {
      "max": 1,
      "value": 1
    },
    "hardness": 10,
    "unidentified": {
      "price": 0.2
    },
    "cl": null,
    "actions": [
      {
        "_id": "p1v3vt1963f6yxru",
        "name": "Attack",
        "img": "systems/pf1/icons/items/weapons/shuriken.png",
        "activation": {
          "type": "attack"
        },
        "duration": {
          "units": "inst"
        },
        "range": {
          "value": "10",
          "units": "ft",
          "maxIncrements": 5
        },
        "actionType": "rwak",
        "damage": {
          "parts": [
            {
              "formula": "sizeRoll(1, 2, @size)",
              "type": {
                "values": ["piercing"],
                "custom": ""
              }
            }
          ]
        },
        "formulaicAttacks": {
          "count": {
            "formula": "min(3, ceil(@attributes.bab.total / 5) - 1)"
          },
          "bonus": {
            "formula": "@formulaicAttack * -5"
          }
        },
        "ability": {
          "attack": "dex",
          "damage": "str"
        }
      }
    ],
    "baseTypes": ["Shuriken"],
    "weaponGroups": {
      "value": ["monk", "thrown"]
    },
    "subType": "exotic",
    "weaponSubtype": "ranged",
    "properties": {
      "mnk": true
    }
  }
}
