{
  "_id": "uKUGHNEYBebWWqIP",
  "name": "Splintercloud Arrow",
  "type": "loot",
  "img": "systems/pf1/icons/items/weapons/arrow-special.PNG",
  "system": {
    "description": {
      "value": "<p><b>Source</b> <em>Alchemy Manual pg. 21</em>, <em>Elves of Golarion pg. 23</em><h3>Statistics</h3><p><b>Time</b> 10 minutes; <b>Tools</b> -; <b>Type</b> alchemical weapon</p>"
    },
    "price": 25,
    "equipped": false,
    "hp": {
      "max": 1,
      "value": 1
    },
    "hardness": 5,
    "tag": "splintercloudArrow",
    "subType": "ammo",
    "extraType": "arrow"
  }
}
