{
  "_id": "fygngW2uhIVwedwz",
  "name": "Taiaha",
  "type": "weapon",
  "img": "icons/weapons/clubs/club-banded-steel.webp",
  "system": {
    "description": {
      "value": "<p><b>Source</b> <em>Ultimate Equipment pg. 20</em></p>\n<h3>Statistics</h3><p><b>Damage</b> 1d8/1d4 (small), 1d10/1d6 (medium); <b>Critical</b> x2/x3; <b>Range</b> -; <b>Type</b> B or P</p>\n<p><b>Weapon Groups</b> Double; Hammers</p>\n<h3>Description</h3>\n<p>The Stone Age taiaha is a long, heavy stick, club-shaped at one end and tipped with a wooden or metal spear point at the other. You wield it with a combination of solid strikes with the club and fending motions with the spear. A taiaha can be wielded as a martial weapon that deals 1d8 points of bludgeoning damage (1d6 if Small) and has a x2 critical.</p>"
    },
    "tags": ["PFS"],
    "weight": {
      "value": 8
    },
    "price": 10,
    "hp": {
      "max": 5,
      "value": 5
    },
    "hardness": 10,
    "actions": [
      {
        "_id": "gto4px1fhl7j18fn",
        "name": "Attack",
        "img": "icons/weapons/clubs/club-banded-steel.webp",
        "activation": {
          "type": "attack"
        },
        "duration": {
          "units": "inst"
        },
        "range": {
          "value": "0",
          "units": "melee"
        },
        "actionType": "mwak",
        "damage": {
          "parts": [
            {
              "formula": "sizeRoll(1, 10, @size)",
              "type": {
                "values": ["bludgeoning", "piercing"],
                "custom": ""
              }
            }
          ]
        },
        "formulaicAttacks": {
          "count": {
            "formula": "min(3, ceil(@attributes.bab.total / 5) - 1)"
          },
          "bonus": {
            "formula": "@formulaicAttack * -5"
          }
        },
        "ability": {
          "attack": "str",
          "damage": "str"
        }
      }
    ],
    "tag": "taiaha",
    "baseTypes": ["Taiaha"],
    "weaponGroups": {
      "value": ["double", "hammers"]
    },
    "subType": "exotic",
    "weaponSubtype": "1h",
    "properties": {
      "dbl": true
    }
  }
}
