{
  "_id": "62WMCpS2zAVnC5ny",
  "name": "Thorn Bow",
  "type": "weapon",
  "img": "systems/pf1/icons/items/weapons/thorn-bow.PNG",
  "system": {
    "description": {
      "value": "<p><b>Source</b> <em>Adventurer's Armory pg. 18</em>, <em>Pathfinder Campaign Setting pg. 209</em>, <em>Conquest of Bloodsworn Vale pg. 31</em></p><h3>Statistics</h3><p><b>Damage</b> 1d4 (small), 1d6 (medium); <b>Critical</b> x3; <b>Range</b> 40 ft.; <b>Type</b> P</p><h3>Description</h3><p>This polished rosewood bow is studded with thorns and tiny flowers; treat it as a shortbow.</p>"
    },
    "tags": ["PFS"],
    "weight": {
      "value": 2
    },
    "price": 50,
    "hp": {
      "max": 5,
      "value": 5
    },
    "hardness": 5,
    "actions": [
      {
        "_id": "f0phcyfanf9szgng",
        "name": "Attack",
        "img": "systems/pf1/icons/items/weapons/thorn-bow.PNG",
        "activation": {
          "type": "attack"
        },
        "duration": {
          "units": "inst"
        },
        "range": {
          "value": "40",
          "units": "ft"
        },
        "actionType": "rwak",
        "damage": {
          "parts": [
            {
              "formula": "sizeRoll(1, 6, @size) + min(@abilities.str.mod, 0)[Strength]",
              "type": {
                "values": ["piercing"],
                "custom": ""
              }
            }
          ]
        },
        "formulaicAttacks": {
          "count": {
            "formula": "min(3, ceil(@attributes.bab.total / 5) - 1)"
          },
          "bonus": {
            "formula": "@formulaicAttack * -5"
          },
          "label": ""
        },
        "ability": {
          "attack": "dex",
          "critRange": null,
          "critMult": 3
        },
        "usesAmmo": true
      }
    ],
    "tag": "thornBow",
    "baseTypes": ["Shortbow"],
    "subType": "exotic",
    "weaponSubtype": "ranged",
    "ammoType": "arrow"
  }
}
