{
  "_id": "5xOwEtugqeDjUkAG",
  "name": "Thorn Bracer",
  "type": "weapon",
  "img": "systems/pf1/icons/items/weapons/thorn-bracer.png",
  "system": {
    "description": {
      "value": "<p><b>Source</b> <em>Pathfinder Campaign Setting pg. 209</em>, <em>Conquest of Bloodsworn Vale pg. 31</em></p><h3>Statistics</h3><p><b>Damage</b> 1d4 (small), 1d6 (medium); <b>Critical</b> x2; <b>Range</b> -; <b>Type</b> P</p><h3>Description</h3><p>These sturdy leather bracers are studded with lacquered rose thorns that can be used to pierce foes. You can attack with these bracers even while holding objects in your hands. When attacking with thorn bracers, you lose any shield bonus to AC gained from a readied shield until your next action. A thorn bracer can be used to make an offhand attack if you aren't wielding a weapon or shield in that hand.</p>"
    },
    "tags": ["D&D 3.5"],
    "weight": {
      "value": 3
    },
    "price": 30,
    "hp": {
      "max": 2,
      "value": 2
    },
    "hardness": 10,
    "actions": [
      {
        "_id": "3hr8qrbd8xgxjg7v",
        "name": "Attack",
        "img": "systems/pf1/icons/items/weapons/thorn-bracer.png",
        "activation": {
          "type": "attack"
        },
        "duration": {
          "units": "inst"
        },
        "range": {
          "value": "0",
          "units": "melee"
        },
        "actionType": "mwak",
        "damage": {
          "parts": [
            {
              "formula": "sizeRoll(1, 6, @size)",
              "type": {
                "values": ["piercing"],
                "custom": ""
              }
            }
          ]
        },
        "formulaicAttacks": {
          "count": {
            "formula": "min(3, ceil(@attributes.bab.total / 5) - 1)"
          },
          "bonus": {
            "formula": "@formulaicAttack * -5"
          }
        },
        "ability": {
          "attack": "str",
          "damage": "str",
          "critRange": null
        }
      }
    ],
    "tag": "thornBracer",
    "baseTypes": ["Thorn Bracer"],
    "subType": "exotic"
  }
}
