{
  "_id": "j1ZxglTWSOgubdHH",
  "name": "Totem Spear",
  "type": "weapon",
  "img": "systems/pf1/icons/items/weapons/totem-spear.png",
  "system": {
    "description": {
      "value": "<p><b>Source</b> <em>Varisia, Birthplace of Legends pg. 14</em>, <em>Pathfinder #10: A History of Ashes pg. 35</em></p><h3>Statistics</h3><p><b>Damage</b> 1d8 (small), 1d10 (medium); <b>Critical</b> x3; <b>Range</b> 10 ft.; <b>Type</b> P or B</p><h3>Description</h3><p>Favored by the Shoanti of the Sklar-Quah, totem spears combine deadly weapons with the mournful music of Varisia's displaced natives. The shovel-like heads of these broad spears are decorated with variously oriented hollows. In addition to its use as a weapon, a totem spear can be played using the Perform (wind instrument) skill.</p>"
    },
    "tags": ["PFS"],
    "weight": {
      "value": 6
    },
    "price": 25,
    "hardness": 10,
    "actions": [
      {
        "_id": "kxpa3w4d47h4dsyz",
        "name": "Attack",
        "img": "systems/pf1/icons/items/weapons/totem-spear.png",
        "activation": {
          "type": "attack"
        },
        "duration": {
          "units": "inst"
        },
        "range": {
          "value": "10",
          "units": "melee"
        },
        "actionType": "mwak",
        "damage": {
          "parts": [
            {
              "formula": "sizeRoll(1, 10, @size)",
              "type": {
                "values": ["bludgeoning", "piercing"],
                "custom": ""
              }
            }
          ]
        },
        "formulaicAttacks": {
          "count": {
            "formula": "min(3, ceil(@attributes.bab.total / 5) - 1)"
          },
          "bonus": {
            "formula": "@formulaicAttack * -5"
          }
        },
        "ability": {
          "attack": "str",
          "damage": "str",
          "damageMult": 1.5,
          "critMult": 3
        }
      }
    ],
    "tag": "totemSpear",
    "held": "2h",
    "baseTypes": ["Totem Spear"],
    "weaponGroups": {
      "value": ["spears"]
    },
    "subType": "exotic",
    "weaponSubtype": "2h"
  }
}
