{
  "_id": "LE0iqTr3fFX0GYXM",
  "name": "Tri-Point Double-Edged Sword",
  "type": "weapon",
  "img": "icons/weapons/swords/sword-guard-flanged.webp",
  "system": {
    "description": {
      "value": "<p><b>Source</b> <em>Ultimate Equipment pg. 19</em>, <em>Ultimate Combat pg. 134</em></p><h3>Statistics</h3><p><b>Damage</b> 1d8 (small), 1d10 (medium); <b>Critical</b> x3; <b>Range</b> -; <b>Type</b> P</p><p><b>Weapon Groups</b> Monk</p><h3>Description</h3><p>Topping the head of this 5-foot-long shaft are three long, backward-curved blades fashioned in the appearance of a blossoming lotus. The unusually large head is designed to land heavy blows and cause multiple wounds that open away from each other.</p>"
    },
    "tags": ["PFS"],
    "weight": {
      "value": 14
    },
    "price": 12,
    "hardness": 10,
    "actions": [
      {
        "_id": "pefjtskj9uksa1yi",
        "name": "Attack",
        "img": "icons/weapons/swords/sword-guard-flanged.webp",
        "activation": {
          "type": "attack"
        },
        "duration": {
          "units": "inst"
        },
        "range": {
          "value": "0",
          "units": "reach"
        },
        "actionType": "mwak",
        "damage": {
          "parts": [
            {
              "formula": "sizeRoll(1, 10, @size)",
              "type": {
                "values": ["piercing"],
                "custom": ""
              }
            }
          ]
        },
        "formulaicAttacks": {
          "count": {
            "formula": "min(3, ceil(@attributes.bab.total / 5) - 1)"
          },
          "bonus": {
            "formula": "@formulaicAttack * -5"
          }
        },
        "ability": {
          "attack": "str",
          "damage": "str",
          "damageMult": 1.5,
          "critRange": null,
          "critMult": 3
        }
      }
    ],
    "tag": "tripointDoubleedgedSword",
    "held": "2h",
    "baseTypes": ["Tri-Point Double-Edged Sword"],
    "weaponGroups": {
      "value": ["monk"]
    },
    "subType": "martial",
    "weaponSubtype": "2h",
    "properties": {
      "rch": true
    }
  }
}
