{
  "_id": "tgIwUmP2Qyop5SzH",
  "name": "Urumi",
  "type": "weapon",
  "img": "icons/weapons/swords/sword-guard-flanged.webp",
  "system": {
    "description": {
      "value": "<p><b>Source</b> <em>Ultimate Equipment pg. 20</em>, <em>Pathfinder #9: Escape from Old Korvosa pg. 83</em>, <em>Pathfinder Campaign Setting pg. 209</em>, <em>Inner Sea World Guide pg. 290</em>, <em>Adventurer's Armory pg. 33</em>, <em>Ultimate Combat pg. 134</em></p><h3>Statistics</h3><p><b>Damage</b> 1d6 (small), 1d8 (medium); <b>Critical</b> 18-20/x2; <b>Range</b> -; <b>Type</b> S</p><p><b>Weapon Groups</b> Flails; Monk</p><h3>Description</h3><p>Commonly known as a whip sword, this deadly weapon is fashioned from one to four 5-foot-long, razor-sharp blades of flexible steel, almost like a metal cato'- nine-tails. The weapon is wielded by whipping the blades at one's opponent. The coiled blade is fine and flexible enough to be worn as a belt, and its wielders often carry the blades wrapped around themselves in this fashion.</p>"
    },
    "tags": ["PFS"],
    "weight": {
      "value": 6
    },
    "price": 30,
    "hp": {
      "max": 5,
      "value": 5
    },
    "hardness": 10,
    "actions": [
      {
        "_id": "y8s5rynxh2kl783y",
        "name": "Attack",
        "img": "icons/weapons/swords/sword-guard-flanged.webp",
        "activation": {
          "type": "attack"
        },
        "duration": {
          "units": "inst"
        },
        "range": {
          "value": "0",
          "units": "melee"
        },
        "actionType": "mwak",
        "damage": {
          "parts": [
            {
              "formula": "sizeRoll(1, 8, @size)",
              "type": {
                "values": ["slashing"],
                "custom": ""
              }
            }
          ]
        },
        "formulaicAttacks": {
          "count": {
            "formula": "min(3, ceil(@attributes.bab.total / 5) - 1)"
          },
          "bonus": {
            "formula": "@formulaicAttack * -5"
          }
        },
        "ability": {
          "attack": "str",
          "damage": "str",
          "critRange": 18
        }
      }
    ],
    "tag": "urumi",
    "baseTypes": ["Urumi"],
    "weaponGroups": {
      "value": ["flails", "monk"]
    },
    "subType": "exotic",
    "weaponSubtype": "1h",
    "properties": {
      "dst": true
    }
  }
}
