{
  "_id": "qozwdcnkxulxsepe",
  "name": "Acid",
  "type": "weapon",
  "img": "systems/pf1/icons/items/potions/major-green.jpg",
  "system": {
    "description": {
      "value": "<p class=\"source\"><b>Source</b> <em>PZO1110</em></p>\n<p>You can throw a flask of acid as a <em>splash weapon</em> with a range increment of 10 feet.</p>\n<p>A direct hit deals 1d6 points of acid damage. Every creature within 5 feet of the point where the acid hits takes 1 point of acid damage from the splash.</p>\n<p>Craft (alchemy) DC: 15</p>\n<p>Alchemical Power Component</p>\n<p class=\"source\"><b>Source</b> <em>PZO9410</em></p>\n<p>A common flask of acid has many uses as an alchemical power component, particularly with attack spells.</p>\n<ul>\n<li><em>Acid Arrow</em> (M): The spell's acid lasts 1 round longer than normal.</li>\n<li><em>Acid Fog</em> (M): The fog's radius and height increase by 5 feet.</li>\n<li><em>Acid Splash</em> (F): The spell deals +1 point of damage.</li>\n<li><em>Acid Splash</em> (M): The spell lasts 1 round longer than normal.</li>\n<li><em>Dispel Magic</em> (M): Using acid as a material component while attempting to dispel or <em>counterspell</em> a spell or effect with the earth subtype gives you a +2 bonus on your dispel check. This bonus applies whether you are using <em>dispel magic</em>, <em>greater dispel magic</em>, or some other spell that you can use for counterspelling (for example, if you have the <em>Improved Counterspell</em> feat).</li>\n<li><em>Grease</em> (M): The grease is acidic and deals 1 point of acid damage per round to any creature in the area or holding the greased object.</li>\n<li><em>Wall of Ice</em> (M): For each flask of acid used as a power component, you may designate one 10-foot square of ice wall that, if <em>broken</em> through, deals 1d6 acid damage in addition to the normal cold damage.</li>\n</ul>"
    },
    "weight": {
      "value": 1
    },
    "price": 10,
    "actions": [
      {
        "_id": "g2rblzzkmv43el5f",
        "name": "Attack",
        "img": "systems/pf1/icons/items/potions/major-green.jpg",
        "activation": {
          "type": "attack"
        },
        "duration": {
          "units": "inst"
        },
        "range": {
          "value": "10",
          "units": "ft",
          "maxIncrements": 5
        },
        "actionType": "rwak",
        "damage": {
          "parts": [
            {
              "formula": "1d6",
              "type": {
                "values": ["acid"],
                "custom": ""
              }
            }
          ]
        },
        "formulaicAttacks": {
          "label": ""
        },
        "ability": {
          "attack": "dex"
        }
      }
    ],
    "uses": {
      "per": "single"
    },
    "links": {
      "children": [
        {
          "_index": 0,
          "hiddenLinks": {},
          "id": "VOIeK1O7fy1zwq7s",
          "name": "Alchemist's Fire"
        },
        {
          "_index": 1,
          "hiddenLinks": {},
          "id": "oaE0JqMAImcekCyU",
          "name": "Acid"
        }
      ]
    },
    "tag": "acid",
    "subType": "misc",
    "weaponSubtype": "other"
  }
}
