{
  "_id": "ipacehwlcrvdvqnu",
  "name": "Baijiu",
  "type": "loot",
  "img": "systems/pf1/icons/items/inventory/dice.jpg",
  "system": {
    "description": {
      "value": "<h4>Baijiu</h4>\n<p><b>Price</b> 10 gp; <b>Weight</b> 2 lbs.</p>\n<p>This clear alcoholic beverage, distilled from sorghum, is extremely potent, and is often regarded as an acquired taste due to its corrosive flavor.</p>"
    },
    "weight": {
      "value": 2
    },
    "price": 10,
    "equipped": false,
    "subType": "gear"
  }
}
