{
  "_id": "krvuuxlzxjthsjnb",
  "name": "Bellows",
  "type": "loot",
  "img": "systems/pf1/icons/items/inventory/dice.jpg",
  "system": {
    "description": {
      "value": "<p><b>Price</b> 1 gp; <b>Weight</b> 3 lbs.</p>\n<p>Bellows are useful for starting fires, providing a +1 <em>circumstance bonus</em> on <em>Survival</em> checks to start or maintain fires.</p>"
    },
    "weight": {
      "value": 3
    },
    "price": 1,
    "equipped": false,
    "subType": "gear"
  }
}
