{
  "_id": "T42Wv6W7rnwfobSt",
  "name": "Belt of Mighty Constitution +6",
  "type": "equipment",
  "img": "systems/pf1/icons/items/equipment/belt-plain.jpg",
  "system": {
    "description": {
      "value": "<p>This belt’s golden buckle depicts a bear’s head. The belt grants the wearer an <em>enhancement bonus</em> to <em>Constitution</em> of +2, +4, or +6. Treat this as a temporary ability bonus for the first 24 hours the belt is worn.</p>",
      "unidentified": "<p>This belt’s golden buckle depicts a bear’s head.</p>"
    },
    "weight": {
      "value": 1
    },
    "price": 36000,
    "resizing": true,
    "unidentified": {
      "name": "Belt"
    },
    "cl": 8,
    "aura": {
      "school": "trs"
    },
    "changes": [
      {
        "_id": "aykkhwz4",
        "formula": "6",
        "subTarget": "con",
        "modifier": "enh"
      }
    ],
    "subType": "wondrous",
    "slot": "belt"
  }
}
