{
  "_id": "lysahnxmljquflql",
  "name": "Bone Reed",
  "type": "loot",
  "img": "systems/pf1/icons/items/inventory/dice.jpg",
  "system": {
    "description": {
      "value": "<p class=\"source\"><b>Source</b> <em>PZO1140</em></p>\n<p><b>Price</b> 75 gp</p>\n<p>This aquatic grass resembles translucent white horsetail.</p>\n<p><b>Gather</b> DC 24; <b>Yield</b> 1 dose</p>\n<p><b>Terrain</b> any swamps</p>\n<p><b>Preparation</b> A bone reed must be pressed and dried. This process requires a successful DC 10 <em>Craft</em> (alchemy) check and takes 8 hours to complete.</p>\n<p><b>Use</b> A creature that sleeps for at least 8 hours in 1 day with a bone reed bound to one of its arms or legs heals double the normal <em>ability damage</em> and hit point damage (or triple with full bed rest). A bone reed loses its effectiveness after use. <em>Binding</em> a bone reed to a limb requires 1 minute of work.</p>"
    },
    "price": 75,
    "equipped": false,
    "subType": "gear"
  }
}
