{
  "name": "Bowl",
  "type": "loot",
  "img": "icons/containers/kitchenware/bowl-clay-brown.webp",
  "system": {
    "tags": ["Mundane", "Cooking"],
    "weight": {
      "value": 0.2
    },
    "equipped": false,
    "subType": "gear"
  },
  "_id": "fASUzJozDXZldwNT"
}
