{
  "_id": "yfglkgvvgqtgjfvz",
  "name": "Cup, False-Bottomed",
  "type": "loot",
  "img": "systems/pf1/icons/items/inventory/dice.jpg",
  "system": {
    "description": {
      "value": "<p class=\"source\"><b>Source</b> <em>PZO9410</em></p>\n<p>The tiny compartment in the thick bottom of this cup is an excellent place to store a small item or substance. The most insidious are designed with a weighted catch that opens when the cup is tilted back, releasing the hidden substance hidden into the contents of the cup. Spotting the secret compartment in an empty cup is a DC 15 <em>Perception</em> check.</p>"
    },
    "equipped": false,
    "subType": "gear"
  }
}
