{
  "_id": "eztmvxecbahvbash",
  "name": "Dancer's Garb",
  "type": "loot",
  "img": "systems/pf1/icons/items/inventory/dice.jpg",
  "system": {
    "description": {
      "value": "<p class=\"source\"><b>Source</b> <em>PPZO94102</em></p>\n<p><b>Price</b> 100 gp; <b>Weight</b> 5 lbs.</p>\n<p>This combination of loose-fitting sashes, veils, and ornamentation accentuates a dancer's form and movements.</p>\n<p>Dancer's garb provides a +2 <em>circumstance bonus</em> on <em>Perform</em> (dance) checks, similar to that provided by masterwork instruments for other <em>Perform</em> skills, but does not grant this benefit when worn with armor or other concealing clothing.</p>"
    },
    "weight": {
      "value": 5
    },
    "price": 100,
    "equipped": false,
    "subType": "gear"
  }
}
