{
  "_id": "oixfsekzjhtysfrw",
  "name": "Hound's Blood",
  "type": "loot",
  "img": "systems/pf1/icons/items/inventory/dice.jpg",
  "system": {
    "description": {
      "value": "<p class=\"source\"><b>Source</b> <em>PZO1121</em></p>\n<p>If you apply the thick, red paste known as hound's blood to your nostrils or upper lip, it greatly enhances your sense of smell. For most creatures, this grants a +2 <em>alchemical bonus</em> on <em>Perception</em> checks for 1 hour. For <em>gnomes</em>, it briefly grants a super-heightened sense of smell, granting the <em>scent</em> ability for 5 minutes, before the potency is reduced to a +2 <em>alchemical bonus</em> on <em>Perception</em> checks for an additional 1 hour.</p>"
    },
    "price": 110,
    "equipped": false,
    "subType": "gear"
  }
}
