{
  "_id": "rxjodhzwmcykadls",
  "name": "Kit, Gear Maintenance",
  "type": "loot",
  "img": "systems/pf1/icons/items/inventory/dice.jpg",
  "system": {
    "description": {
      "value": "<p><b>Price</b> 5 gp; <b>Weight</b> 2 lbs.</p>\n<p>This kit contains metal polish, a small file, a leather paring knife, conditioning <em>oil</em> for leather, two soft cloths, extra leather straps, a <em>sewing needle</em>, and a few buttons.</p>"
    },
    "weight": {
      "value": 2
    },
    "price": 5,
    "equipped": false,
    "subType": "gear"
  }
}
