{
  "_id": "wcvbvkepoxfeftda",
  "name": "Kit, Shaving",
  "type": "loot",
  "img": "systems/pf1/icons/items/inventory/dice.jpg",
  "system": {
    "description": {
      "value": "<p><b>Price</b> 15 gp; <b>Weight</b> 1/2 lb.</p>\n<p>A shaving kit contains a straight razor, a <em>whetstone</em>, a small mirror, a brush, a cup, and enough shaving powder to last a Medium humanoid 50 shaves.</p>"
    },
    "weight": {
      "value": 0.5
    },
    "price": 15,
    "equipped": false,
    "subType": "gear"
  }
}
