{
  "_id": "watshjbdjirfrfca",
  "name": "Kit, Melee Contingency",
  "type": "loot",
  "img": "systems/pf1/icons/items/inventory/dice.jpg",
  "system": {
    "description": {
      "value": "<p class=\"source\"><b>Source</b>: <em>PZO9455</em></p>\n<p><b>Price</b> 150 gp; <b>Weight</b> 14 lbs.</p>\n<p>This kit contains items necessary for a melee combatant to overcome the most common forms of damage <em>resistance</em>. The kit includes a <em>cold iron</em> <em>morningstar</em>, a silver <em>sickle</em>, two flasks of <em>acid</em>, two flasks of <em>alchemist's fire</em>, and two flasks of <em>holy water</em>.</p>"
    },
    "weight": {
      "value": 14
    },
    "price": 150,
    "equipped": false,
    "subType": "gear"
  }
}
