{
  "_id": "bqdgdzahtubuuxmn",
  "name": "Kit, Disguise",
  "type": "loot",
  "img": "systems/pf1/icons/items/inventory/dice.jpg",
  "system": {
    "description": {
      "value": "<p><b>Price</b> 50 gp; <b>Weight</b> 8 lbs.</p>\n<p>This kit contains tools like makeup and fake facial hair, and provides a +2 <em>circumstance bonus</em> on <em>Disguise</em> checks. A disguise kit is exhausted after 10 uses.</p>"
    },
    "weight": {
      "value": 8
    },
    "price": 50,
    "equipped": false,
    "changes": [
      {
        "_id": "cl9ar24j",
        "formula": "2",
        "subTarget": "skill.dis",
        "modifier": "circumstance"
      }
    ],
    "tag": "kitDisguise",
    "subType": "gear"
  }
}
