{
  "_id": "wjwlkmtwaiqezfhg",
  "name": "Obsession Log",
  "type": "loot",
  "img": "systems/pf1/icons/items/inventory/dice.jpg",
  "system": {
    "description": {
      "value": "<p><b>Obsession Log</b> Gnomes use these small books to record information about their obsessions. When a <em>gnome</em> consults her obsession log (taking 1 minute), she gains a +2 <em>circumstance bonus</em> on the next <em>Craft</em> or <em>Profession</em> check she makes, as long as that skill was the one chosen for her obsessive racial trait. <b>Price</b> 25 gp; <b>Weight</b> 1 lb. <b>Source</b> <em>PZO1121</em></p>"
    },
    "weight": {
      "value": 1
    },
    "price": 25,
    "equipped": false,
    "subType": "gear"
  }
}
