{
  "_id": "w1SJ6hJYFwN8Pept",
  "name": "Ring of Protection +3",
  "type": "equipment",
  "img": "systems/pf1/icons/items/jewelry/ring-iron.jpg",
  "system": {
    "description": {
      "value": "<p>This ring offers continual magical protection in the form of a <em>deflection</em> bonus of +1 to +5 to <em>AC</em>.</p>"
    },
    "price": 18000,
    "resizing": true,
    "unidentified": {
      "name": "Ring"
    },
    "cl": 9,
    "aura": {
      "school": "abj"
    },
    "changes": [
      {
        "_id": "v9tp9iqo",
        "formula": "3",
        "subTarget": "ac",
        "modifier": "deflection"
      }
    ],
    "tag": "ringOfProtection3",
    "subType": "wondrous",
    "slot": "ring"
  }
}
