{
  "_id": "vkrpwszkdhhbuidy",
  "name": "Scale, Merchant's",
  "type": "loot",
  "img": "systems/pf1/icons/items/inventory/dice.jpg",
  "system": {
    "description": {
      "value": "<p><b>Price</b> 2 gp; <b>Weight</b> 1 lb.</p>\n<p>A merchant's scale is a simple lever on a fulcrum, from which two trays hang. It grants a +2 <em>circumstance bonus</em> on <em>Appraise</em> checks involving items that are valued by weight, including anything made of precious metals.</p>"
    },
    "weight": {
      "value": 1
    },
    "price": 2,
    "equipped": false,
    "subType": "gear"
  }
}
