{
  "_id": "goEzCCCCQqUpf9o3",
  "name": "Aberrant Resistance",
  "type": "feat",
  "img": "systems/pf1/icons/skills/red_05.jpg",
  "system": {
    "description": {
      "value": "<p>At 16th level, you are immune to disease, exhaustion, fatigue, and poison, and to the staggered condition.</p>"
    },
    "tag": "classFeat_aberrantResistance",
    "useCustomTag": true,
    "subType": "classFeat",
    "associations": {
      "classes": ["Bloodrager"]
    },
    "abilityType": "su"
  }
}
