{
  "_id": "EQ7JGo4P1XirLO46",
  "name": "Advanced Talents",
  "type": "feat",
  "img": "systems/pf1/icons/feats/agile-maneuvers.jpg",
  "system": {
    "description": {
      "value": "<p>At 10th level, and every two levels thereafter, a rogue can choose one of the following advanced talents in place of a rogue talent.</p>"
    },
    "tag": "classFeat_advancedTalents",
    "useCustomTag": true,
    "subType": "classFeat",
    "associations": {
      "classes": ["Rogue"]
    }
  }
}
