{
  "_id": "aNTZXUUBQlh5VDTv",
  "name": "Advanced Slayer Talents",
  "type": "feat",
  "img": "systems/pf1/icons/feats/greater-weapon-focus.jpg",
  "system": {
    "description": {
      "value": "<p>At 10th level and every 2 levels thereafter, a slayer can select an advanced talent in place of a slayer talent.</p>"
    },
    "tag": "classFeat_advancedSlayerTalents",
    "useCustomTag": true,
    "subType": "classFeat",
    "associations": {
      "classes": ["Slayer"]
    }
  }
}
