{
  "_id": "95GjZ4XzJdKJJTWY",
  "name": "Ancestors Subdomain",
  "type": "feat",
  "img": "systems/pf1/icons/skills/affliction_07.jpg",
  "system": {
    "description": {
      "value": "<p><b>Replacement Domain Spells:</b></p>\n<ul>\n<li>4th—@Compendium[pf1.spells.zaw5yh1c7ftk45tf]{Rest Eternal}</li>\n<li>6th—@Compendium[pf1.spells.pfv5zv744x9dwg38]{Geas/Quest}</li>\n</ul>"
    },
    "tag": "classFeat_ancestorsSubdomain",
    "useCustomTag": true,
    "subType": "classFeat",
    "associations": {
      "classes": ["Cleric"]
    }
  }
}
