{
  "_id": "nyz3JgtYMrJZF6o5",
  "name": "Aura of Sin",
  "type": "feat",
  "img": "systems/pf1/icons/spells/enchant-red-1.jpg",
  "system": {
    "description": {
      "value": "<p>At 14th level, an antipaladin's weapons are treated as evil-aligned for the purposes of overcoming damage reduction. Any attack made against an enemy within 10 feet of him is treated as evil-aligned for the purposes of overcoming damage reduction. This ability functions only while the antipaladin is conscious, not if he is unconscious or dead.</p>"
    },
    "actions": [
      {
        "_id": "t9ym7v4pftewh87o",
        "name": "Use",
        "img": "systems/pf1/icons/spells/enchant-red-1.jpg",
        "activation": {
          "type": "passive",
          "unchained": {
            "type": "passive"
          }
        },
        "actionType": ""
      }
    ],
    "tag": "classFeat_auraOfSin",
    "useCustomTag": true,
    "subType": "classFeat",
    "associations": {
      "classes": ["Antipaladin"]
    },
    "abilityType": "su"
  }
}
