{
  "_id": "7rSXC0YKhLa17VcD",
  "name": "Aura of Chaos",
  "type": "feat",
  "img": "systems/pf1/icons/spells/enchant-eerie-1.jpg",
  "system": {
    "description": {
      "value": "<p>At 8th level, you can surround yourself with a field wild energies. Thee energies manifest as a 30-foot aura of chaos for a number of rounds per day equal to your cleric level. All enemies within this aura must declare one type of action at the start of their turn (attack, cast a spell, move, use an item, or activate a special ability) and make a Will save. Creatures that fail the Will save must take an action other than their declared action. If they succeed, they must take the declared action. Creatures cannot select actions that they cannot perform.</p>\n<p>This power replaces the Chaos Blade power of the Chaos Domain.</p>"
    },
    "actions": [
      {
        "_id": "n4fm1wxijwe33n2f",
        "name": "Use",
        "img": "systems/pf1/icons/spells/enchant-eerie-1.jpg",
        "activation": {
          "type": "swift",
          "unchained": {
            "type": "action"
          }
        },
        "duration": {
          "value": "1",
          "units": "round"
        },
        "target": {
          "value": "self"
        },
        "range": {
          "value": "30",
          "units": "ft"
        },
        "actionType": ""
      }
    ],
    "uses": {
      "per": "day",
      "maxFormula": "@classes.cleric.level"
    },
    "tag": "classFeat_auraOfChaos",
    "useCustomTag": true,
    "subType": "classFeat",
    "associations": {
      "classes": ["Cleric"]
    },
    "abilityType": "su"
  }
}
