{
  "_id": "GcwWx6auhYuIdb6y",
  "name": "Basic Geokinesis",
  "type": "feat",
  "img": "systems/pf1/icons/spells/rock-sky-3.jpg",
  "system": {
    "description": {
      "value": "<p><b>Element</b> earth; <b>Type</b> utility (Sp); <b>Level</b> 1; <b>Burn</b> 0</p>\n<p>You can move up to 5 pounds per kineticist level of rocks, loose earth, sand, clay, and other similar materials up to 15 feet as a move action. You can search earthen and stone areas from a distance as if using the @Compendium[pf1.spells.zms7u0g03ogxrvi3]{Sift} cantrip.</p>"
    },
    "actions": [
      {
        "_id": "cak9z8j2fo74ddeg",
        "name": "Use",
        "img": "systems/pf1/icons/spells/rock-sky-3.jpg",
        "activation": {
          "type": "standard",
          "unchained": {
            "cost": 2,
            "type": "action"
          }
        },
        "uses": {
          "autoDeductChargesCost": "0"
        },
        "actionType": ""
      }
    ],
    "tag": "classFeat_basicGeokinesis",
    "useCustomTag": true,
    "subType": "classFeat",
    "associations": {
      "classes": ["Kineticist"]
    },
    "abilityType": "sp"
  }
}
