{
  "_id": "u5LefrXZxQgLqmyJ",
  "name": "Bleeding Touch",
  "type": "feat",
  "img": "systems/pf1/icons/skills/blood_03.jpg",
  "system": {
    "description": {
      "value": "<p>As a melee touch attack, you can cause a living creature to take 1d6 points of damage per round. This effect persists for a number of rounds equal to 1/2 your cleric level (minimum 1) or until stopped with a DC 15 Heal check or any spell or effect that heals damage. You can use this ability a number of times per day equal to 3 + your Wisdom modifier.</p>"
    },
    "actions": [
      {
        "_id": "ix4r5k1d8rsoh2lp",
        "name": "Use",
        "img": "systems/pf1/icons/skills/blood_03.jpg",
        "activation": {
          "type": "standard",
          "unchained": {
            "cost": 2,
            "type": "action"
          }
        },
        "duration": {
          "value": "max(1, floor(@classes.cleric.level / 2))",
          "units": "round"
        },
        "target": {
          "value": "creature touched"
        },
        "range": {
          "units": "touch"
        },
        "actionType": ""
      }
    ],
    "uses": {
      "per": "day",
      "maxFormula": "3 + @abilities.wis.mod"
    },
    "tag": "classFeat_bleedingTouch",
    "useCustomTag": true,
    "subType": "classFeat",
    "associations": {
      "classes": ["Cleric"]
    },
    "abilityType": "sp"
  }
}
