{
  "_id": "oQgLbgApcLbll9Cy",
  "name": "Blessing",
  "type": "feat",
  "img": "systems/pf1/icons/skills/emerald_03.jpg",
  "system": {
    "description": {
      "value": "<p>At 20th level, you gain <em>immunity</em> to <em>poison</em>, to <em>charm</em> effects, and to spells and weapons with the <em>evil descriptor</em>. You can also cast @Compendium[pf1.spells.1i8b1v3dngkxj6jp]{Magic Circle against Evil} at will with a <em>caster level</em> equal to your <em>sorcerer</em> level.</p>"
    },
    "actions": [
      {
        "_id": "dpmdkuw33hbxru00",
        "name": "Use",
        "img": "systems/pf1/icons/skills/emerald_03.jpg",
        "activation": {
          "type": "passive",
          "unchained": {
            "type": "passive"
          }
        },
        "actionType": ""
      }
    ],
    "tag": "classFeat_blessing",
    "useCustomTag": true,
    "subType": "classFeat",
    "associations": {
      "classes": ["Sorcerer"]
    },
    "abilityType": "su"
  }
}
