{
  "_id": "JBswJS7JZDCeKq92",
  "name": "Blood Reader",
  "type": "feat",
  "img": "systems/pf1/icons/items/weapons/rhoka.PNG",
  "system": {
    "description": {
      "value": "<p>While able to see a studied target, a slayer with this talent knows exactly how many hit points his opponent has remaining. This only works against living targets.</p>"
    },
    "tag": "classFeat_bloodReader",
    "useCustomTag": true,
    "subType": "classFeat",
    "associations": {
      "classes": ["Slayer"]
    },
    "abilityType": "ex"
  }
}
