{
  "_id": "6We99Y0TSKXPcGeq",
  "name": "Bone-Spike Mutagen",
  "type": "feat",
  "img": "systems/pf1/icons/items/potions/unique-3.jpg",
  "system": {
    "description": {
      "value": "<p>When the alchemist imbibes a mutagen, he mutates his skeletal structure, causing the bones on his elbows, knuckles, spine, and shoulder blades to grow massive and pierce his skin, exposing themselves as large spikes. While the mutagen is in effect, the alchemist’s natural armor bonus granted by the mutagen increases by 2. The spikes count as masterwork armor spikes with which the alchemist is proficient.</p>\n<p>An alchemist must be at least 6th level before selecting this discovery.</p>"
    },
    "tag": "classFeat_bonespikeMutagen",
    "useCustomTag": true,
    "subType": "classFeat",
    "associations": {
      "classes": ["Alchemist"]
    },
    "abilityType": "su"
  }
}
