{
  "_id": "KeR1tPWDZo880yqh",
  "name": "Building-Up Koan (UC)",
  "type": "feat",
  "img": "systems/pf1/icons/skills/fire_07.jpg",
  "system": {
    "description": {
      "value": "<p>A monk with this ability can spend 2 ki points as a swift action to ask himself a koan, which he then tries to answer. The monk must attempt a Will save (DC 15 + 1/2 the monk’s level). If successful, he gains an insight bonus equal to his Wisdom modifier to AC and on attack rolls, saving throws, skill checks and until the end of the round. If he fails, the monk is instead confused for 1 round. This is a mind-affecting, language-dependent effect.</p>\n<p>A character who can’t become confused can’t benefit from this ability.</p>\n<p>A monk must be at least 8th level before selecting this ki power.</p>"
    },
    "actions": [
      {
        "_id": "n7kfy6izewsltqa9",
        "name": "Use",
        "img": "systems/pf1/icons/skills/fire_07.jpg",
        "activation": {
          "type": "swift",
          "unchained": {
            "type": "action"
          }
        },
        "actionType": "save",
        "save": {
          "type": "will"
        }
      }
    ],
    "tag": "classFeat_buildingupKoanUc",
    "useCustomTag": true,
    "subType": "classFeat",
    "associations": {
      "classes": ["Monk (Unchained)"]
    },
    "abilityType": "su"
  }
}
