{
  "_id": "4f20tDvTJRMfWKBj",
  "name": "Bull Aspect",
  "type": "feat",
  "img": "systems/pf1/icons/skills/blue_29.jpg",
  "system": {
    "description": {
      "value": "<p><em>The bull is a fierce charger and is adept at trampling its foes, pounding them to a bloody pulp.</em><p><b>Minor Form:</b> You gain a +2 enhancement bonus to your Strength score.</p>\n<p>At 8th level, the bonus increases to +4, and at 15th level it increases to +6.<p><b>Major Form:</b> Your shape changes to that of a Large bull (see Cattle on page 179). While in this form, you gain a base speed of 40 feet, low-light vision, scent, and a gore attack (1d8 damage) with powerful charge (+1d8 on your gore attack).</p>\n<p>At 8th level, you gain the trample as per the universal monster rule (dealing gore damage plus 1-1/2 times your Strength modifier).</p>\n<p>At 15th level, your gore damage increases to 2d8 and you gain the Awesome Blow feat (Bestiary 314).<p><b>Alternate Natural Attacks:</b> Gore (P), hoof (B), slam (B)</p>"
    },
    "tag": "classFeat_bullAspect",
    "useCustomTag": true,
    "subType": "classFeat",
    "associations": {
      "classes": ["Shifter"]
    }
  }
}
