{
  "_id": "6I1vXMvQ232cphTd",
  "name": "Choking Bomb",
  "type": "feat",
  "img": "systems/pf1/icons/items/weapons/kunai.png",
  "system": {
    "description": {
      "value": "<p>Whenever a ninja throws a smoke bomb, all living creatures in the resulting cloud must make a Fortitude save or become staggered by the choking black smoke for 1d4 rounds. The DC of this saving throw is equal to 10 + 1/2 the ninja's level + the ninja's Charisma modifier. The ninja can decide to create an ordinary smoke bomb or add poison to this smoke bomb as normal.</p>\n<p>The ninja must have the poison bomb ninja trick before selecting this trick.</p>"
    },
    "tags": ["Ninja Trick"],
    "tag": "classFeat_chokingBomb",
    "useCustomTag": true,
    "subType": "classFeat",
    "associations": {
      "classes": ["Ninja"]
    },
    "abilityType": "ex"
  }
}
