{
  "_id": "wR1Bt84ZulSKzvj4",
  "name": "Clobbering Strike",
  "type": "feat",
  "img": "systems/pf1/icons/spells/light-royal-1.jpg",
  "system": {
    "description": {
      "value": "<p>Whenever you score a critical hit against an opponent with a spell that requires an attack roll, you may immediately attempt to trip your opponent as a swift action. You do not provoke an attack of opportunity as normal for this trip attempt. You cannot be tripped in return when using this ability.</p>"
    },
    "actions": [
      {
        "_id": "kdb5yvq0sii2rsk6",
        "name": "Use",
        "img": "systems/pf1/icons/spells/light-royal-1.jpg",
        "activation": {
          "type": "swift",
          "unchained": {
            "type": "action"
          }
        },
        "duration": {
          "units": "inst"
        },
        "target": {
          "value": "one creature"
        },
        "range": {
          "units": "touch"
        },
        "actionType": ""
      }
    ],
    "tag": "classFeat_clobberingStrike",
    "useCustomTag": true,
    "subType": "classFeat",
    "associations": {
      "classes": ["Oracle"]
    },
    "abilityType": "ex"
  }
}
