{
  "_id": "ou85mTXBHWjreUYw",
  "name": "Consummate Liar",
  "type": "feat",
  "img": "systems/pf1/icons/skills/light_07.jpg",
  "system": {
    "description": {
      "value": "<p>A mesmerist adds 1/2 his mesmerist level (minimum 1) as a bonus on all Bluff checks. In addition, the mesmerist qualifies for the Improved Feint and Greater Feint feats, even if he doesn’t have Combat Expertise or an Intelligence score of at least 13.</p>\n<p>He can also ignore Combat Expertise and an Intelligence score of 13 as prerequisites for other feats that require Improved Feint or Greater Feint.</p>"
    },
    "actions": [
      {
        "_id": "r5acpnwrvw4jwaxv",
        "name": "Use",
        "img": "systems/pf1/icons/skills/light_07.jpg",
        "activation": {
          "type": "passive",
          "unchained": {
            "type": "passive"
          }
        },
        "actionType": ""
      }
    ],
    "changes": [
      {
        "_id": "8v5u4pi6",
        "formula": "max(1, floor(@classes.mesmerist.level / 2))",
        "subTarget": "skill.blf",
        "modifier": "untyped",
        "priority": "0"
      }
    ],
    "tag": "classFeat_consummateLiar",
    "useCustomTag": true,
    "subType": "classFeat",
    "associations": {
      "classes": ["Mesmerist"]
    }
  }
}
