{
  "_id": "xJxzk6AL7oqF63ls",
  "name": "Contagious Rage",
  "type": "feat",
  "img": "systems/pf1/icons/feats/deafening-critical.jpg",
  "system": {
    "description": {
      "value": "<p>The barbarian howls during combat, agitating nearby fauna. Willing animals and magical beasts within 30 feet of the barbarian gain the benefits of the <a href=\"https://aonprd.com/SpellDisplay.aspx?ItemName=rage\">rage</a> spell for as long as she maintains her rage. After the barbarian’s rage ends, creatures affected by her rage are fatigued for the same number of rounds as the barbarian.</p>\n<p>A barbarian must be at least 6th level to choose this rage power.</p>"
    },
    "tag": "classFeat_contagiousRage",
    "useCustomTag": true,
    "subType": "classFeat",
    "associations": {
      "classes": ["Barbarian", "Skald"]
    },
    "abilityType": "su"
  }
}
