{
  "_id": "VpQaERDK6ALltstl",
  "name": "Crushing Grapple",
  "type": "feat",
  "img": "systems/pf1/icons/items/inventory/banner-red.jpg",
  "system": {
    "description": {
      "value": "<p>At 8th level, the cavalier gains <a href=\"https://aonprd.com/FeatDisplay.aspx?ItemName=Chokehold\">Chokehold</a> as a bonus feat, even if she does not meet the prerequisites. She does not take the –5 penalty on grapple checks to put an opponent in a chokehold.</p>"
    },
    "tag": "classFeat_crushingGrapple",
    "useCustomTag": true,
    "subType": "classFeat",
    "associations": {
      "classes": ["Cavalier"]
    },
    "abilityType": "ex"
  }
}
