{
  "_id": "HmxiCHeh7kJkwzqR",
  "name": "Crystal Sight",
  "type": "feat",
  "img": "systems/pf1/icons/spells/light-royal-1.jpg",
  "system": {
    "description": {
      "value": "<p>You can see through stone, earth, or sand as easily as if it were transparent crystal. Your gaze can penetrate a number of feet equal to your oracle level, or 1/12th this thickness of metal.</p>\n<p>You can use this ability a number of rounds per day equal to your oracle level, but these rounds do not need to be consecutive.</p>"
    },
    "actions": [
      {
        "_id": "6ztwbnmv0hiy88qr",
        "name": "Use",
        "img": "systems/pf1/icons/spells/light-royal-1.jpg",
        "activation": {
          "type": "standard",
          "unchained": {
            "cost": 2,
            "type": "action"
          }
        },
        "duration": {
          "value": "1",
          "units": "round"
        },
        "target": {
          "value": "self"
        },
        "range": {
          "units": "personal"
        },
        "actionType": ""
      }
    ],
    "uses": {
      "per": "day",
      "maxFormula": "@classes.oracle.level"
    },
    "tag": "classFeat_crystalSight",
    "useCustomTag": true,
    "subType": "classFeat",
    "associations": {
      "classes": ["Oracle"]
    },
    "abilityType": "ex"
  }
}
