{
  "_id": "rIV9U4Fcw9cSGUfB",
  "name": "Cyclone Infusion",
  "type": "feat",
  "img": "systems/pf1/icons/spells/wind-sky-3.jpg",
  "system": {
    "description": {
      "value": "<p><b>Element</b> air; <b>Type</b> form infusion; <b>Level</b> 4; <b>Burn</b> 3<br><b>Associated Blasts</b> air, blizzard, sandstorm, thunderstorm<br><b>Saving Throw</b> Reflex half</p>\n<p>You create a circular rush of wind. All creatures and objects within a 20-foot-radius burst centered on you take half your blast’s normal amount of damage. The saving throw DC is Dexterity-based.</p>"
    },
    "actions": [
      {
        "_id": "adrdkjbmtrqbvwd4",
        "name": "Use",
        "img": "systems/pf1/icons/spells/wind-sky-3.jpg",
        "actionType": "save",
        "save": {
          "type": "ref",
          "description": "Reflex half"
        }
      }
    ],
    "tag": "classFeat_cycloneInfusion",
    "useCustomTag": true,
    "subType": "classFeat",
    "associations": {
      "classes": ["Kineticist"]
    }
  }
}
