{
  "_id": "RENIeTVjWB7Mq6Mw",
  "name": "Damage Reduction",
  "type": "feat",
  "img": "systems/pf1/icons/items/armor/shield-light-metal.png",
  "system": {
    "description": {
      "value": "<p>At 7th level, a barbarian gains <em>damage reduction</em>. Subtract 1 from the damage the barbarian takes each time she is dealt damage from a weapon or a natural attack. At 10th level, and every three barbarian levels thereafter (13th, 16th, and 19th level), this <em>damage reduction</em> rises by 1 point. <em>Damage reduction</em> can reduce damage to 0 but not below 0.</p>"
    },
    "actions": [
      {
        "_id": "1tp00p24uzrdrthm",
        "name": "Use",
        "img": "systems/pf1/icons/items/armor/shield-light-metal.png",
        "activation": {
          "type": "passive",
          "unchained": {
            "type": "passive"
          }
        },
        "actionType": ""
      }
    ],
    "tag": "classFeat_damageReduction",
    "useCustomTag": true,
    "subType": "classFeat",
    "associations": {
      "classes": ["Barbarian"]
    },
    "abilityType": "ex"
  }
}
