{
  "_id": "vMj6C55xzasp1Wa3",
  "name": "Dance of Disorienting Shadows",
  "type": "feat",
  "img": "systems/pf1/icons/items/weapons/butterfly-knife.PNG",
  "system": {
    "description": {
      "value": "<p>A rogue with this talent can attempt a Perform (dance) check in place of a combat maneuver check when attempting a reposition combat maneuver.</p>"
    },
    "tag": "classFeat_danceOfDisorientingShadows",
    "useCustomTag": true,
    "subType": "classFeat",
    "associations": {
      "classes": ["Rogue"]
    },
    "abilityType": "ex"
  }
}
