{
  "_id": "KnnoxYDiEydW3vFo",
  "name": "Death's Shot",
  "type": "feat",
  "img": "systems/pf1/icons/skills/weapon_44.jpg",
  "system": {
    "description": {
      "value": "<p>At 19th level, when the gunslinger scores a critical hit, she can spend 1 grit point to deal normal damage, and the target must succeed at a Fortitude saving throw with a DC equal to 10 + 1/2 the gunslinger’s level + the gunslinger’s Dexterity modifier. On a failed saving throw, the target dies. This is a death attack. Performing this deed does not allow the gunslinger to regain grit from confirming a critical hit or making a killing blow.</p>"
    },
    "tags": ["Gunslinger Deed"],
    "actions": [
      {
        "_id": "3FG6M1jJ23g9U2ez",
        "name": "Use",
        "img": "systems/pf1/icons/skills/weapon_44.jpg",
        "activation": {
          "type": "nonaction"
        },
        "actionType": ""
      }
    ],
    "tag": "classFeat_deathsShot",
    "useCustomTag": true,
    "subType": "classFeat",
    "associations": {
      "classes": ["Gunslinger"]
    },
    "abilityType": "ex"
  }
}
