{
  "_id": "LeeRVglZKLpW5b4e",
  "name": "Death Blessing: Death's Touch",
  "type": "feat",
  "img": "systems/pf1/icons/spells/horror-red-3.jpg",
  "system": {
    "description": {
      "value": "<p>At 10th level, you can make a melee touch attack against an opponent to deliver grim suffering. If you succeed, you inflict 1 temporary negative level on the target for 1 minute. Alternatively, you can activate this ability as a swift action upon hitting an opponent with a melee attack. These temporary negative levels stack. You gain no benefit from imposing these negative levels (such as the temporary hit points undead gain from enervation).</p>"
    },
    "actions": [
      {
        "_id": "eeab8sf1y6heq5tr",
        "name": "Use",
        "img": "systems/pf1/icons/spells/horror-red-3.jpg",
        "activation": {
          "type": "swift",
          "unchained": {
            "type": "action"
          }
        },
        "duration": {
          "value": "1",
          "units": "minute"
        },
        "target": {
          "value": "creature touched"
        },
        "range": {
          "units": "touch"
        },
        "actionType": ""
      }
    ],
    "tag": "classFeat_deathBlessingDeathsTouch",
    "useCustomTag": true,
    "subType": "classFeat",
    "associations": {
      "classes": ["Warpriest"]
    }
  }
}
