{
  "_id": "gcbkOtnZ09HTsFzb",
  "name": "Decay Subdomain",
  "type": "feat",
  "img": "systems/pf1/icons/skills/violet_23.jpg",
  "system": {
    "description": {
      "value": "<p><b>Replacement Domain Spells:</b></p>\n<ul>\n<li>3rd—@Compendium[pf1.spells.ppeb97nxg1rmdpme]{Contagion}</li>\n<li>4th—@Compendium[pf1.spells.vdh0yuzpjwhky6kr]{Poison}</li>\n<li>6th—@Compendium[pf1.spells.dvwyzofd0yifs1ac]{Harm}</li>\n</ul>"
    },
    "tag": "classFeat_decaySubdomain",
    "useCustomTag": true,
    "subType": "classFeat",
    "associations": {
      "classes": ["Cleric"]
    }
  }
}
