{
  "_id": "C2DvBVzMotvjAP3S",
  "name": "Demon Subdomain",
  "type": "feat",
  "img": "systems/pf1/icons/skills/blood_13.jpg",
  "system": {
    "description": {
      "value": "<p><b>Replacement Domain Spells:</b> </p>\n<ul>\n<li>1st—@Compendium[pf1.spells.wa7p5zwwl1p0rt92]{Doom}</li>\n<li>3rd—@Compendium[pf1.spells.8u1xa5javcxc6szk]{Rage}</li>\n<li>6th—@Compendium[pf1.spells.qf4bqjgeff1q4hjt]{Planar Binding} (demons only).</li>\n</ul>"
    },
    "tag": "classFeat_demonSubdomain",
    "useCustomTag": true,
    "subType": "classFeat",
    "associations": {
      "classes": ["Cleric"]
    }
  }
}
