{
  "_id": "YbntgBHMSpzmZruX",
  "name": "Destiny Realized",
  "type": "feat",
  "img": "systems/pf1/icons/skills/shadow_13.jpg",
  "system": {
    "description": {
      "value": "<p>At 20th level, your moment of destiny is at hand. Any critical threats made against you only confirm if the second roll results in a natural 20 on the die. Any critical threats you score with a spell are automatically confirmed. Once per day, you can automatically succeed at one caster level check made to overcome spell resistance. You must use this ability before making the roll.</p>"
    },
    "actions": [
      {
        "_id": "jljkambu45g1prtc",
        "name": "Use",
        "img": "systems/pf1/icons/skills/shadow_13.jpg",
        "activation": {
          "type": "passive",
          "unchained": {
            "type": "passive"
          }
        },
        "actionType": ""
      }
    ],
    "tag": "classFeat_destinyRealized",
    "useCustomTag": true,
    "subType": "classFeat",
    "associations": {
      "classes": ["Sorcerer"]
    },
    "abilityType": "su"
  }
}
