{
  "_id": "qyqbVqtFmw5QBRbg",
  "name": "Destructive Aura",
  "type": "feat",
  "img": "systems/pf1/icons/skills/arrow_03.jpg",
  "system": {
    "description": {
      "value": "<p>At 8th level, you can emit a 30-foot aura of destruction for a number of rounds per day equal to your cleric level. All attacks made against targets in this aura (including you) gain a morale bonus on damage equal to 1/2 your cleric level and all critical threats are automatically confirmed. These rounds do not need to be consecutive.</p>"
    },
    "actions": [
      {
        "_id": "lrei12zfzl8y1705",
        "name": "Use",
        "img": "systems/pf1/icons/skills/arrow_03.jpg",
        "activation": {
          "type": "swift",
          "unchained": {
            "type": "action"
          }
        },
        "duration": {
          "value": "1",
          "units": "round"
        },
        "target": {
          "value": "aura"
        },
        "range": {
          "value": "30",
          "units": "ft"
        },
        "actionType": ""
      }
    ],
    "uses": {
      "per": "day",
      "maxFormula": "floor(@classes.cleric.level / 2)"
    },
    "tag": "classFeat_destructiveAura",
    "useCustomTag": true,
    "subType": "classFeat",
    "associations": {
      "classes": ["Cleric"]
    },
    "abilityType": "su"
  }
}
