{
  "_id": "fvbjZZ3qzJliES5o",
  "name": "Developed Poison Immunity",
  "type": "feat",
  "img": "systems/pf1/icons/items/weapons/dagger.PNG",
  "system": {
    "description": {
      "value": "<p>When this talent is taken, select a single animal or plant poison that the rogue has been poisoned with but survived. The rogue automatically succeeds at all Fortitude saves against exposure to the selected poison.</p>"
    },
    "tag": "classFeat_developedPoisonImmunity",
    "useCustomTag": true,
    "subType": "classFeat",
    "associations": {
      "classes": ["Rogue"]
    },
    "abilityType": "ex"
  }
}
