{
  "_id": "CaSgPmUPijRDf2Vp",
  "name": "Diamond Resilience (UC)",
  "type": "feat",
  "img": "systems/pf1/icons/skills/fire_07.jpg",
  "system": {
    "description": {
      "value": "<p>By spending 1 ki point as a swift action, the monk gains DR 2/—. This DR lasts for 1 minute.</p>\n<p>At 16th level, the damage reduction increases to 4/—.</p>\n<p>At 19th level, it increases to DR 6/—.</p>\n<p>A monk must be at least 12th level before selecting this ki power.</p>"
    },
    "actions": [
      {
        "_id": "1j2wihyct9oh4i8b",
        "name": "Use",
        "img": "systems/pf1/icons/skills/fire_07.jpg",
        "activation": {
          "type": "swift",
          "unchained": {
            "type": "action"
          }
        },
        "duration": {
          "value": "1",
          "units": "minute"
        },
        "target": {
          "value": "self"
        },
        "range": {
          "units": "personal"
        },
        "actionType": ""
      }
    ],
    "tag": "classFeat_diamondResilienceUc",
    "useCustomTag": true,
    "subType": "classFeat",
    "associations": {
      "classes": ["Monk (Unchained)"]
    },
    "abilityType": "ex"
  }
}
