{
  "_id": "P17L09Wh6jFpIPWh",
  "name": "Dimensional Slide",
  "type": "feat",
  "img": "systems/pf1/icons/spells/runes-blue-2.jpg",
  "system": {
    "description": {
      "value": "<p>The arcanist can expend 1 point from her arcane reservoir to create a dimensional crack that she can step through to reach another location. This ability is used as part of a move action or withdraw action, allowing her to move up to 10 feet per arcanist level to any location she can see. This counts as 5 feet of movement.</p>\n<p>She can only use this ability once per round.</p>\n<p>She does not provoke attacks of opportunity when moving in this way, but any other movement she attempts as part of her move action provokes as normal.</p>"
    },
    "tags": ["Arcanist Exploit"],
    "actions": [
      {
        "_id": "kj8g5v3er4gm8wb2",
        "name": "Use",
        "img": "systems/pf1/icons/spells/runes-blue-2.jpg",
        "activation": {
          "type": "free",
          "unchained": {
            "type": "free"
          }
        },
        "range": {
          "value": "@classes.arcanist.level*10",
          "units": "ft"
        },
        "actionType": ""
      }
    ],
    "tag": "classFeat_dimensionalSlide",
    "useCustomTag": true,
    "subType": "classFeat",
    "associations": {
      "classes": ["Arcanist"]
    },
    "abilityType": "su"
  }
}
