{
  "_id": "74M85RvChmjR3bmT",
  "name": "Disease Use",
  "type": "feat",
  "img": "systems/pf1/icons/items/weapons/dagger.PNG",
  "system": {
    "description": {
      "value": "<p>A rogue with this talent can apply filth from garbage, a sewer, a city street, a polluted area, or long-unwashed clothing or fur to a weapon as a standard action. Doing so causes the weapon to inflict filth fever (Pathfinder RPG Core Rulebook 557) on its next strike. The rogue does not risk exposure to this disease unless she is damaged by the weapon. After a successful attack with the weapon, the filth is dispersed and must be reapplied.</p>"
    },
    "tag": "classFeat_diseaseUse",
    "useCustomTag": true,
    "subType": "classFeat",
    "associations": {
      "classes": ["Rogue"]
    },
    "abilityType": "ex"
  }
}
