{
  "_id": "7AZG7JFuBKDQX9hs",
  "name": "Distant Spellstrike",
  "type": "feat",
  "img": "systems/pf1/icons/spells/enchant-red-3.jpg",
  "system": {
    "description": {
      "value": "<p>The range of any spell the magus delivers through a ranged weapon attack increases to the maximum range of the weapon if that is greater than the spell’s range.</p>\n<p>The magus must be at least 12th level and must have ranged spellstrike to select this arcana.</p>"
    },
    "tag": "classFeat_distantSpellstrike",
    "useCustomTag": true,
    "subType": "classFeat",
    "associations": {
      "classes": ["Magus"]
    },
    "abilityType": "su"
  }
}
