{
  "_id": "7O9cKyFmInM4P9XP",
  "name": "Drug Resistance",
  "type": "feat",
  "img": "systems/pf1/icons/spells/slice-spirit-3.jpg",
  "system": {
    "description": {
      "value": "<p>When you ingest drugs, you take half as much ability damage (minimum 1). You also gain a +4 bonus on saving throws to avoid becoming addicted to a drug or to overcome being addicted.</p>"
    },
    "tag": "classFeat_drugResistance",
    "useCustomTag": true,
    "subType": "classFeat",
    "associations": {
      "classes": ["Psychic"]
    },
    "abilityType": "ex"
  }
}
