{
  "_id": "sO5cLMTyyJARtKto",
  "name": "Dual Bond",
  "type": "feat",
  "img": "systems/pf1/icons/skills/blue_13.jpg",
  "system": {
    "description": {
      "value": "<p>At 17th level, the spiritualist can use her bonded manifestation ability a number of rounds per day equal to 3 + twice her spiritualist level.</p>"
    },
    "tag": "classFeat_dualBond",
    "useCustomTag": true,
    "subType": "classFeat",
    "associations": {
      "classes": ["Spiritualist"]
    },
    "abilityType": "su"
  }
}
