{
  "_id": "yPhfZKtNeguRC9bc",
  "name": "Dweller in Darkness",
  "type": "feat",
  "img": "systems/pf1/icons/spells/light-royal-1.jpg",
  "system": {
    "description": {
      "value": "<p>Once per day, you cast your psyche into the void of space to attract the attention of a terrible otherworldly being. The dweller in darkness behaves in all ways as if you had cast @Compendium[pf1.spells.6efjgs1qvmj6yxqv]{Phantasmal Killer}. At 17th level, the dweller in darkness can be perceived by more than one creature, as if you had cast @Compendium[pf1.spells.3wdx7fjulsohi1lk]{Weird}.</p>\n<p>You must be at least 11th level to choose this revelation.</p>"
    },
    "actions": [
      {
        "_id": "exyd161erpd6ehhy",
        "name": "Use",
        "img": "systems/pf1/icons/spells/light-royal-1.jpg",
        "activation": {
          "type": "standard",
          "unchained": {
            "cost": 2,
            "type": "action"
          }
        },
        "duration": {
          "units": "inst"
        },
        "target": {
          "value": "one or more creatures"
        },
        "range": {
          "units": "medium"
        },
        "actionType": ""
      }
    ],
    "uses": {
      "per": "day",
      "maxFormula": "1"
    },
    "tag": "classFeat_dwellerInDarkness",
    "useCustomTag": true,
    "subType": "classFeat",
    "associations": {
      "classes": ["Oracle"]
    },
    "abilityType": "sp"
  }
}
