{
  "_id": "HSb1YtjjE1tcaKo0",
  "name": "Eater of Magic",
  "type": "feat",
  "img": "systems/pf1/icons/feats/deafening-critical.jpg",
  "system": {
    "description": {
      "value": "<p>Once per rage, when a barbarian fails a saving throw against a spell, supernatural ability, or spell-like ability, she can reroll the saving throw against the effect (this is not an action). If she succeeds at the second saving throw, she is not affected by the spell, supernatural ability, or spell-like ability and gains a number of temporary hit points equal to the effect’s caster level (in the case of spell or spell-like abilities) or the CR of the effect’s creator (in the case of supernatural abilities). These temporary hit points last until damage is applied to them or 1 minute, whichever occurs first.</p>\n<p>A barbarian must have the superstition rage power and be at least 10th level before selecting this rage power.</p>"
    },
    "tag": "classFeat_eaterOfMagic",
    "useCustomTag": true,
    "subType": "classFeat",
    "associations": {
      "classes": ["Barbarian", "Skald"]
    },
    "abilityType": "su"
  }
}
