{
  "_id": "6UtiTwraXGWLzxPT",
  "name": "Effortless Aid",
  "type": "feat",
  "img": "systems/pf1/icons/items/weapons/sword-cane.png",
  "system": {
    "description": {
      "value": "<p>The investigator can use an aid another action as a move action instead of as a standard action. An investigator can expend one use of inspiration to instead perform an aid another action as a swift action.</p>"
    },
    "actions": [
      {
        "_id": "8i2w281cw5pd04fk",
        "name": "Use",
        "img": "systems/pf1/icons/items/weapons/sword-cane.png",
        "activation": {
          "type": "special",
          "unchained": {
            "type": "special"
          }
        },
        "actionType": ""
      }
    ],
    "tag": "classFeat_effortlessAid",
    "useCustomTag": true,
    "subType": "classFeat",
    "associations": {
      "classes": ["Investigator"]
    },
    "abilityType": "ex"
  }
}
