{
  "_id": "g9SoLRJqSd2uvkG3",
  "name": "Elemental Resistance",
  "type": "feat",
  "img": "systems/pf1/icons/spells/protect-sky-2.jpg",
  "system": {
    "description": {
      "value": "<p>At 3rd level, you gain energy resistance 10 against your energy type. At 9th level, your energy resistance increases to 20.</p>"
    },
    "tag": "classFeat_elementalResistance",
    "useCustomTag": true,
    "subType": "classFeat",
    "associations": {
      "classes": ["Sorcerer"]
    },
    "abilityType": "ex"
  }
}
