{
  "_id": "58QFzTT3dtmAyor2",
  "name": "Engulfing Winds",
  "type": "feat",
  "img": "systems/pf1/icons/spells/wind-sky-3.jpg",
  "system": {
    "description": {
      "value": "<p><b>Element</b> air; <b>Type</b> utility (Sp); <b>Level</b> 3; <b>Burn</b> 0</p>\n<p>You bend your winds into a formidable barrier. Until the start of your next turn, you lose the benefits of enveloping winds, but can create a wind wall as the spell.</p>\n<p>You can extend the wall’s duration to 1 round per kineticist level by accepting 1 point of burn.</p>"
    },
    "actions": [
      {
        "_id": "2ax4bbcapmzif29k",
        "name": "Use",
        "img": "systems/pf1/icons/spells/wind-sky-3.jpg",
        "activation": {
          "type": "standard",
          "unchained": {
            "cost": 2,
            "type": "action"
          }
        },
        "actionType": ""
      }
    ],
    "tag": "classFeat_engulfingWinds",
    "useCustomTag": true,
    "subType": "classFeat",
    "associations": {
      "classes": ["Kineticist"]
    },
    "abilityType": "sp"
  }
}
