{
  "_id": "MppbibIym3XqWhnf",
  "name": "Erupt",
  "type": "feat",
  "img": "systems/pf1/icons/spells/light-royal-1.jpg",
  "system": {
    "description": {
      "value": "<p>As a swift action, you cause flaming shards of rock to erupt from your body. These shards deal 1d6 points of damage per 2 oracle levels (minimum 1d6) to all creatures in a 10-foot-radius burst (Reflex half ). Half of this damage is fire damage and the other half is piercing damage. The shards create difficult terrain for 1 round.</p>\n<p>You can use this ability once per day, plus one additional time per day at 5th level and every 5 levels thereafter.</p>"
    },
    "actions": [
      {
        "_id": "lncj43mc4pau8rku",
        "name": "Use",
        "img": "systems/pf1/icons/spells/light-royal-1.jpg",
        "activation": {
          "type": "swift",
          "unchained": {
            "type": "action"
          }
        },
        "duration": {
          "units": "inst"
        },
        "target": {
          "value": "10-ft. radius burst"
        },
        "range": {
          "units": "personal"
        },
        "measureTemplate": {
          "type": "circle",
          "size": "10",
          "overrideColor": true,
          "customColor": "#000000",
          "overrideTexture": true
        },
        "actionType": "spellsave",
        "damage": {
          "parts": [
            {
              "formula": "(max(1, floor(@classes.oracle.level / 2)))d6",
              "type": {
                "values": ["untyped"],
                "custom": ""
              }
            }
          ]
        },
        "save": {
          "type": "ref",
          "description": "Reflex half"
        }
      }
    ],
    "uses": {
      "per": "day",
      "maxFormula": "1 + floor(@classes.oracle.level / 5)"
    },
    "tag": "classFeat_erupt",
    "useCustomTag": true,
    "subType": "classFeat",
    "associations": {
      "classes": ["Oracle"]
    },
    "abilityType": "su"
  }
}
