{
  "_id": "POQO0AQ2bhEi8usP",
  "name": "Esoteric Scholar",
  "type": "feat",
  "img": "systems/pf1/icons/items/weapons/dagger.PNG",
  "system": {
    "description": {
      "value": "<p>Once a day, a rogue with this talent may attempt a Knowledge check, even when she is not trained in that Knowledge skill.</p>"
    },
    "tag": "classFeat_esotericScholar",
    "useCustomTag": true,
    "subType": "classFeat",
    "associations": {
      "classes": ["Rogue"]
    },
    "abilityType": "ex"
  }
}
