{
  "_id": "WQZgvzNOxCUtXDYz",
  "name": "Evasive",
  "type": "feat",
  "img": "systems/pf1/icons/feats/deceitful.jpg",
  "system": {
    "description": {
      "value": "<p>The vigilante is hard to catch with area attacks. He gains the evasion ability, and at 12th level, he gains the improved evasion ability.</p>\n<p>Only a stalker vigilante can select this talent.</p>"
    },
    "tag": "classFeat_evasive",
    "useCustomTag": true,
    "subType": "classFeat",
    "associations": {
      "classes": ["Vigilante"]
    },
    "abilityType": "ex"
  }
}
