{
  "_id": "U4o5YunSfhiWoZi8",
  "name": "Evil Eye",
  "type": "feat",
  "img": "systems/pf1/icons/skills/violet_02.jpg",
  "system": {
    "description": {
      "value": "<p>The witch can cause doubt to creep into the mind of a foe within 30 feet that she can see. The target takes a –2 penalty on one of the following (witch's choice): AC, ability checks, attack rolls, saving throws, or skill checks. This hex lasts for a number of rounds equal to 3 + the witch's Intelligence modifier. A Will save reduces this to just 1 round. This is a mind-affecting effect.</p>\n<p>At 8th level the penalty increases to –4.</p>"
    },
    "tags": ["Hex"],
    "actions": [
      {
        "_id": "4b8hasr2rdvulpvp",
        "name": "Use",
        "img": "systems/pf1/icons/skills/violet_02.jpg",
        "activation": {
          "type": "standard",
          "unchained": {
            "cost": 2,
            "type": "action"
          }
        },
        "duration": {
          "value": "3 + @classes.witch.level",
          "units": "round"
        },
        "target": {
          "value": "one creature"
        },
        "range": {
          "value": "30",
          "units": "ft"
        },
        "actionType": "save",
        "save": {
          "dc": "10 + floor(@classes.witch.level / 2) + @abilities.int.mod",
          "type": "will",
          "description": "Will reduces duration to 1 round"
        }
      }
    ],
    "tag": "classFeat_evilEye",
    "useCustomTag": true,
    "subType": "classFeat",
    "associations": {
      "classes": ["Witch"]
    },
    "abilityType": "su"
  }
}
