{
  "_id": "JOGQ5xqsUQvvAq9b",
  "name": "Experience Across Ages",
  "type": "feat",
  "img": "systems/pf1/icons/items/weapons/rhoka.PNG",
  "system": {
    "description": {
      "value": "<p><a href=\"https://aonprd.com/RacesDisplay.aspx?ItemName=Samsaran\">Samsaran</a> only.</p>\n<p>Once per day, a samsaran slayer can draw upon insights from his previous lifetimes to help identify a foe or recall a key piece of information. As a swift action, the slayer can attempt a Knowledge check as if he had a number of ranks in the appropriate Knowledge skill equal to his slayer level.</p>\n<p>A slayer can use this talent one additional time per day for every 5 slayer levels he has.</p>"
    },
    "actions": [
      {
        "_id": "be2pgsiatnanlqb3",
        "name": "Use",
        "img": "systems/pf1/icons/items/weapons/rhoka.PNG",
        "activation": {
          "type": "swift",
          "unchained": {
            "type": "action"
          }
        },
        "actionType": ""
      }
    ],
    "uses": {
      "per": "day",
      "maxFormula": "1 + floor(@classes.slayer.level / 5)"
    },
    "tag": "classFeat_experienceAcrossAges",
    "useCustomTag": true,
    "subType": "classFeat",
    "associations": {
      "classes": ["Slayer"]
    },
    "abilityType": "ex"
  }
}
