{
  "_id": "PgWEWgLXrOaagHGQ",
  "name": "Expert Leaper",
  "type": "feat",
  "img": "systems/pf1/icons/items/weapons/dagger.PNG",
  "system": {
    "description": {
      "value": "<p>When making jump checks, the rogue is always considered to have a running start. Also, when the rogue deliberately falls, a DC 15 Acrobatics check allows her to ignore the first 20 feet fallen, instead of the first 10 feet.</p>"
    },
    "tag": "classFeat_expertLeaper",
    "useCustomTag": true,
    "subType": "classFeat",
    "associations": {
      "classes": ["Rogue"]
    },
    "abilityType": "ex"
  }
}
