{
  "_id": "6aiPH3iI5bqykMOC",
  "name": "Exploration Subdomain",
  "type": "feat",
  "img": "systems/pf1/icons/items/inventory/map-xmark.jpg",
  "system": {
    "description": {
      "value": "<p><b>Replacement Domain Spells:</b> </p>\n<ul>\n<li>1st—@Compendium[pf1.spells.pysrx5kxfjvsjjsi]{Expeditious Retreat}</li>\n<li>4th—@Compendium[pf1.spells.vl2mznu91c3efcam]{Locate Creature}</li>\n<li>9th—@Compendium[pf1.spells.refg1teqkrdtxllg]{World Wave}</li>\n</ul>"
    },
    "tag": "classFeat_explorationSubdomain",
    "useCustomTag": true,
    "subType": "classFeat",
    "associations": {
      "classes": ["Cleric"]
    }
  }
}
