{
  "_id": "g4E8wmPZMaFRThq1",
  "name": "False Friend",
  "type": "feat",
  "img": "systems/pf1/icons/items/weapons/dagger.PNG",
  "system": {
    "description": {
      "value": "<p>A rogue with this talent gains a +4 bonus when making Bluff checks to convince someone she has never met or who doesn’t know her well that they are previously acquainted or know each other well.</p>"
    },
    "tag": "classFeat_falseFriend",
    "useCustomTag": true,
    "subType": "classFeat",
    "associations": {
      "classes": ["Rogue"]
    },
    "abilityType": "ex"
  }
}
