{
  "_id": "1hynAO1HTXaMgt46",
  "name": "Fetish",
  "type": "feat",
  "img": "systems/pf1/icons/skills/green_03.jpg",
  "system": {
    "description": {
      "value": "<p>The shaman receives @Compendium[pf1.feats.tD76K8QGco9scT0r]{Craft Wondrous Item} as a bonus feat and gains a +4 insight bonus on Spellcraft checks to identify magic items permanently.</p>"
    },
    "tag": "classFeat_fetish",
    "useCustomTag": true,
    "subType": "classFeat",
    "associations": {
      "classes": ["Shaman"]
    },
    "abilityType": "ex"
  }
}
