{
  "_id": "ZrQ2cDu4cKeiPRVe",
  "name": "Flame Jet",
  "type": "feat",
  "img": "systems/pf1/icons/spells/fireball-red-3.jpg",
  "system": {
    "description": {
      "value": "<p><b>Element</b> fire; <b>Type</b> utility (Sp); <b>Level</b> 3; <b>Burn</b> —</p>\n<p>You shoot a burst of flame behind you as a standard action, propelling you up to 60 feet in a straight line, including into the air; any movement upward costs double.</p>\n<p>If you end your turn mid-air, you fall on your next turn unless you use flame jet again.</p>"
    },
    "actions": [
      {
        "_id": "0kua5mig6fq8wyzh",
        "name": "Use",
        "img": "systems/pf1/icons/spells/fireball-red-3.jpg",
        "activation": {
          "type": "standard",
          "unchained": {
            "cost": 2,
            "type": "action"
          }
        },
        "duration": {
          "value": "1",
          "units": "round"
        },
        "target": {
          "value": "self"
        },
        "range": {
          "units": "personal"
        },
        "uses": {
          "autoDeductChargesCost": "0"
        },
        "actionType": ""
      }
    ],
    "tag": "classFeat_flameJet",
    "useCustomTag": true,
    "subType": "classFeat",
    "associations": {
      "classes": ["Kineticist"]
    },
    "abilityType": "sp"
  }
}
