{
  "_id": "ZXxBJhYruQfKa2Q2",
  "name": "Flesh of Stone",
  "type": "feat",
  "img": "systems/pf1/icons/spells/rock-sky-3.jpg",
  "system": {
    "description": {
      "value": "<p><b>Element</b> earth; <b>Type</b> defense (Su); <b>Level</b> —; <b>Burn</b> 0</p>\n<p>Your skin hardens like stone, dampening the impact of most attacks. You gain DR 1/adamantine. This DR increases by 1 for every 2 kineticist levels you possess beyond 2nd. By accepting 1 point of burn, you can increase the DR by 1 until the next time your burn is removed, to a maximum DR equal to your kineticist level.</p>\n<p>Whenever you accept burn while using an earth wild talent, the energy surging through you causes your damage reduction to change from DR/adamantine to DR/— for 1 round. You can dismiss and restore this effect as an immediate action.</p>"
    },
    "actions": [
      {
        "_id": "jvgodfdq5518cay8",
        "name": "Use",
        "img": "systems/pf1/icons/spells/rock-sky-3.jpg",
        "activation": {
          "type": "passive",
          "unchained": {
            "type": "passive"
          }
        },
        "actionType": ""
      }
    ],
    "tag": "classFeat_fleshOfStone",
    "useCustomTag": true,
    "subType": "classFeat",
    "associations": {
      "classes": ["Kineticist"]
    },
    "abilityType": "su"
  }
}
