{
  "_id": "MqAJ5C8wMxDd691M",
  "name": "Flight (2 pts)",
  "type": "feat",
  "img": "systems/pf1/icons/skills/blue_26.jpg",
  "system": {
    "description": {
      "value": "<p>An eidolon grows large wings, like those of a bat, bird, insect, or dragon, gaining the ability to fly. The eidolon gains a fly speed equal to its base speed. The eidolon's maneuverability depends on it size. Medium or smaller eidolons have good maneuverability. Large eidolons have average maneuverability, while Huge eidolons have poor maneuverability.</p>\n<p>For 2 additional evolution points, the eidolon flies by means of magic. It loses its wings, but its maneuverability increases to perfect. Flying via magic means makes this a supernatural ability.</p>\n<p>The eidolon's fly speed can be increased by spending additional evolution points, gaining a 20-foot increase to fly speed for each additional point spent.</p>\n<p>The summoner must be at least 5th level before selecting this evolution.</p>"
    },
    "tag": "classFeat_flight2Pts",
    "useCustomTag": true,
    "subType": "classFeat",
    "associations": {
      "classes": ["Eidolon"]
    },
    "abilityType": "ex"
  }
}
