{
  "_id": "bXznpN0piipekXTH",
  "name": "Focus Weapon",
  "type": "feat",
  "img": "systems/pf1/icons/skills/light_09.jpg",
  "system": {
    "description": {
      "value": "<p>At 1st level, a warpriest receives @Compendium[pf1.feats.n250dFlbykAIAg5Z]{Weapon Focus} as a bonus feat (he can choose any weapon, not just his deity’s favored weapon).</p>"
    },
    "changes": [
      {
        "_id": "tx5wg18k",
        "formula": "1",
        "subTarget": "bonusFeats",
        "modifier": "untyped"
      }
    ],
    "tag": "classFeat_focusWeapon",
    "useCustomTag": true,
    "subType": "classFeat",
    "associations": {
      "classes": ["Warpriest"]
    }
  }
}
