{
  "_id": "UX6RVCrSNAgopGzP",
  "name": "Follow Clues",
  "type": "feat",
  "img": "systems/pf1/icons/items/weapons/dagger.PNG",
  "system": {
    "description": {
      "value": "<p>A rogue with this talent can use Perception to follow tracks as per the Survival skill.</p>"
    },
    "tag": "classFeat_followClues",
    "useCustomTag": true,
    "subType": "classFeat",
    "associations": {
      "classes": ["Rogue"]
    },
    "abilityType": "ex"
  }
}
