{
  "_id": "xM7s8ki7zIKOHjaF",
  "name": "Frost Ray",
  "type": "feat",
  "img": "systems/pf1/icons/spells/beam-blue-2.jpg",
  "system": {
    "description": {
      "value": "<p>Starting at 1st level, you can unleash an elemental ray as a <em>standard action</em>, targeting any foe within 30 feet as a ranged <em>touch attack</em>. This ray deals 1d6 points of cold damage + 1 for every two sorcerer levels you possess. You can use this ability a number of times per day equal to 3 + your <em>Charisma</em> modifier.</p>"
    },
    "actions": [
      {
        "_id": "ndt1k6zln7g73jbo",
        "name": "Use",
        "img": "systems/pf1/icons/spells/beam-blue-2.jpg",
        "activation": {
          "type": "standard",
          "unchained": {
            "cost": 2,
            "type": "action"
          }
        },
        "duration": {
          "units": "inst"
        },
        "target": {
          "value": "one creature"
        },
        "range": {
          "value": "30",
          "units": "spec"
        },
        "actionType": "rsak",
        "damage": {
          "parts": [
            {
              "formula": "1d6 + floor(@classes.sorcerer.level / 2)",
              "type": {
                "values": ["cold"],
                "custom": ""
              }
            }
          ]
        },
        "ability": {
          "attack": "dex"
        }
      }
    ],
    "uses": {
      "per": "day",
      "maxFormula": "3 + @abilities.cha.mod"
    },
    "tag": "classFeat_frostRay",
    "useCustomTag": true,
    "subType": "classFeat",
    "associations": {
      "classes": ["Sorcerer"]
    },
    "abilityType": "sp"
  }
}
