{
  "_id": "TIfkAAUNTp6S4fYP",
  "name": "Guardian's Shield",
  "type": "feat",
  "img": "systems/pf1/icons/skills/blue_18.jpg",
  "system": {
    "description": {
      "value": "<p>You gain proficiency in heavy armors and shields (including tower shields).</p>"
    },
    "tag": "classFeat_guardiansShield",
    "useCustomTag": true,
    "subType": "classFeat",
    "associations": {
      "classes": ["Medium"]
    },
    "abilityType": "su"
  }
}
