{
  "_id": "mg5HH9O732OopnHW",
  "name": "Healing Blessing: Powerful Healer",
  "type": "feat",
  "img": "systems/pf1/icons/spells/heal-jade-2.jpg",
  "system": {
    "description": {
      "value": "<p>At 1st level, you can add power to a cure spell as you cast it. As a swift action, you can treat any cure spell as if it were empowered (as the @Compendium[pf1.feats.77gXSucrxfrE9yWk]{Empower Spell} feat), causing it to heal 50% more damage (or deal 50% more damage if used against undead).</p>\n<p>This ability doesn’t stack with itself or the Empower Spell feat.</p>"
    },
    "actions": [
      {
        "_id": "2bo96rh1ayowkvjl",
        "name": "Use",
        "img": "systems/pf1/icons/spells/heal-jade-2.jpg",
        "activation": {
          "type": "free",
          "unchained": {
            "type": "free"
          }
        },
        "actionType": ""
      }
    ],
    "tag": "classFeat_healingBlessingPowerfulHealer",
    "useCustomTag": true,
    "subType": "classFeat",
    "associations": {
      "classes": ["Warpriest"]
    }
  }
}
