{
  "_id": "z9U70wfXGqjAigqv",
  "name": "Heavy Training",
  "type": "feat",
  "img": "systems/pf1/icons/feats/deceitful.jpg",
  "system": {
    "description": {
      "value": "<p>The vigilante gains @Compendium[pf1.feats.3MqcLuZfUJB8xMby]{Armor Proficiency, Heavy} as a bonus feat, if he does not have that feat already. The armor skin vigilante talent also applies to heavy armor.</p>\n<p>At 16th level, if the vigilante has the armor skin vigilante talent, he can move at full speed in heavy armor.</p>\n<p>Only an avenger vigilante can select this talent.</p>"
    },
    "tag": "classFeat_heavyTraining",
    "useCustomTag": true,
    "subType": "classFeat",
    "associations": {
      "classes": ["Vigilante"]
    },
    "abilityType": "ex"
  }
}
