{
  "_id": "FkxPunrLLOgjtK1j",
  "name": "Hellbound Curse",
  "type": "feat",
  "img": "systems/pf1/icons/spells/horror-eerie-1.jpg",
  "system": {
    "description": {
      "value": "<p>Infernal influence grants you profane insight and weighs on your soul. You cannot cast spells with the good or chaotic descriptors, and you can’t summon good or chaotic creatures. Good and chaotic creatures instinctively distrust you, and you take a –4 penalty on all Diplomacy checks against such creatures. You gain a +2 bonus on all Bluff and Intimidate checks.</p>\n<p>At 5th level, you gain a +4 bonus to all saving throws against charm effects.</p>\n<p>At 10th level, you gain immunity to fire.</p>\n<p>At 15th level, any weapon you wield is treated as lawful and evil for the purposes of overcoming damage reduction.</p>"
    },
    "changes": [
      {
        "_id": "zskn032g",
        "formula": "2",
        "subTarget": "skill.blf",
        "modifier": "untyped"
      },
      {
        "_id": "qj4lzkpt",
        "formula": "2",
        "subTarget": "skill.int",
        "modifier": "untyped"
      }
    ],
    "tag": "classFeat_hellboundCurse",
    "useCustomTag": true,
    "subType": "classFeat",
    "associations": {
      "classes": ["Oracle"]
    }
  }
}
