{
  "_id": "aWQQYbg8F7mTdcnU",
  "name": "Heroic Legends",
  "type": "feat",
  "img": "systems/pf1/icons/feats/spell-penetration.jpg",
  "system": {
    "description": {
      "value": "<p>At 15th level, you may inspire greatness or inspire heroics as a <em>bard</em> of your <em>sorcerer</em> level by sacrificing a spell slot as a swift or <em>move action</em>. The effect lasts a number of rounds equal to the sacrificed spell’s level; this duration is doubled for human recipients.</p>"
    },
    "actions": [
      {
        "_id": "k20tew2g2pimjkeg",
        "name": "Use",
        "img": "systems/pf1/icons/feats/spell-penetration.jpg",
        "activation": {
          "type": "free",
          "unchained": {
            "type": "free"
          }
        },
        "actionType": ""
      }
    ],
    "tag": "classFeat_heroicLegends",
    "useCustomTag": true,
    "subType": "classFeat",
    "abilityType": "su"
  }
}
