{
  "_id": "A3ZtNeUxGs4jHdCy",
  "name": "Holy Water Jet",
  "type": "feat",
  "img": "systems/pf1/icons/spells/runes-blue-2.jpg",
  "system": {
    "description": {
      "value": "<p>The arcanist can unleash a jet of holy water by expending 1 point from her arcane reservoir. This creates a 30-foot line of water that deals damage equal to 1d8 points of damage plus the arcanist’s Charisma modifier, plus an additional 1d8 points of damage for every 2 levels beyond 1st (to a maximum of 10d8 at 19th level) to each target in the line that would normally take damage from holy water. Creatures in the area of effect can attempt a Reflex saving throw to halve the damage.</p>"
    },
    "tags": ["Arcanist Exploit"],
    "actions": [
      {
        "_id": "zn845xlfcuu8kvnk",
        "name": "Use",
        "img": "systems/pf1/icons/spells/runes-blue-2.jpg",
        "activation": {
          "type": "standard",
          "unchained": {
            "cost": 2,
            "type": "action"
          }
        },
        "duration": {
          "units": "inst"
        },
        "target": {
          "value": "30-ft. line"
        },
        "range": {
          "value": "30",
          "units": "ft"
        },
        "actionType": "spellsave",
        "damage": {
          "parts": [
            {
              "formula": "(ceil(@classes.arcanist.level / 2))d8 + @abilities.cha.mod",
              "type": {
                "values": ["untyped"],
                "custom": ""
              }
            }
          ]
        },
        "save": {
          "type": "ref",
          "description": "Reflex half"
        }
      }
    ],
    "tag": "classFeat_holyWaterJet",
    "useCustomTag": true,
    "subType": "classFeat",
    "associations": {
      "classes": ["Arcanist"]
    },
    "abilityType": "su"
  }
}
