{
  "_id": "sZDFFEi2ejgMcc3o",
  "name": "Hurling, Greater",
  "type": "feat",
  "img": "systems/pf1/icons/feats/deafening-critical.jpg",
  "system": {
    "description": {
      "value": "<p>As hurling, but the barbarian can increase the range increment to 30 feet or increase the size of a hurled object by two size categories.</p>\n<p>A barbarian must have the hurling rage power to select this rage power.</p>\n<p>A barbarian must be at least 12th level to select this rage power.</p>"
    },
    "tag": "classFeat_hurlingGreater",
    "useCustomTag": true,
    "subType": "classFeat",
    "associations": {
      "classes": ["Barbarian", "Skald"]
    },
    "abilityType": "ex"
  }
}
