{
  "_id": "ewjMYgahwB8hGIlN",
  "name": "Ice Sculptor",
  "type": "feat",
  "img": "systems/pf1/icons/spells/ice-blue-2.jpg",
  "system": {
    "description": {
      "value": "<p><b>Element</b> water; <b>Type</b> utility (Sp); <b>Level</b> 4; <b>Burn</b> 0</p>\n<p>You can sculpt ice and snow into new shapes, as the spell @Compendium[pf1.spells.g1evszmk8wfgnsv5]{Stone Shape} but affecting ice and snow instead of stone.</p>"
    },
    "tag": "classFeat_iceSculptor",
    "useCustomTag": true,
    "subType": "classFeat",
    "associations": {
      "classes": ["Kineticist"]
    },
    "abilityType": "sp"
  }
}
