{
  "_id": "Jov5ThIEm80DPn7n",
  "name": "Ice Tomb",
  "type": "feat",
  "img": "systems/pf1/icons/skills/violet_02.jpg",
  "system": {
    "description": {
      "value": "<p>A storm of ice and freezing wind envelops the target, which takes 3d8 points of cold damage (Fortitude half). If the target fails its save, it is paralyzed and unconscious but does not need to eat or breathe while the ice lasts. The ice has 20 hit points; destroying the ice frees the creature, which is staggered for 1d4 rounds after being released.</p>\n<p>Whether or not the target's saving throw is successful, it cannot be the target of this hex again for 1 day.</p>"
    },
    "tags": ["Hex", "Major Hex"],
    "actions": [
      {
        "_id": "bgwjyr6aw2u8o6k3",
        "name": "Use",
        "img": "systems/pf1/icons/skills/violet_02.jpg",
        "activation": {
          "type": "standard",
          "unchained": {
            "cost": 2,
            "type": "action"
          }
        },
        "duration": {
          "units": "seeText"
        },
        "target": {
          "value": "one creature"
        },
        "range": {
          "value": "30",
          "units": "ft"
        },
        "actionType": "save",
        "damage": {
          "parts": [
            {
              "formula": "3d8",
              "type": {
                "values": ["cold"],
                "custom": ""
              }
            }
          ]
        },
        "save": {
          "dc": "10 + floor(@classes.witch.level / 2) + @abilities.int.mod",
          "type": "fort",
          "description": "Fortitude half"
        }
      }
    ],
    "tag": "classFeat_iceTomb",
    "useCustomTag": true,
    "subType": "classFeat",
    "associations": {
      "classes": ["Witch"]
    },
    "abilityType": "su"
  }
}
