{
  "_id": "yIVUP0keOg2PctKq",
  "name": "Imp Familiar",
  "type": "feat",
  "img": "systems/pf1/icons/skills/blue_02.jpg",
  "system": {
    "description": {
      "value": "<p>At 7th level, you gain @Compendium[pf1.feats.oRJlgRLS32fmoQpy]{Improved Familiar} as a bonus feat, and must take an imp as a familiar. The imp replaces your current familiar.</p>"
    },
    "tag": "classFeat_impFamiliar",
    "useCustomTag": true,
    "subType": "classFeat",
    "associations": {
      "classes": ["Wizard"]
    },
    "abilityType": "ex"
  }
}
