{
  "_id": "sSnIJg3cDs2aYnBv",
  "name": "Imprisonment Inquisition",
  "type": "feat",
  "img": "systems/pf1/icons/items/inventory/badge-cross.jpg",
  "system": {
    "description": {
      "value": "<p><b>Granted Powers:</b> Sometimes it is better to capture foes than to kill them—whether your intention is to punish them for their crimes or to torture them for information.</p>"
    },
    "tag": "classFeat_imprisonmentInquisition",
    "useCustomTag": true,
    "subType": "classFeat",
    "associations": {
      "classes": ["Inquisitor"]
    }
  }
}
