{
  "_id": "fA4ZBffzweWEx4iR",
  "name": "Improved Divine Inks",
  "type": "feat",
  "img": "systems/pf1/icons/items/potions/unique-3.jpg",
  "system": {
    "description": {
      "value": "<p>The alchemist’s unique dyes allow him to create images accompanied by sound. If he expends an additional daily use of his bombs, the image he creates with the divine inks discovery also produces minor sounds, as @Compendium[pf1.spells.27o3msobhyghmfid]{Minor Image}.</p>\n<p>The alchemist must be at least 4th level and must have the divine inks discovery before selecting this discovery.</p>"
    },
    "tag": "classFeat_improvedDivineInks",
    "useCustomTag": true,
    "subType": "classFeat",
    "associations": {
      "classes": ["Alchemist"]
    }
  }
}
