{
  "_id": "yGH4ZTOTUY0XwW9V",
  "name": "Inspiring Call",
  "type": "feat",
  "img": "systems/pf1/icons/skills/blue_10.jpg",
  "system": {
    "description": {
      "value": "<p>As a standard action, you can grant all allies who can see and hear you a competence bonus equal to your spirit bonus on either saving throws or attack and damage rolls. You choose which bonus to grant each time you use inspiring call. This ability lasts for 1 round. If you have the decisive strike greater spirit power, you can use inspiring call as a move action. If you have the legendary marshal supreme spirit power, you can use inspiring call as a swift action.</p>"
    },
    "actions": [
      {
        "_id": "yhwirzrtfzp4bw47",
        "name": "Use",
        "img": "systems/pf1/icons/skills/blue_10.jpg",
        "activation": {
          "type": "standard",
          "unchained": {
            "cost": 2,
            "type": "action"
          }
        },
        "duration": {
          "value": "1",
          "units": "round"
        },
        "target": {
          "value": "allies that can see and hear you"
        },
        "actionType": ""
      }
    ],
    "tag": "classFeat_inspiringCall",
    "useCustomTag": true,
    "subType": "classFeat",
    "associations": {
      "classes": ["Medium"]
    },
    "abilityType": "su"
  }
}
