{
  "_id": "YuNZejPAdoi9BS14",
  "name": "Inspire Ferocity",
  "type": "feat",
  "img": "systems/pf1/icons/feats/deafening-critical.jpg",
  "system": {
    "description": {
      "value": "<p>While raging, the barbarian can use a move action to impart her reckless abandon modifier to all willing allies within 30 feet for a number of rounds equal to her Charisma modifier (minimum 1).</p>\n<p>A barbarian must have the reckless abandon rage power to select this rage power.</p>"
    },
    "tag": "classFeat_inspireFerocity",
    "useCustomTag": true,
    "subType": "classFeat",
    "associations": {
      "classes": ["Barbarian", "Skald"]
    },
    "abilityType": "ex"
  }
}
