{
  "_id": "NmnuDZK6b5OJzSaH",
  "name": "Internal Fortitude (UC)",
  "type": "feat",
  "img": "systems/pf1/icons/feats/deafening-critical.jpg",
  "system": {
    "description": {
      "value": "<p>The barbarian is immune to the sickened and nauseated conditions.</p>\n<p>A barbarian must be at least 8th level to select this rage power.</p>"
    },
    "tag": "classFeat_internalFortitudeUc",
    "useCustomTag": true,
    "subType": "classFeat",
    "associations": {
      "classes": ["Barbarian (Unchained)"]
    },
    "abilityType": "ex"
  }
}
