{
  "_id": "RbFjBdAdmMH1L6Qw",
  "name": "Kin to the Old Tales",
  "type": "feat",
  "img": "systems/pf1/icons/skills/shadow_11.jpg",
  "system": {
    "description": {
      "value": "<p>At 20th level, your soul becomes host to the otherworldly energies of the harrow. You gain <em>DR</em> 10/<em>cold iron</em> and <em>immunity</em> to curses, <em>paralysis</em>, and <em>sleep</em>. You can always act in the <em>surprise</em> round of combat, and you cannot be caught <em>flat-footed</em>. You gain unlimited use of your invoke the harrow ability.</p>"
    },
    "actions": [
      {
        "_id": "sp6n38irv580wy6a",
        "name": "Use",
        "img": "systems/pf1/icons/skills/shadow_11.jpg",
        "activation": {
          "type": "passive",
          "unchained": {
            "type": "passive"
          }
        },
        "actionType": ""
      }
    ],
    "tag": "classFeat_kinToTheOldTales",
    "useCustomTag": true,
    "subType": "classFeat",
    "associations": {
      "classes": ["Sorcerer"]
    },
    "abilityType": "su"
  }
}
