{
  "_id": "YZcpvE8oouMmWvZR",
  "name": "Knockdown",
  "type": "feat",
  "img": "systems/pf1/icons/feats/deafening-critical.jpg",
  "system": {
    "description": {
      "value": "<p>Once per rage, the barbarian can make a trip attack against one target in place of a melee attack. If successful, the target takes damage equal to the barbarian’s Strength modifier and is knocked prone. This does not provoke an attack of opportunity.</p>"
    },
    "tag": "classFeat_knockdown",
    "useCustomTag": true,
    "subType": "classFeat",
    "associations": {
      "classes": ["Barbarian", "Skald"]
    },
    "abilityType": "ex"
  }
}
