{
  "_id": "Gt3CDvXDV7jFxfLp",
  "name": "Legendary Guardian",
  "type": "feat",
  "img": "systems/pf1/icons/skills/blue_18.jpg",
  "system": {
    "description": {
      "value": "<p>Once per day as an immediate action, you can ignore the effects of a single attack against you, including enemy spells targeting you or whose area or effect includes you. The attack affects other creatures as normal.</p>"
    },
    "actions": [
      {
        "_id": "24482f74x72u80dj",
        "name": "Use",
        "img": "systems/pf1/icons/skills/blue_18.jpg",
        "activation": {
          "type": "immediate",
          "unchained": {
            "type": "reaction"
          }
        },
        "duration": {
          "units": "inst"
        },
        "target": {
          "value": "self"
        },
        "range": {
          "units": "personal"
        },
        "uses": {
          "autoDeductChargesCost": "0"
        },
        "actionType": ""
      }
    ],
    "tag": "classFeat_legendaryGuardian",
    "useCustomTag": true,
    "subType": "classFeat",
    "associations": {
      "classes": ["Medium"]
    },
    "abilityType": "su"
  }
}
