{
  "_id": "uTXCwS31OH7qzJ9c",
  "name": "Lethality (Stare)",
  "type": "feat",
  "img": "systems/pf1/icons/skills/emerald_11.jpg",
  "system": {
    "description": {
      "value": "<p>The hypnotic stare penalty also applies to the target’s Fortitude saves versus poison and diseases.</p>"
    },
    "tag": "classFeat_lethalityStare",
    "useCustomTag": true,
    "subType": "classFeat",
    "associations": {
      "classes": ["Mesmerist"]
    }
  }
}
