{
  "_id": "Ho30lqNDAwpOvH9T",
  "name": "Liberation Blessing: Liberation",
  "type": "feat",
  "img": "systems/pf1/icons/spells/wind-grasp-sky-1.jpg",
  "system": {
    "description": {
      "value": "<p>At 1st level, for 1 round as a swift action, you can ignore impediments to your mobility and effects that cause paralysis (as @Compendium[pf1.spells.lvzq2mwkqmozolpl]{Freedom of Movement}). You can activate this blessing even if you’re otherwise unable to take actions, but not if you’re unconscious.</p>"
    },
    "actions": [
      {
        "_id": "d139nv11u2hkpcjg",
        "name": "Use",
        "img": "systems/pf1/icons/spells/wind-grasp-sky-1.jpg",
        "activation": {
          "type": "swift",
          "unchained": {
            "type": "action"
          }
        },
        "duration": {
          "value": "1",
          "units": "round"
        },
        "target": {
          "value": "self"
        },
        "range": {
          "units": "personal"
        },
        "actionType": ""
      }
    ],
    "tag": "classFeat_liberationBlessingLiberation",
    "useCustomTag": true,
    "subType": "classFeat",
    "associations": {
      "classes": ["Warpriest"]
    }
  }
}
