{
  "_id": "EMDod9AqAJinO17e",
  "name": "Lingering Venom",
  "type": "feat",
  "img": "systems/pf1/icons/items/weapons/sword-cane.png",
  "system": {
    "description": {
      "value": "<p>Poisons that the investigator personally applies to weapons and traps, or otherwise inflicts upon foes, require one additional successful save to cure.</p>\n<p>An investigator must be at least 5th level to select this talent.</p>"
    },
    "tag": "classFeat_lingeringVenom",
    "useCustomTag": true,
    "subType": "classFeat",
    "associations": {
      "classes": ["Investigator"]
    },
    "abilityType": "ex"
  }
}
