{
  "_id": "i7Od2w9px0gmbkjU",
  "name": "Lion's Call",
  "type": "feat",
  "img": "systems/pf1/icons/items/inventory/banner-red.jpg",
  "system": {
    "description": {
      "value": "<p>At 2nd level, an order of the lion cavalier gains the ability to rally his allies. As a standard action, he can give an encouraging speech which grants all allies within 60 feet a competence bonus on their saving throws against fear equal to his Charisma modifier and a +1 competence bonus on attack rolls for a number of rounds equal to his cavalier level. If an ally within range is under the effect of a spell or ability that causes him to be frightened or panicked, he can immediately make another saving throw to resist the effect (if allowed).</p>"
    },
    "actions": [
      {
        "_id": "7lqpull3fywhmce5",
        "name": "Use",
        "img": "systems/pf1/icons/items/inventory/banner-red.jpg",
        "activation": {
          "type": "standard",
          "unchained": {
            "cost": 2,
            "type": "action"
          }
        },
        "duration": {
          "value": "@classes.cavalier.level",
          "units": "round"
        },
        "target": {
          "value": "allies within range"
        },
        "range": {
          "value": "60",
          "units": "ft"
        },
        "actionType": ""
      }
    ],
    "tag": "classFeat_lionsCall",
    "useCustomTag": true,
    "subType": "classFeat",
    "associations": {
      "classes": ["Cavalier"]
    },
    "abilityType": "ex"
  }
}
