{
  "_id": "M18QnM8Xd0mUvSuR",
  "name": "Lust Subdomain",
  "type": "feat",
  "img": "systems/pf1/icons/skills/shadow_20.jpg",
  "system": {
    "description": {
      "value": "<p><b>Replacement Domain Spells:</b></p>\n<ul>\n<li>2nd—@Compendium[pf1.spells.648x72rflah0ggyz]{Touch of Idiocy}</li>\n<li>4th—@Compendium[pf1.spells.n0bsyxchnigkkuqo]{Confusion}</li>\n</ul>"
    },
    "tag": "classFeat_lustSubdomain",
    "useCustomTag": true,
    "subType": "classFeat",
    "associations": {
      "classes": ["Cleric"]
    }
  }
}
