{
  "_id": "laADhid8uT3tpolP",
  "name": "Magic Domain",
  "type": "feat",
  "img": "systems/pf1/icons/misc/magic-swirl.png",
  "system": {
    "description": {
      "value": "<p><b>Granted Powers:</b> You are a true student of all things mystical, and see divinity in the purity of magic.</p>\n<p><b>Domain Spells:</b></p>\n<ul>\n<li>1st—@Compendium[pf1.spells.llxrra87kbofmyhl]{Identify}</li>\n<li>2nd—@Compendium[pf1.spells.7vamkma4y88ek4q6]{Magic Mouth}</li>\n<li>3rd—@Compendium[pf1.spells.gmgwyjfpeuuc4t4o]{Dispel Magic}</li>\n<li>4th—@Compendium[pf1.spells.0axqb92kzlesc24q]{Imbue with Spell Ability}</li>\n<li>5th—@Compendium[pf1.spells.4k9bh8ny1il2oner]{Spell Resistance}</li>\n<li>6th—@Compendium[pf1.spells.niqxt53lhxrjfaty]{Antimagic Field}</li>\n<li>7th—@Compendium[pf1.spells.uyn64zazmaydnk7o]{Spell Turning}</li>\n<li>8th—@Compendium[pf1.spells.0kppkhsencd6tzvh]{Protection from Spells}</li>\n<li>9th—@Compendium[pf1.spells.19p4nr8rsvt42lmn]{Mage's Disjunction}</li>\n</ul>"
    },
    "tag": "classFeat_magicDomain",
    "useCustomTag": true,
    "subType": "classFeat",
    "associations": {
      "classes": ["Cleric"]
    }
  }
}
