{
  "_id": "er6bP6ckBKwYS0lH",
  "name": "Major Healing",
  "type": "feat",
  "img": "systems/pf1/icons/skills/violet_02.jpg",
  "system": {
    "description": {
      "value": "<p>By calling upon eerie powers, the witch's touch can mend even the most terrible wounds of those she touches. This acts as @UUID[Compendium.pf1.spells.norn02g8zdsspf2j]{cure serious wounds}, using the witch's caster level.</p><p>Once a creature has benefited from the major healing hex, it cannot benefit from it again for 24 hours.</p><p>At 15th level, this hex acts like @UUID[Compendium.pf1.spells.sa076xymi52eq3to]{cure critical wounds}.</p>"
    },
    "tags": ["Hex", "Major Hex"],
    "actions": [
      {
        "_id": "ffnmvtvxmqffclsv",
        "name": "Use",
        "img": "systems/pf1/icons/skills/violet_02.jpg",
        "activation": {
          "type": "standard",
          "unchained": {
            "cost": 2,
            "type": "action"
          }
        },
        "duration": {
          "units": "inst"
        },
        "target": {
          "value": "creature touched"
        },
        "range": {
          "units": "touch"
        },
        "actionType": "heal",
        "damage": {
          "parts": [
            {
              "formula": "(@classes.witch.level >= 15 ? 4 : 3)d8 + min(20, @classes.witch.level)",
              "type": {
                "values": ["positive"],
                "custom": ""
              }
            }
          ]
        },
        "touch": true
      }
    ],
    "tag": "classFeat_majorHealing",
    "useCustomTag": true,
    "subType": "classFeat",
    "associations": {
      "classes": ["Witch"]
    },
    "abilityType": "su"
  }
}
