{
  "_id": "lksldHcRGbUTKnjX",
  "name": "Mantis Aspect",
  "type": "feat",
  "img": "systems/pf1/icons/skills/blue_29.jpg",
  "system": {
    "description": {
      "value": "<p><em>The aspect of the mantis imparts uncanny patience and unsettling speed.</em><p><b>Minor Form:</b> You gain <a href=\"https://www.aonprd.com/SpellDisplay.aspx?ItemName=Lunge\">Lunge</a> as a bonus feat.</p>\n<p>At 12th level, your reach increases by 5 feet.<p><b>Major Form:</b> Your shape changes to that of a <a href=\"https://www.aonprd.com/MonsterDisplay.aspx?ItemName=Giant%20Mantis\">giant mantis</a>. While in this form, you gain darkvision with a range of 60 feet, a +2 racial bonus on initiative checks, and two primary claw attacks (1d6) with the <a href=\"https://www.aonprd.com/UMR.aspx?ItemName=Grab\">grab</a> ability.</p>\n<p>At 8th level, you can always act in the surprise round, but if you fail to notice your foes, you act last, regardless of your initiative result (you act in the normal order in subsequent rounds).</p>\n<p>At 15th level, whenever you roll for initiative, you can roll three times and use any one of the results.<p><b>Alternate Natural Attacks:</b> Bite (B, P, S)</p>"
    },
    "tag": "classFeat_mantisAspect",
    "useCustomTag": true,
    "subType": "classFeat",
    "associations": {
      "classes": ["Shifter"]
    }
  }
}
