{
  "_id": "mSZ4PrieWFBh3Xpo",
  "name": "Martyred Bloodline",
  "type": "feat",
  "img": "systems/pf1/icons/skills/affliction_07.jpg",
  "system": {
    "description": {
      "value": "<p><em>One of your ancestors paid the ultimate price for her beliefs. This distant relative martyred herself out of her devout belief in a cause, and that sacrifice echoed down to her descendants, infusing them with arcane power. Your bloodline confers abilities that allow you to endure pain, resist torture, and inspire others.</em></p>\n<p><b>Class Skill:</b> <em>Perform</em> (oratory).</p>\n<p><b>Bonus Spells:</b></p>\n<ul>\n<li>@Compendium[pf1.spells.pau0ejk30fs1eebl]{Endure Elements} (3rd),</li>\n<li>@Compendium[pf1.spells.c81jnlmi4976g7sz]{Surmount Affliction} (5th),</li>\n<li>@Compendium[pf1.spells.vqfrp8t0c1lw1jna]{Heroism} (7th),</li>\n<li>@Compendium[pf1.spells.scyklgov72pvw884]{Blessing Of Fervor} (9th),</li>\n<li>@Compendium[pf1.spells.z0duc2v2n3ioynta]{Heroism, Greater} (13th),</li>\n<li>@Compendium[pf1.spells.2ip53auf03bqxkl1]{Joyful Rapture} (15th),</li>\n<li>@Compendium[pf1.spells.blvetbc929cfx4m8]{Mind Blank} (17th),</li>\n<li>@Compendium[pf1.spells.xuuzj9lr2xbwaim4]{Overwhelming Presence} (19th).</li>\n</ul>\n<p><b>Bonus Feats:</b></p>\n<ul>\n<li>@Compendium[pf1.feats.O0e0UCim27GPKFuW]{Diehard},</li>\n<li>@Compendium[pf1.feats.ehqx8txNRGMaNOPt]{Endurance},</li>\n<li> <em>Heroic Defiance</em>,</li>\n<li> <em>Heroic Recovery</em>,</li>\n<li>@Compendium[pf1.feats.R3a1OV18RwDJftvq]{Leadership},</li>\n<li>@Compendium[pf1.feats.L10V7jTzmMYz62zz]{Persuasive},</li>\n<li>@Compendium[pf1.feats.7zJTztNW7hdaqjKc]{Skill Focus} (<em>Perform</em>),</li>\n<li>@Compendium[pf1.feats.8snLqsJN4LLL00Nq]{Toughness}.</li>\n</ul>\n<p><b>Bloodline Arcana:</b> Whenever you take damage in battle, your effective <em>caster level</em> increases by 1 during your next turn. This effect does not apply more than once per round.</p>"
    },
    "tag": "classFeat_martyredBloodline",
    "useCustomTag": true,
    "subType": "classFeat",
    "associations": {
      "classes": ["Sorcerer"]
    }
  }
}
