{
  "_id": "kFCiYXU4EgqwHDER",
  "name": "Master of Disguise",
  "type": "feat",
  "img": "systems/pf1/icons/items/weapons/butterfly-knife.PNG",
  "system": {
    "description": {
      "value": "<p>Once per day, a rogue with this talent gains a +10 bonus on a single Disguise check.</p>"
    },
    "actions": [
      {
        "_id": "sj32fp8qzfiowkv5",
        "name": "Use",
        "img": "systems/pf1/icons/items/weapons/butterfly-knife.PNG",
        "activation": {
          "type": "free",
          "unchained": {
            "type": "free"
          }
        },
        "actionType": ""
      }
    ],
    "uses": {
      "per": "day",
      "maxFormula": "1"
    },
    "tag": "classFeat_masterOfDisguise",
    "useCustomTag": true,
    "subType": "classFeat",
    "associations": {
      "classes": ["Rogue"]
    },
    "abilityType": "ex"
  }
}
