{
  "_id": "3wZ8WwBQPft1nO76",
  "name": "Minor Prophecy",
  "type": "feat",
  "img": "systems/pf1/icons/skills/violet_02.jpg",
  "system": {
    "description": {
      "value": "<p>The witch can call on her prophetic ancestors to cast @Compendium[pf1.spells.d1wxnax51cecplm4]{Augury} once per day. She can spend a full hour casting the spell to negate the need for material components, but this reduces the accuracy of the spell by 5%.</p>"
    },
    "tags": ["Hex"],
    "actions": [
      {
        "_id": "jhpwfe026eqs0rit",
        "name": "Use",
        "img": "systems/pf1/icons/skills/violet_02.jpg",
        "activation": {
          "type": "minute",
          "unchained": {
            "type": "minute"
          }
        },
        "duration": {
          "units": "inst"
        },
        "target": {
          "value": "self"
        },
        "range": {
          "units": "personal"
        },
        "actionType": ""
      },
      {
        "_id": "6lZe1jtUA8v4BrUh",
        "name": "Forgo Material",
        "img": "systems/pf1/icons/skills/violet_02.jpg",
        "description": "<p>Augury accuracy reduced by 5%.</p>",
        "activation": {
          "unchained": {
            "type": "hour"
          }
        },
        "duration": {
          "units": "inst"
        },
        "target": {
          "value": "self"
        },
        "range": {
          "units": "personal"
        },
        "actionType": ""
      }
    ],
    "uses": {
      "per": "day",
      "maxFormula": "1"
    },
    "tag": "classFeat_minorProphecy",
    "useCustomTag": true,
    "subType": "classFeat",
    "associations": {
      "classes": ["Witch"]
    },
    "abilityType": "su"
  }
}
