{
  "_id": "CCSBySTjdUsohhTs",
  "name": "Misfortune (SHA)",
  "type": "feat",
  "img": "systems/pf1/icons/skills/green_03.jpg",
  "system": {
    "description": {
      "value": "<p>The shaman causes a creature within 30 feet to suffer grave misfortune for 1 round. Anytime the creature makes an ability check, attack roll, saving throw, or skill check, it must roll twice and take the worse result. A successful Will saving throw negates this hex.</p>\n<p>At 8th level and 16th level, the duration of this hex is extended by 1 round. This hex affects all rolls the target must make while it lasts.</p>\n<p>Whether or not the save is successful, the creature cannot be the target of this hex again for 24 hours.</p>"
    },
    "actions": [
      {
        "_id": "ztzrxny6ng876dbn",
        "name": "Use",
        "img": "systems/pf1/icons/skills/green_03.jpg",
        "activation": {
          "type": "standard",
          "unchained": {
            "cost": 2,
            "type": "action"
          }
        },
        "duration": {
          "value": "@classes.shaman.level >= 16 ? 3 : ((@classes.shaman.level >= 8 && @classes.shaman.level < 16) ? 2 : 1)",
          "units": "round"
        },
        "target": {
          "value": "one creature"
        },
        "range": {
          "value": "30",
          "units": "ft"
        },
        "actionType": "save",
        "save": {
          "type": "will",
          "description": "Will negates"
        }
      }
    ],
    "tag": "classFeat_misfortuneSha",
    "useCustomTag": true,
    "subType": "classFeat",
    "associations": {
      "classes": ["Shaman"]
    },
    "abilityType": "su"
  }
}
