{
  "_id": "RazL50LYUvquJrdw",
  "name": "Monster Expert",
  "type": "feat",
  "img": "systems/pf1/icons/items/inventory/banner-red.jpg",
  "system": {
    "description": {
      "value": "<p>At 2nd level, the cavalier learns how to dodge the attacks of his monstrous foes and the traps in their lairs. He gains a bonus equal to his Charisma bonus on Fortitude and Reflex saves against abilities and spells that have an area of effect.</p>"
    },
    "tag": "classFeat_monsterExpert",
    "useCustomTag": true,
    "subType": "classFeat",
    "associations": {
      "classes": ["Cavalier"]
    },
    "abilityType": "ex"
  }
}
