{
  "_id": "Oe6LeKkF4koec348",
  "name": "Mount (1 pt)",
  "type": "feat",
  "img": "systems/pf1/icons/skills/blue_26.jpg",
  "system": {
    "description": {
      "value": "<p>An eidolon is properly skilled and formed to serve as a combat-trained mount. The eidolon must be at least one size category larger than its rider.</p>\n<p>This evolution is only available to eidolons of the quadruped and serpentine base forms.</p>"
    },
    "tag": "classFeat_mount1Pt",
    "useCustomTag": true,
    "subType": "classFeat",
    "associations": {
      "classes": ["Eidolon"]
    },
    "abilityType": "ex"
  }
}
