{
  "_id": "IA4Z4xwEeubcDqF4",
  "name": "Mounted Archer",
  "type": "feat",
  "img": "systems/pf1/icons/skills/arrow_07.jpg",
  "system": {
    "description": {
      "value": "<p>At 4th level, the samurai becomes skilled at firing ranged weapons while mounted. A samurai only takes a –2 penalty on attack rolls with ranged weapons while his mount takes a double move. This penalty increases to –4 while his mount is running.</p>"
    },
    "tag": "classFeat_mountedArcher",
    "useCustomTag": true,
    "subType": "classFeat",
    "associations": {
      "classes": ["Samurai"]
    },
    "abilityType": "ex"
  }
}
