{
  "_id": "kNKFpjB3akN4XBHk",
  "name": "No Escape (UC)",
  "type": "feat",
  "img": "systems/pf1/icons/feats/deafening-critical.jpg",
  "system": {
    "description": {
      "value": "<p>The barbarian can move up to double her base speed as an immediate action. She can use this ability only when an adjacent foe uses a withdraw action to move away from her. She must end her movement adjacent to the enemy that used the withdraw action. The barbarian provokes attacks of opportunity as normal during this movement.</p>"
    },
    "actions": [
      {
        "_id": "wiymngxlqsmoubob",
        "name": "Use",
        "img": "systems/pf1/icons/feats/deafening-critical.jpg",
        "activation": {
          "type": "immediate",
          "unchained": {
            "type": "reaction"
          }
        },
        "uses": {
          "autoDeductChargesCost": "0"
        },
        "actionType": ""
      }
    ],
    "tag": "classFeat_noEscapeUc",
    "useCustomTag": true,
    "subType": "classFeat",
    "associations": {
      "classes": ["Barbarian (Unchained)"]
    },
    "abilityType": "ex"
  }
}
