{
  "_id": "zd4J4rCdY6cAZdJK",
  "name": "Nobility Domain",
  "type": "feat",
  "img": "systems/pf1/icons/skills/red_26.jpg",
  "system": {
    "description": {
      "value": "<p><b>Granted Powers:</b> You are a great leader, an inspiration to all who follow the teachings of your faith.</p>\n<p><b>Domain Spells:</b></p>\n<ul>\n<li>1st—@Compendium[pf1.spells.21bxbzdaawjrnvyo]{Divine Favor}</li>\n<li>2nd—@Compendium[pf1.spells.v3d3lnjj7ks0ztii]{Enthrall}</li>\n<li>3rd—@Compendium[pf1.spells.73han2zqxg59u18g]{Magic Vestment}</li>\n<li>4th—@Compendium[pf1.spells.9vdjohbrj896e2ot]{Discern Lies}</li>\n<li>5th—@Compendium[pf1.spells.l1zl69j95ad7l9dn]{Command, Greater}</li>\n<li>6th—@Compendium[pf1.spells.pfv5zv744x9dwg38]{Geas/Quest}</li>\n<li>7th—@Compendium[pf1.spells.5w1zrztwbvd6xkgj]{Repulsion}</li>\n<li>8th—@Compendium[pf1.spells.21r9ptvsjo99o3yw]{Demand}</li>\n<li>9th—@Compendium[pf1.spells.n4e35m6qu9nmkhgm]{Storm Of Vengeance}</li>\n</ul>"
    },
    "tag": "classFeat_nobilityDomain",
    "useCustomTag": true,
    "subType": "classFeat",
    "associations": {
      "classes": ["Cleric"]
    }
  }
}
