{
  "_id": "UKE5aUrpZ19nMGSs",
  "name": "Perfect Clarity",
  "type": "feat",
  "img": "systems/pf1/icons/feats/deafening-critical.jpg",
  "system": {
    "description": {
      "value": "<p>While using her moment of clarity rage power, the barbarian can roll twice for any miss chance or Will saving throws to disbelieve illusions, taking the better result.</p>\n<p>A barbarian must have the moment of clarity rage power before selecting this rage power.</p>"
    },
    "tag": "classFeat_perfectClarity",
    "useCustomTag": true,
    "subType": "classFeat",
    "associations": {
      "classes": ["Barbarian", "Skald"]
    },
    "abilityType": "ex"
  }
}
