{
  "_id": "UGsZPQqUYwvkKeBq",
  "name": "Precise Bombs",
  "type": "feat",
  "img": "systems/pf1/icons/items/potions/unique-3.jpg",
  "system": {
    "description": {
      "value": "<p>Whenever the alchemist throws a bomb, he can select a number of squares equal to his Intelligence modifier that are not affected by the splash damage from his bombs. If the bomb misses, this discovery has no effect.</p>"
    },
    "tag": "classFeat_preciseBombs",
    "useCustomTag": true,
    "subType": "classFeat",
    "associations": {
      "classes": ["Alchemist"]
    }
  }
}
