{
  "_id": "E8KYLVS0XB119ADA",
  "name": "Protective Partner",
  "type": "feat",
  "img": "systems/pf1/icons/items/inventory/banner-red.jpg",
  "system": {
    "description": {
      "value": "<p>At 15th level, the cavalier wreaks terrible vengeance on those who would try to harm her mount. Whenever an opponent attacks the cavalier’s mount, the attacking creature provokes an attack of opportunity from the cavalier. The cavalier receives a +2 bonus on attack rolls and damage rolls when she makes these attacks of opportunity.</p>"
    },
    "tag": "classFeat_protectivePartner",
    "useCustomTag": true,
    "subType": "classFeat",
    "associations": {
      "classes": ["Cavalier"]
    },
    "abilityType": "ex"
  }
}
