{
  "_id": "w9Y3ppeO7BICjA5o",
  "name": "Quickened Magic",
  "type": "feat",
  "img": "systems/pf1/icons/spells/enchant-red-3.jpg",
  "system": {
    "description": {
      "value": "<p>The magus can cast one spell per day as if it were modified by the @Compendium[pf1.feats.wFoLrh5FeeqBXsQ8]{Quicken Spell} feat. This does not increase the level of the spell.</p>\n<p>The magus must be at least 15th level before selecting this magus arcana.</p>"
    },
    "tag": "classFeat_quickenedMagic",
    "useCustomTag": true,
    "subType": "classFeat",
    "associations": {
      "classes": ["Magus"]
    },
    "abilityType": "su"
  }
}
