{
  "_id": "ZDsuvo1dGeAm1E4F",
  "name": "Radiating Touch",
  "type": "feat",
  "img": "systems/pf1/icons/skills/green_15.jpg",
  "system": {
    "description": {
      "value": "<p>As a standard action that provokes attacks of opportunity, you can irradiate any unattended object for a number of rounds equal to your cleric level. While an object is irradiated, it emits a faint aura of transmutation. Any creature that passes within 5 feet of the aura must succeed at a Will save (DC equal to 10 + 1/2 your cleric level + your Wisdom modifier) or become sickened. You’re immune to this object’s effect. You can use this ability a number of times per day equal to 3 + your Wisdom modifier.</p>\n<p>This power replaces the Acid Dart power of the Earth Domain.</p>"
    },
    "actions": [
      {
        "_id": "4s049fyl9pp79vae",
        "name": "Use",
        "img": "systems/pf1/icons/skills/green_15.jpg",
        "activation": {
          "type": "standard",
          "unchained": {
            "cost": 2,
            "type": "action"
          }
        },
        "duration": {
          "value": "@classes.cleric.level",
          "units": "round"
        },
        "target": {
          "value": "object touched"
        },
        "range": {
          "units": "touch"
        },
        "actionType": ""
      }
    ],
    "uses": {
      "per": "day",
      "maxFormula": "3 + @abilities.wis.mod"
    },
    "tag": "classFeat_radiatingTouch",
    "useCustomTag": true,
    "subType": "classFeat",
    "associations": {
      "classes": ["Cleric"]
    },
    "abilityType": "su"
  }
}
