{
  "_id": "YYdaFefBey2TOHlM",
  "name": "Rallying Cry",
  "type": "feat",
  "img": "systems/pf1/icons/skills/affliction_24.jpg",
  "system": {
    "description": {
      "value": "<p>At 3rd level, as a <em>standard action</em> once per day, you can shout a cry instilled with the noble sacrifices of your ancestor. You and any allies within 30 feet who can hear you gain a +1 <em>morale bonus</em> on attack and damage rolls for a number of rounds equal to half your <em>sorcerer</em> level (minimum 1). At 7th level and every four levels thereafter, this bonus increases by +1, to a maximum of +5 at 19th level.</p>"
    },
    "actions": [
      {
        "_id": "6jsmfhq0hcr0xspj",
        "name": "Use",
        "img": "systems/pf1/icons/skills/affliction_24.jpg",
        "activation": {
          "type": "standard",
          "unchained": {
            "cost": 2,
            "type": "action"
          }
        },
        "duration": {
          "value": "max(1, floor(@classes.sorcerer.level / 2))",
          "units": "round"
        },
        "target": {
          "value": "allies"
        },
        "range": {
          "value": "30",
          "units": "spec"
        },
        "actionType": ""
      }
    ],
    "uses": {
      "per": "day"
    },
    "tag": "classFeat_rallyingCry",
    "useCustomTag": true,
    "subType": "classFeat",
    "associations": {
      "classes": ["Sorcerer"]
    },
    "abilityType": "su"
  }
}
