{
  "_id": "FTSuvU2jUnzGGW7X",
  "name": "Redemption Inquisition",
  "type": "feat",
  "img": "systems/pf1/icons/items/inventory/badge-cross.jpg",
  "system": {
    "description": {
      "value": "<p><b>Granted Powers:</b> Your deity inspires you with hope that wayward members of your faith can be brought back into the fold.</p>"
    },
    "tag": "classFeat_redemptionInquisition",
    "useCustomTag": true,
    "subType": "classFeat",
    "associations": {
      "classes": ["Inquisitor"]
    }
  }
}
