{
  "_id": "xspAU6HG7Fd5l32s",
  "name": "Relentless Footing",
  "type": "feat",
  "img": "systems/pf1/icons/items/inventory/badge-cross.jpg",
  "system": {
    "description": {
      "value": "<p>As a swift action, you can add 10 feet to your land speed. This increase counts as an enhancement bonus, and it affects your jumping distance as normal for increased speed. You can use this ability a number of times per day equal to 3 + your Wisdom bonus (minimum 1).</p>"
    },
    "actions": [
      {
        "_id": "5mugwror1b9ydy2e",
        "name": "Use",
        "img": "systems/pf1/icons/items/inventory/badge-cross.jpg",
        "activation": {
          "type": "swift",
          "unchained": {
            "type": "action"
          }
        },
        "duration": {
          "value": "1",
          "units": "round"
        },
        "target": {
          "value": "self"
        },
        "range": {
          "units": "personal"
        },
        "actionType": ""
      }
    ],
    "uses": {
      "per": "day",
      "maxFormula": "3 + @abilities.wis.mod"
    },
    "tag": "classFeat_relentlessFooting",
    "useCustomTag": true,
    "subType": "classFeat",
    "associations": {
      "classes": ["Inquisitor"]
    },
    "abilityType": "ex"
  }
}
