{
  "_id": "0j7haa7K5O1CJ3ot",
  "name": "Resist Nature's Lure",
  "type": "feat",
  "img": "systems/pf1/icons/skills/green_09.jpg",
  "system": {
    "description": {
      "value": "<p>Starting at 4th level, a druid gains a +4 bonus on saving throws against the spell-like and supernatural abilities of fey. This bonus also applies to spells and effects that target plants, such as <em>blight</em>, <em>entangle</em>, <em>spike growth</em>, and <em>warp wood</em>.</p>"
    },
    "actions": [
      {
        "_id": "0ep4rqmqwtdmfyh0",
        "name": "Use",
        "img": "systems/pf1/icons/skills/green_09.jpg",
        "activation": {
          "type": "passive",
          "unchained": {
            "type": "passive"
          }
        },
        "actionType": ""
      }
    ],
    "tag": "classFeat_resistNaturesLure",
    "useCustomTag": true,
    "subType": "classFeat",
    "associations": {
      "classes": ["Druid"]
    },
    "abilityType": "ex"
  }
}
