{
  "_id": "57ATCcJwwSxxA4hK",
  "name": "Roaring Drunk",
  "type": "feat",
  "img": "systems/pf1/icons/feats/deafening-critical.jpg",
  "system": {
    "description": {
      "value": "<p>While raging, the barbarian gains a +1 morale bonus on Intimidate checks and to the save DC of any fear effects she creates for each alcoholic drink she has consumed during her rage, to a maximum of +1 per four barbarian levels.</p>"
    },
    "tag": "classFeat_roaringDrunk",
    "useCustomTag": true,
    "subType": "classFeat",
    "associations": {
      "classes": ["Barbarian", "Skald"]
    },
    "abilityType": "ex"
  }
}
