{
  "_id": "kHrqVwpMrclvwLdx",
  "name": "Rogue Talent",
  "type": "feat",
  "img": "systems/pf1/icons/items/weapons/kunai.png",
  "system": {
    "description": {
      "value": "<p>The ninja can select a rogue talent in place of a ninja trick. The ninja cannot select a rogue talent that has the same name as a ninja trick.</p>\n<p>The ninja can select this talent multiple times.</p>"
    },
    "tags": ["Ninja Trick"],
    "tag": "classFeat_rogueTalent",
    "useCustomTag": true,
    "subType": "classFeat",
    "associations": {
      "classes": ["Ninja"]
    }
  }
}
