{
  "_id": "IEQzDi2Oelh3DRNi",
  "name": "Salamander's Scales",
  "type": "feat",
  "img": "systems/pf1/icons/skills/red_05.jpg",
  "system": {
    "description": {
      "value": "<p>At 4th level, you gain fire resistance 5 and a +1 natural armor bonus to AC.</p>\n<p>At 8th level, your fire resistance increases to 10 and your natural armor bonus increases to +2.</p>\n<p>At 16th level, your fire resistance increases to 20 and your natural armor bonus increases to +3.</p>"
    },
    "changes": [
      {
        "_id": "8v3tb846",
        "formula": "@classes.bloodrager.level >= 20 ? 3 : ((@classes.bloodrager.level >= 8 && @classes.bloodrager.level < 20) ? 2 : 1)",
        "subTarget": "nac",
        "modifier": "untyped"
      }
    ],
    "tag": "classFeat_salamandersScales",
    "useCustomTag": true,
    "subType": "classFeat",
    "associations": {
      "classes": ["Bloodrager"]
    },
    "abilityType": "ex"
  }
}
