{
  "_id": "8GzRLhnJMcoBI2e6",
  "name": "Searing Heat",
  "type": "feat",
  "img": "systems/pf1/icons/skills/fire_10.jpg",
  "system": {
    "description": {
      "value": "<p>At 15th level, your body becomes as hot as a <em>salamander’s</em>. You deal 1d6 additional points of fire damage with <em>natural weapons</em> and melee attacks made with metal weapons. In addition, you deal 2d6 points of fire damage per round to any creature you <em>grapple</em>. This heat does not damage your equipment. You can <em>activate</em> or deactivate this effect as a <em>free action</em>.</p>"
    },
    "actions": [
      {
        "_id": "u3daj1mj7zfs43zz",
        "name": "Use",
        "img": "systems/pf1/icons/skills/fire_10.jpg",
        "activation": {
          "type": "free",
          "unchained": {
            "type": "free"
          }
        },
        "duration": {
          "units": "seeText"
        },
        "target": {
          "value": "self"
        },
        "range": {
          "units": "personal"
        },
        "actionType": ""
      }
    ],
    "tag": "classFeat_searingHeat",
    "useCustomTag": true,
    "subType": "classFeat",
    "associations": {
      "classes": ["Sorcerer"]
    },
    "abilityType": "su"
  }
}
