{
  "_id": "YNX23Wo50Kq2prks",
  "name": "Shadow Warrior",
  "type": "feat",
  "img": "systems/pf1/icons/skills/red_05.jpg",
  "system": {
    "description": {
      "value": "<p>At 20th level, you become shadow and fury personified. You see perfectly in natural and magical darkness. Whenever you deal hit point damage with a spell or attack, you also deal 2 points of Strength damage to each creature that took damage.</p>"
    },
    "tag": "classFeat_shadowWarrior",
    "useCustomTag": true,
    "subType": "classFeat",
    "associations": {
      "classes": ["Bloodrager"]
    },
    "abilityType": "su"
  }
}
