{
  "_id": "UJ0dFSynjDkuPVmR",
  "name": "Shadow's Sight",
  "type": "feat",
  "img": "systems/pf1/icons/feats/deceitful.jpg",
  "system": {
    "description": {
      "value": "<p>The vigilante gains low-light vision and darkvision 60 feet. If he already had darkvision, its range increases by 30 feet.</p>"
    },
    "tag": "classFeat_shadowsSight",
    "useCustomTag": true,
    "subType": "classFeat",
    "associations": {
      "classes": ["Vigilante"]
    },
    "abilityType": "ex"
  }
}
