{
  "_id": "cftsFheT8t1AMRgE",
  "name": "Shove Aside, Greater (UC)",
  "type": "feat",
  "img": "systems/pf1/icons/feats/deafening-critical.jpg",
  "system": {
    "description": {
      "value": "<p>This functions as shove aside, but it applies to any number of allies, so long as they are not adjacent to the target of the charge.</p>\n<p>A barbarian must have the shove aside rage power and be at least 8th level to select this rage power.</p>"
    },
    "tag": "classFeat_shoveAsideGreaterUc",
    "useCustomTag": true,
    "subType": "classFeat",
    "associations": {
      "classes": ["Barbarian (Unchained)"]
    },
    "abilityType": "ex"
  }
}
