{
  "_id": "WiXetqkAedUWYhTK",
  "name": "Sneaky Maneuver",
  "type": "feat",
  "img": "systems/pf1/icons/items/weapons/dagger.PNG",
  "system": {
    "description": {
      "value": "<p>Anytime a rogue with this talent could hit an opponent with a melee sneak attack on her turn, she may take a –2 penalty on her attack roll and attempt a dirty trick, disarm, steal, sunder, or trip combat maneuver instead of dealing sneak attack damage. If the attack succeeds, the rogue deals weapon damage as normal and then attempts a combat maneuver check as a swift action (the –2 penalty only applies to the initial attack roll, not the combat maneuver check). This combat maneuver still provokes attacks of opportunity unless the rogue has a feat or ability that allows her to perform it without provoking attacks of opportunity.</p>"
    },
    "tag": "classFeat_sneakyManeuver",
    "useCustomTag": true,
    "subType": "classFeat",
    "associations": {
      "classes": ["Rogue"]
    },
    "abilityType": "ex"
  }
}
