{
  "_id": "NeyRU22KMsYtaPB3",
  "name": "Sneak Training",
  "type": "feat",
  "img": "systems/pf1/icons/items/weapons/dagger.PNG",
  "system": {
    "description": {
      "value": "<p>The rogue counts as having the sneak attack class feature of a rogue of her level for the purpose of meeting prestige class requirements, although this talent doesn’t improve the rogue’s existing sneak attack ability or grant her the sneak attack class feature if she doesn’t already have it. This talent is most useful for rogues that lack the sneak attack class feature, such as those with the <a href=\"https://aonprd.com/ArchetypeDisplay.aspx?FixedName=Rogue%20Phantom%20Thief\">phantom thief</a> archetype.</p>"
    },
    "tag": "classFeat_sneakTraining",
    "useCustomTag": true,
    "subType": "classFeat",
    "associations": {
      "classes": ["Rogue"]
    },
    "abilityType": "ex"
  }
}
