{
  "_id": "x17MaJlLIAkOkfxa",
  "name": "Sonic Blast",
  "type": "feat",
  "img": "systems/pf1/icons/spells/runes-blue-2.jpg",
  "system": {
    "description": {
      "value": "<p>The arcanist can loose a deafening blast of sonic energy by expending 1 point from her arcane reservoir and succeeding at a ranged touch attack against any one target within 30 feet. The blast deals an amount of sonic damage equal to 1d6 + the arcanist’s Charisma modifier, plus an additional 1d6 points of sonic damage for every 2 levels beyond 1st (to a maximum of 10d6 at 19th level). The target is also deafened for 1 minute. The target can attempt a Fortitude save to halve the damage and negate the deafness.</p>"
    },
    "actions": [
      {
        "_id": "wqp315z8nz8buro8",
        "name": "Use",
        "img": "systems/pf1/icons/spells/runes-blue-2.jpg",
        "activation": {
          "type": "standard",
          "unchained": {
            "cost": 2,
            "type": "action"
          }
        },
        "duration": {
          "units": "inst"
        },
        "target": {
          "value": "one creature"
        },
        "range": {
          "value": "30",
          "units": "ft"
        },
        "actionType": "rsak",
        "damage": {
          "parts": [
            {
              "formula": "(ceil(@classes.arcanist.level / 2))d6 + @abilities.cha.mod",
              "type": {
                "values": ["sonic"],
                "custom": ""
              }
            }
          ]
        },
        "ability": {
          "attack": "dex"
        },
        "save": {
          "type": "fort",
          "description": "Fortitude negates deafness"
        }
      }
    ],
    "tag": "classFeat_sonicBlast",
    "useCustomTag": true,
    "subType": "classFeat",
    "associations": {
      "classes": ["Arcanist"]
    },
    "abilityType": "su"
  }
}
