{
  "_id": "wYDl90y1jRAFkMef",
  "name": "Space Patron",
  "type": "feat",
  "img": "systems/pf1/icons/feats/improved-familiar.jpg",
  "system": {
    "description": {
      "value": "<ul>\n<li>2nd — @Compendium[pf1.spells.97mcivnu2owb8119]{Mirror Strike}</li>\n<li>4th — @Compendium[pf1.spells.4gs8xrmzy2bvfkr0]{Twisted Space}</li>\n<li>6th — @Compendium[pf1.spells.qmorw7eojkfqr00m]{Blink}</li>\n<li>8th — @Compendium[pf1.spells.ojwg1ki98tq8xyh9]{Dimension Door}</li>\n<li>10th — @Compendium[pf1.spells.s0uh1psyg0cfd9e6]{Hostile Juxtaposition}</li>\n<li>12th — @Compendium[pf1.spells.5w1zrztwbvd6xkgj]{Repulsion}</li>\n<li>14th — @Compendium[pf1.spells.oh6kkz31ai7eoxhp]{Walk Through Space}</li>\n<li>16th — @Compendium[pf1.spells.v39qnirlhgje2c0e]{Bilocation}</li>\n<li>18th — @Compendium[pf1.spells.if867t28tu6zxaei]{Teleportation Circle}</li>\n</ul>"
    },
    "tag": "classFeat_spacePatron",
    "useCustomTag": true,
    "subType": "classFeat",
    "associations": {
      "classes": ["Witch"]
    }
  }
}
