{
  "_id": "gmE0dZWlcNtenf4O",
  "name": "Spire Totem",
  "type": "feat",
  "img": "systems/pf1/icons/feats/deafening-critical.jpg",
  "system": {
    "description": {
      "value": "<p>While raging, the barbarian takes no penalties for using a weapon to deal nonlethal damage. When dealing nonlethal damage, the barbarian adds a bonus equal to half her barbarian level on her damage rolls.</p>\n<p>A barbarian must have the lesser spire totem rage power and be at least 6th level to select this rage power.</p>"
    },
    "tag": "classFeat_spireTotem",
    "useCustomTag": true,
    "subType": "classFeat",
    "associations": {
      "classes": ["Barbarian", "Skald"]
    },
    "abilityType": "su"
  }
}
