{
  "_id": "i6Wn6GJkWo6wy9XJ",
  "name": "Splash of the Styx",
  "type": "feat",
  "img": "systems/pf1/icons/spells/ice-blue-2.jpg",
  "system": {
    "description": {
      "value": "<p><b>Element</b> water; <b>Type</b> utility (Sp); <b>Level</b> 5; <b>Burn</b> 1<br><b>Prerequisite</b> tiefling or <a href=\"https://aonprd.com/FeatDisplay.aspx?ItemName=Planar%20Infusion\">Planar Infusion</a> (Abaddon, Abyss, or Hell)<br><b>Saving Throw</b> Will negates; <b>SR</b> yes</p>\n<p>You can spend 1 full round to draw upon the waters of the River Styx to erase memories of a target. This functions as @Compendium[pf1.spells.5ll7q13p0skbgonc]{Modify Memory}, except that it can only eliminate memories.</p>"
    },
    "tag": "classFeat_splashOfTheStyx",
    "useCustomTag": true,
    "subType": "classFeat",
    "associations": {
      "classes": ["Kineticist"]
    },
    "abilityType": "sp"
  }
}
