{
  "_id": "MoYtXZ0fYDw7If8G",
  "name": "Startling Shot",
  "type": "feat",
  "img": "systems/pf1/icons/skills/weapon_36.jpg",
  "system": {
    "description": {
      "value": "<p>At 7th level, a gunslinger with least 1 grit point can spend a standard action to purposely miss a creature that she could normally hit with a firearm attack. When she does, that creature becomes flat-footed until the start of its next turn.</p>"
    },
    "tags": ["Gunslinger Deed"],
    "actions": [
      {
        "_id": "YuUwkM96rFN4AsZ8",
        "name": "Use",
        "img": "systems/pf1/icons/skills/weapon_36.jpg",
        "activation": {
          "type": "standard"
        },
        "actionType": ""
      }
    ],
    "tag": "classFeat_startlingShot",
    "useCustomTag": true,
    "subType": "classFeat",
    "associations": {
      "classes": ["Gunslinger"]
    }
  }
}
