{
  "_id": "A9wx3HXiIvYJm65p",
  "name": "Stealth Stunt",
  "type": "feat",
  "img": "systems/pf1/icons/items/weapons/dagger.PNG",
  "system": {
    "description": {
      "value": "<p>When benefiting from concealment, a rogue with this talent can forgo an attack of opportunity to attempt a Stealth check against the provoking opponent’s CMD. Success allows the rogue to treat her opponent as flat-footed against the rogue’s first melee attack before the end of her next turn. Using this ability does not count against the rogue’s available attacks of opportunity for the round. A rogue must be trained in Stealth to select this talent.</p>"
    },
    "tag": "classFeat_stealthStunt",
    "useCustomTag": true,
    "subType": "classFeat",
    "associations": {
      "classes": ["Rogue"]
    },
    "abilityType": "ex"
  }
}
