{
  "_id": "OjUWyvWC2WDjORSw",
  "name": "Succor Mystery",
  "type": "feat",
  "img": "systems/pf1/icons/spells/light-magenta-2.jpg",
  "system": {
    "description": {
      "value": "<p><b>Class Skills:</b> An oracle with the succor mystery adds Handle Animal, Knowledge (nature), and Survival to her list of class skills.<p><b>Bonus Spells:</b></p>\n<ul>\n<li>@Compendium[pf1.spells.mczdgwo3xl8c6e26]{Ray Of Enfeeblement} (2nd), </li>\n<li>@Compendium[pf1.spells.qc7vnye0x975gxdf]{Shield Of Fortification} (4th), </li>\n<li>@Compendium[pf1.spells.lisojmynoblunlex]{Coordinated Effort} (6th), </li>\n<li>@Compendium[pf1.spells.rxenoze8iyh9iyng]{Shield Of Fortification, Greater} (8th), </li>\n<li>@Compendium[pf1.spells.knyako6zopc1chrv]{Stoneskin} (10th), </li>\n<li>@Compendium[pf1.spells.z0duc2v2n3ioynta]{Heroism, Greater} (12th), </li>\n<li>@Compendium[pf1.spells.uuzeynxotp9dzu15]{Expend} (14th), </li>\n<li>@Compendium[pf1.spells.cc0or00vpiky87n7]{Spellcrash, Greater} (16th), </li>\n<li>@Compendium[pf1.spells.77bihy40diufd6p1]{Wall of Suppression} (18th).</li>\n</ul>"
    },
    "tag": "classFeat_succorMystery",
    "useCustomTag": true,
    "subType": "classFeat",
    "associations": {
      "classes": ["Oracle"]
    }
  }
}
