{
  "_id": "B88ezy1DOXZ03vam",
  "name": "Sudden Sting",
  "type": "feat",
  "img": "systems/pf1/icons/skills/green_23.jpg",
  "system": {
    "description": {
      "value": "<p>At 9th level, when you are able to act in the <em>surprise</em> round, you can take a full round’s worth of actions rather than just a single <em>standard action</em>. You can also cast @Compendium[pf1.spells.3fkwj6d8s65ufwar]{Accelerate Poison} and @Compendium[pf1.spells.l7e01shgg8c44zfg]{Delay Poison} as <em>spell-like abilities</em> a total of three times per day.</p>"
    },
    "actions": [
      {
        "_id": "y0p62rrhjjqcsv2w",
        "name": "Use",
        "img": "systems/pf1/icons/skills/green_23.jpg",
        "activation": {
          "type": "passive",
          "unchained": {
            "type": "passive"
          }
        },
        "actionType": ""
      }
    ],
    "uses": {
      "per": "day",
      "maxFormula": "3"
    },
    "tag": "classFeat_suddenSting",
    "useCustomTag": true,
    "subType": "classFeat",
    "associations": {
      "classes": ["Sorcerer"]
    },
    "abilityType": "sp"
  }
}
