{
  "_id": "D4DzcLyRQABhgIKt",
  "name": "Suffering Knowledge",
  "type": "feat",
  "img": "systems/pf1/icons/spells/runes-blue-3.jpg",
  "system": {
    "description": {
      "value": "<p>The arcanist can learn to cast a spell by suffering from its effects. When the arcanist fails a saving throw against a spell cast by an enemy, as an immediate action she can expend 1 point from her arcane reservoir to temporarily acquire the spell. She can cast the spell using her spell slots as if it was a spell she had prepared that day. The spell must be on the sorcerer/wizard spell list and must be of a level that she can cast.</p>\n<p>The ability to cast this spell remains for a number of rounds equal to the arcanist’s Charisma modif ier (minimum 1).</p>"
    },
    "tags": ["Arcanist Exploit, Greater"],
    "actions": [
      {
        "_id": "saq6643m4p7ca5gj",
        "name": "Use",
        "img": "systems/pf1/icons/spells/runes-blue-3.jpg",
        "activation": {
          "type": "immediate",
          "unchained": {
            "type": "reaction"
          }
        },
        "actionType": ""
      }
    ],
    "tag": "classFeat_sufferingKnowledge",
    "useCustomTag": true,
    "subType": "classFeat",
    "associations": {
      "classes": ["Arcanist"]
    },
    "abilityType": "su"
  }
}
