{
  "_id": "vOxoJNMKtGXVP7No",
  "name": "Surprise Attack (UC)",
  "type": "feat",
  "img": "systems/pf1/icons/items/weapons/hunga-munga.PNG",
  "system": {
    "description": {
      "value": "<p>During the surprise round, a rogue with this ability always considers opponents flat-footed, even if they have already acted. A rogue with this ability adds 1/2 her rogue level to her sneak attack damage rolls made during the surprise round.</p>"
    },
    "tag": "classFeat_surpriseAttackUc",
    "useCustomTag": true,
    "subType": "classFeat",
    "associations": {
      "classes": ["Rogue (Unchained)"]
    },
    "abilityType": "ex"
  }
}
