{
  "_id": "9zv6N9F1UVBQBugf",
  "name": "Surprising Charge",
  "type": "feat",
  "img": "systems/pf1/icons/spells/light-royal-1.jpg",
  "system": {
    "description": {
      "value": "<p>Once per day, you can move up to your speed as an immediate action.</p>\n<p>You can use this ability one additional time per day at 7th level and 15th level.</p>"
    },
    "tags": ["Revelation", "Battle Mystery"],
    "actions": [
      {
        "_id": "19dwhfq05u3syo19",
        "name": "Use",
        "img": "systems/pf1/icons/spells/light-royal-1.jpg",
        "activation": {
          "type": "immediate",
          "unchained": {
            "type": "reaction"
          }
        },
        "duration": {
          "units": "inst"
        },
        "target": {
          "value": "self"
        },
        "range": {
          "units": "personal"
        },
        "actionType": ""
      }
    ],
    "uses": {
      "per": "day",
      "maxFormula": "@classes.oracle.level >= 15 ? 3 : ((@classes.oracle.level < 15 && @classes.oracle.level > 6) ? 2 : 1)"
    },
    "tag": "classFeat_surprisingCharge",
    "useCustomTag": true,
    "subType": "classFeat",
    "associations": {
      "classes": ["Oracle"]
    },
    "abilityType": "ex"
  }
}
