{
  "_id": "riAeYUkUCjmurfmL",
  "name": "Survivalist",
  "type": "feat",
  "img": "systems/pf1/icons/items/weapons/dagger.PNG",
  "system": {
    "description": {
      "value": "<p>A rogue with this talent adds Heal and Survival to her list of class skills.</p>"
    },
    "tag": "classFeat_survivalist",
    "useCustomTag": true,
    "subType": "classFeat",
    "associations": {
      "classes": ["Rogue"]
    }
  }
}
