{
  "_id": "6zfvhdZAtt5an0Nb",
  "name": "Susceptibility (Stare)",
  "type": "feat",
  "img": "systems/pf1/icons/skills/emerald_11.jpg",
  "system": {
    "description": {
      "value": "<p>The hypnotic stare penalty also applies to the target’s Sense Motive checks to oppose Bluff checks, and to the DCs of Diplomacy and Intimidate checks made against the target.</p>"
    },
    "tag": "classFeat_susceptibilityStare",
    "useCustomTag": true,
    "subType": "classFeat",
    "associations": {
      "classes": ["Mesmerist"]
    }
  }
}
