{
  "_id": "kEVqxs23oyNDxbc1",
  "name": "Swift Alchemy (INV)",
  "type": "feat",
  "img": "systems/pf1/icons/skills/violet_25.jpg",
  "system": {
    "description": {
      "value": "<p>At 4th level, an investigator can create alchemical items with astounding speed. It takes an investigator half the normal amount of time to create alchemical items. He can also apply <em>poison</em> to a weapon as a <em>move action</em> instead of a <em>standard action</em>.</p>"
    },
    "tag": "classFeat_swiftAlchemyInv",
    "useCustomTag": true,
    "subType": "classFeat",
    "associations": {
      "classes": ["Investigator"]
    },
    "abilityType": "ex"
  }
}
