{
  "_id": "RIFRzOndNjxEQUbF",
  "name": "Teamwork Mastery",
  "type": "feat",
  "img": "systems/pf1/icons/spells/light-royal-1.jpg",
  "system": {
    "description": {
      "value": "<p>You are an immaculate team player and can distribute your team-based insights to your allies with a touch. This revelation grants you a bonus teamwork feat. You must meet the teamwork feat’s prerequisites, if any. Additionally, you can touch an ally as a standard action to confer upon it the benefits of any one teamwork feat that you have. This effect persists for a number of rounds equal to 1/2 your oracle level (minimum 1).</p>\n<p>You can confer the benefits of a teamwork feat you have a number of times per day equal to 3 + your Charisma modifier.</p>"
    },
    "actions": [
      {
        "_id": "q7et7u4vgqgkyytz",
        "name": "Use",
        "img": "systems/pf1/icons/spells/light-royal-1.jpg",
        "activation": {
          "type": "standard",
          "unchained": {
            "cost": 2,
            "type": "action"
          }
        },
        "duration": {
          "value": "max(1, (floor(@classes.oracle.level / 2)))",
          "units": "round"
        },
        "target": {
          "value": "ally touched"
        },
        "range": {
          "units": "touch"
        },
        "actionType": ""
      }
    ],
    "uses": {
      "per": "day",
      "maxFormula": "3 + @abilities.cha.mod"
    },
    "tag": "classFeat_teamworkMastery",
    "useCustomTag": true,
    "subType": "classFeat",
    "associations": {
      "classes": ["Oracle"]
    },
    "abilityType": "ex"
  }
}
