{
  "_id": "pI96OyLrjc1EyhaE",
  "name": "Telepathic Bond",
  "type": "feat",
  "img": "systems/pf1/icons/spells/link-spirit-1.jpg",
  "system": {
    "description": {
      "value": "<p>At 9th level, a psychic can use @Compendium[pf1.spells.zuqlok69lapqc6lg]{Telepathic Bond} as a spell-like ability once per day, using her psychic level as her caster level. She can’t leave herself out of a bond created in this way. She can also expend any unused spell slot of 4th level or higher to cast telepathic bond. Casting the spell using a higher-level spell slot gives no benefit on its own, but the psychic can apply metamagic feats that would increase the spell level to the appropriate level. For instance, if the psychic knows Extend Spell, she can use a 5th-level spell slot to cast extended telepathic bond as a full-round action.</p>\n<p>When a psychic who knows telepathic bond gains this ability, she can learn a different 4th-level spell in place of telepathic bond, losing the old spell in exchange for the new one.</p>"
    },
    "actions": [
      {
        "_id": "fc0r4yl4t3wsi9q6",
        "name": "Use",
        "img": "systems/pf1/icons/spells/link-spirit-1.jpg",
        "activation": {
          "type": "standard",
          "unchained": {
            "cost": 2,
            "type": "action"
          }
        },
        "actionType": ""
      }
    ],
    "uses": {
      "per": "day",
      "maxFormula": "1"
    },
    "tag": "classFeat_telepathicBond",
    "useCustomTag": true,
    "subType": "classFeat",
    "associations": {
      "classes": ["Psychic"]
    },
    "abilityType": "sp"
  }
}
