{
  "_id": "YuS12cerNITbROvO",
  "name": "Telepathic Targeting",
  "type": "feat",
  "img": "systems/pf1/icons/spells/shielding-spirit-2.jpg",
  "system": {
    "description": {
      "value": "<p>By spending 2 points from her phrenic pool, the psychic can target any creature with which she is in telepathic communication (whether via her telepathic bond ability, a creature’s telepathy ability, or another effect) with the linked spell, even if the creature would normally be out of range.</p>\n<p>The linked spell must have the mind-affecting descriptor and must have a range of touch or greater.</p>"
    },
    "actions": [
      {
        "_id": "z2f7c2g81abrlq6h",
        "name": "Use",
        "img": "systems/pf1/icons/spells/shielding-spirit-2.jpg",
        "activation": {
          "type": "free",
          "unchained": {
            "type": "free"
          }
        },
        "uses": {
          "autoDeductChargesCost": "2"
        },
        "actionType": ""
      }
    ],
    "tag": "classFeat_telepathicTargeting",
    "useCustomTag": true,
    "subType": "classFeat",
    "associations": {
      "classes": ["Psychic"]
    },
    "abilityType": "su"
  }
}
