{
  "_id": "W8v93zwjzdMwA634",
  "name": "Terrifying Howl (UC)",
  "type": "feat",
  "img": "systems/pf1/icons/feats/deafening-critical.jpg",
  "system": {
    "description": {
      "value": "<p>The barbarian unleashes a terrifying howl as a standard action. All enemies that have been shaken by the barbarian (usually through the Intimidate skill) within 30 feet must succeed at a Will save (DC = 10 + 1/2 the barbarian’s level + her Strength modifier) or be panicked for 1d4+1 rounds. Once an enemy has attempted a save versus this ability (whether successful or not), it’s immune to this power for 24 hours.</p>\n<p>A barbarian must be at least 8th level and have the intimidating glare rage power to select this rage power.</p>"
    },
    "actions": [
      {
        "_id": "ez51ufw2va93gpug",
        "name": "Use",
        "img": "systems/pf1/icons/feats/deafening-critical.jpg",
        "activation": {
          "type": "standard",
          "unchained": {
            "cost": 2,
            "type": "action"
          }
        },
        "duration": {
          "value": "1d4 +1",
          "units": "round"
        },
        "target": {
          "value": "foes"
        },
        "range": {
          "value": "30",
          "units": "ft"
        },
        "uses": {
          "autoDeductChargesCost": "0"
        },
        "actionType": "save",
        "save": {
          "type": "will",
          "description": "Will negates"
        }
      }
    ],
    "tag": "classFeat_terrifyingHowlUc",
    "useCustomTag": true,
    "subType": "classFeat",
    "associations": {
      "classes": ["Barbarian (Unchained)"]
    },
    "abilityType": "ex"
  }
}
