{
  "_id": "6v0D01TO5Ogf6yDF",
  "name": "Thoughtsense",
  "type": "feat",
  "img": "systems/pf1/icons/skills/red_09.jpg",
  "system": {
    "description": {
      "value": "<p>At 15th level, you can detect the thoughts of others around you, as a constant @Compendium[pf1.spells.5wmn4airvkprv3gp]{Thoughtsense} effect with a range of 30 feet instead of 60 feet.</p>"
    },
    "actions": [
      {
        "_id": "ht6yn8xk61f8v47r",
        "name": "Use",
        "img": "systems/pf1/icons/skills/red_09.jpg",
        "activation": {
          "type": "passive",
          "unchained": {
            "type": "passive"
          }
        },
        "actionType": ""
      }
    ],
    "tag": "classFeat_thoughtsense",
    "useCustomTag": true,
    "subType": "classFeat",
    "associations": {
      "classes": ["Sorcerer"]
    },
    "abilityType": "sp"
  }
}
