{
  "_id": "aCvcjJIZZ4ZRSVC1",
  "name": "Time Flicker",
  "type": "feat",
  "img": "systems/pf1/icons/spells/light-royal-1.jpg",
  "system": {
    "description": {
      "value": "<p>As a standard action, you can flicker in and out of time, gaining concealment (as the @Compendium[pf1.spells.18kryvj2dfuymk9d]{Blur} spell). You can use this ability for 1 minute per oracle level that you possess per day. This duration does not need to be consecutive, but it must be spent in 1-minute increments.</p>\n<p>At 7th level, each time you activate this ability, you can treat it as the blink spell, though each round spent this way counts as 1 minute of your normal time flicker duration.</p>\n<p>You must be at least 3rd level to select this revelation.</p>"
    },
    "tags": ["Revelation", "Time Mystery"],
    "actions": [
      {
        "_id": "rzyof0i30yjsmpgk",
        "name": "Use",
        "img": "systems/pf1/icons/spells/light-royal-1.jpg",
        "activation": {
          "type": "standard",
          "unchained": {
            "cost": 2,
            "type": "action"
          }
        },
        "duration": {
          "value": "1",
          "units": "minute"
        },
        "target": {
          "value": "self"
        },
        "range": {
          "units": "personal"
        },
        "actionType": ""
      }
    ],
    "uses": {
      "per": "day",
      "maxFormula": "@classes.oracle.level"
    },
    "tag": "classFeat_timeFlicker",
    "useCustomTag": true,
    "subType": "classFeat",
    "associations": {
      "classes": ["Oracle"]
    },
    "abilityType": "su"
  }
}
