{
  "_id": "DXoZQV6YvDduOYDT",
  "name": "Touch of Rage",
  "type": "feat",
  "img": "systems/pf1/icons/feats/extra-rage.jpg",
  "system": {
    "description": {
      "value": "<p>At 1st level, you can touch a creature as a <em>standard action</em>, giving it a <em>morale bonus</em> on attack rolls, damage rolls, and <em>Will</em> saving throws equal to 1/2 your sorcerer level (minimum 1) for 1 round. You can use this ability a number of times per day equal to 3 + your <em>Charisma</em> modifier.</p>"
    },
    "actions": [
      {
        "_id": "2roi5iqydjawo9kt",
        "name": "Use",
        "img": "systems/pf1/icons/feats/extra-rage.jpg",
        "activation": {
          "type": "standard",
          "unchained": {
            "cost": 2,
            "type": "action"
          }
        },
        "duration": {
          "value": "1",
          "units": "round"
        },
        "target": {
          "value": "creature touched"
        },
        "range": {
          "units": "touch"
        },
        "actionType": ""
      }
    ],
    "uses": {
      "per": "day",
      "maxFormula": "3 + @abilities.cha.mod"
    },
    "tag": "classFeat_touchOfRage",
    "useCustomTag": true,
    "subType": "classFeat",
    "associations": {
      "classes": ["Sorcerer"]
    },
    "abilityType": "sp"
  }
}
