{
  "_id": "eZ569ZcO7BeZAqB6",
  "name": "Touch of Chaos",
  "type": "feat",
  "img": "systems/pf1/icons/spells/rip-water-1.jpg",
  "system": {
    "description": {
      "value": "<p>You can imbue a target with chaos as a melee touch attack. For the next round, anytime the target rolls a d20, he must roll twice and take the less favorable result. You can use this ability a number of times per day equal to 3 + your Wisdom modifier.</p>"
    },
    "actions": [
      {
        "_id": "mpzmhg8k1ck6fqfo",
        "name": "Use",
        "img": "systems/pf1/icons/spells/rip-water-1.jpg",
        "activation": {
          "type": "standard",
          "unchained": {
            "cost": 2,
            "type": "action"
          }
        },
        "duration": {
          "value": "1",
          "units": "round"
        },
        "target": {
          "value": "creature touched"
        },
        "range": {
          "units": "touch"
        },
        "actionType": ""
      }
    ],
    "uses": {
      "per": "day",
      "maxFormula": "3 + @abilities.wis.mod"
    },
    "tag": "classFeat_touchOfChaos",
    "useCustomTag": true,
    "subType": "classFeat",
    "associations": {
      "classes": ["Cleric"]
    },
    "abilityType": "sp"
  }
}
