{
  "_id": "X5bWXuJDNjFTUEp2",
  "name": "Trickery Blessing: Greater Invisibility",
  "type": "feat",
  "img": "systems/pf1/icons/spells/slice-spirit-2.jpg",
  "system": {
    "description": {
      "value": "<p>At 10th level, as a swift action you can become invisible for 1 round (as @Compendium[pf1.spells.cxgi0ub77t6aink1]{Invisibility, Greater}).</p>"
    },
    "actions": [
      {
        "_id": "87v8yc1mt9gdc3wz",
        "name": "Use",
        "img": "systems/pf1/icons/spells/slice-spirit-2.jpg",
        "activation": {
          "type": "swift",
          "unchained": {
            "type": "action"
          }
        },
        "duration": {
          "value": "1",
          "units": "round"
        },
        "target": {
          "value": "self"
        },
        "range": {
          "units": "personal"
        },
        "actionType": ""
      }
    ],
    "tag": "classFeat_trickeryBlessingGreaterInvisibility",
    "useCustomTag": true,
    "subType": "classFeat",
    "associations": {
      "classes": ["Warpriest"]
    }
  }
}
