{
  "_id": "K3kw9dmcAjDK9JXs",
  "name": "Triumphant Return",
  "type": "feat",
  "img": "systems/pf1/icons/skills/light_07.jpg",
  "system": {
    "description": {
      "value": "<p>The vigilante’s tales are never truly forgotten. This makes it easier to establish his renown in a place he has established it before. In any settlement where the vigilante previously gained renown, it takes only 3 days, rather than 1 week, to gain renown again.</p>\n<p>A vigilante must be at least 3rd level and have the renown social talent to select this talent.</p>"
    },
    "tag": "classFeat_triumphantReturn",
    "useCustomTag": true,
    "subType": "classFeat",
    "associations": {
      "classes": ["Vigilante"]
    },
    "abilityType": "ex"
  }
}
