{
  "_id": "Tdmt7DaxKydPYSvh",
  "name": "True Thought-Form",
  "type": "feat",
  "img": "systems/pf1/icons/skills/shadow_17.jpg",
  "system": {
    "description": {
      "value": "<p>At 20th level, you can shed the restrictions of the flesh and become a thoughtform— a being that exists independently of its substance.</p>\n<p>Whenever a creature would kill you, you can attempt to use @Compendium[pf1.spells.nepwelwi6tlh1vo0]{Mind Swap} against that creature as an <em>immediate action</em> just before <em>dying</em>.</p>"
    },
    "actions": [
      {
        "_id": "cmrc6datktjwu2uf",
        "name": "Use",
        "img": "systems/pf1/icons/skills/shadow_17.jpg",
        "activation": {
          "type": "passive",
          "unchained": {
            "type": "passive"
          }
        },
        "actionType": ""
      }
    ],
    "tag": "classFeat_trueThoughtform",
    "useCustomTag": true,
    "subType": "classFeat",
    "associations": {
      "classes": ["Sorcerer"]
    },
    "abilityType": "sp"
  }
}
