{
  "_id": "kmHyhrJZg8zE15oh",
  "name": "Twilight Talon Improvisation",
  "type": "feat",
  "img": "systems/pf1/icons/items/weapons/sword-cane.png",
  "system": {
    "description": {
      "value": "<p>Whenever the investigator deals studied strike damage with an improvised weapon, she can perform a dirty trick combat maneuver targeting that foe as a free action. This combat maneuver provokes attacks of opportunity as normal unless the investigator has a feat or other ability to prevent it.</p>"
    },
    "actions": [
      {
        "_id": "wa8auyefncn8xhqr",
        "name": "Use",
        "img": "systems/pf1/icons/items/weapons/sword-cane.png",
        "activation": {
          "type": "free",
          "unchained": {
            "type": "free"
          }
        },
        "actionType": ""
      }
    ],
    "tag": "classFeat_twilightTalonImprovisation",
    "useCustomTag": true,
    "subType": "classFeat",
    "associations": {
      "classes": ["Investigator"]
    },
    "abilityType": "ex"
  }
}
