{
  "_id": "UljB3sJIKPCnC1nx",
  "name": "Tyrant Totem",
  "type": "feat",
  "img": "systems/pf1/icons/feats/deafening-critical.jpg",
  "system": {
    "description": {
      "value": "<p>While raging, the barbarian can begin a grapple as a free action against any creature she hits with her bite attack.</p>\n<p>A barbarian must be at least 8th level to choose this rage power.</p>"
    },
    "tag": "classFeat_tyrantTotem",
    "useCustomTag": true,
    "subType": "classFeat",
    "associations": {
      "classes": ["Barbarian", "Skald"]
    },
    "abilityType": "su"
  }
}
