{
  "_id": "abjlF9XM3j72rzua",
  "name": "Undead Subschool",
  "type": "feat",
  "img": "systems/pf1/icons/skills/affliction_17.jpg",
  "system": {
    "description": {
      "value": "<p><b>Associated School:</b> <em>Necromancy</em>.</p>\n<p><b>Replacement Power:</b> This subschool replaces the grave touch power of the <em>necromancy</em> school.</p>"
    },
    "tag": "classFeat_undeadSubschool",
    "useCustomTag": true,
    "subType": "classFeat",
    "associations": {
      "classes": ["Wizard"]
    }
  }
}
