{
  "_id": "3QjzUEQ0zZs62M1s",
  "name": "Underwater Demolition",
  "type": "feat",
  "img": "systems/pf1/icons/items/potions/unique-3.jpg",
  "system": {
    "description": {
      "value": "<p>The alchemist gains the ability to throw bombs underwater (normally, thrown weapons cannot be used underwater), including throwing from the air into the water. If the bomb travels through water, the range increment is reduced to 5 feet.</p>"
    },
    "tag": "classFeat_underwaterDemolition",
    "useCustomTag": true,
    "subType": "classFeat",
    "associations": {
      "classes": ["Alchemist"]
    },
    "abilityType": "ex"
  }
}
