{
  "_id": "pR0MLt0XLQpBePa3",
  "name": "Underworld Inspiration",
  "type": "feat",
  "img": "systems/pf1/icons/items/weapons/sword-cane.png",
  "system": {
    "description": {
      "value": "<p>An investigator can use his inspiration on Bluff, Disable Device, Disguise, Intimidate, or Sleight of Hand checks without expending uses of inspiration, provided he’s trained in the skill.</p>"
    },
    "tag": "classFeat_underworldInspiration",
    "useCustomTag": true,
    "subType": "classFeat",
    "associations": {
      "classes": ["Investigator"]
    },
    "abilityType": "ex"
  }
}
