{
  "_id": "2VQWuMggIcikZfXP",
  "name": "Undercasting Prodigy",
  "type": "feat",
  "img": "systems/pf1/icons/skills/violet_16.jpg",
  "system": {
    "description": {
      "value": "<p>Starting at 9th level, whenever you gain a new level of spells, you automatically replace any psychic <em>bloodline</em> spells that can be undercast with the highest-level version you can cast in your list of spells known. For example, at 9th level, you would replace mind thrust I, id insinuation I, and ego whip I with mind thrust IV, id insinuation III, and ego whip II, respectively, as spells known.</p>"
    },
    "actions": [
      {
        "_id": "76aamn7dgpy2vute",
        "name": "Use",
        "img": "systems/pf1/icons/skills/violet_16.jpg",
        "activation": {
          "type": "passive",
          "unchained": {
            "type": "passive"
          }
        },
        "actionType": ""
      }
    ],
    "tag": "classFeat_undercastingProdigy",
    "useCustomTag": true,
    "subType": "classFeat",
    "associations": {
      "classes": ["Sorcerer"]
    },
    "abilityType": "sp"
  }
}
