{
  "_id": "Ulw8tnMDGBoOUGOc",
  "name": "Unearthly Terrain",
  "type": "feat",
  "img": "systems/pf1/icons/spells/light-royal-1.jpg",
  "system": {
    "description": {
      "value": "<p>You can twist the material world into the harsh, jagged edges and uneven angles of the outer planes. As a standard action, you can turn one 20- foot square into difficult terrain for 1 round per level.</p>\n<p>You may use this ability a number of times per day equal to 3 + your Charisma bonus.</p>"
    },
    "actions": [
      {
        "_id": "z8xtefrz9zkr0kj5",
        "name": "Use",
        "img": "systems/pf1/icons/spells/light-royal-1.jpg",
        "activation": {
          "type": "standard",
          "unchained": {
            "cost": 2,
            "type": "action"
          }
        },
        "duration": {
          "value": "@cl",
          "units": "round"
        },
        "target": {
          "value": "20-ft. radius around you"
        },
        "range": {
          "units": "personal"
        },
        "actionType": ""
      }
    ],
    "uses": {
      "per": "day",
      "maxFormula": "3 + @abilities.cha.mod"
    },
    "tag": "classFeat_unearthlyTerrain",
    "useCustomTag": true,
    "subType": "classFeat",
    "associations": {
      "classes": ["Oracle"]
    },
    "abilityType": "su"
  }
}
