{
  "_id": "J0CtwXcv94eGCSaW",
  "name": "Unholy Resilience",
  "type": "feat",
  "img": "systems/pf1/icons/skills/yellow_08.jpg",
  "system": {
    "description": {
      "value": "<p>At 2nd level, an antipaladin gains a bonus equal to his Charisma bonus (if any) on all saving throws.</p>"
    },
    "changes": [
      {
        "_id": "p8o94rga",
        "formula": "max(0, @abilities.cha.mod)",
        "subTarget": "allSavingThrows",
        "modifier": "untyped"
      }
    ],
    "tag": "classFeat_unholyResilience",
    "useCustomTag": true,
    "subType": "classFeat",
    "associations": {
      "classes": ["Antipaladin"]
    },
    "abilityType": "su"
  }
}
