{
  "_id": "GknWjSrGmmB9Q5o9",
  "name": "Unnatural Aura (1 pt)",
  "type": "feat",
  "img": "systems/pf1/icons/skills/blue_26.jpg",
  "system": {
    "description": {
      "value": "<p>An eidolon is obviously of unnatural origin. Normal animals do not willingly approach the eidolon unless the animal's master makes a DC 25 Handle Animal, Ride, or wild empathy check.</p>"
    },
    "tag": "classFeat_unnaturalAura1Pt",
    "useCustomTag": true,
    "subType": "classFeat",
    "associations": {
      "classes": ["Eidolon"]
    },
    "abilityType": "su"
  }
}
