{
  "_id": "8IwPTC6WBPvcHNAM",
  "name": "Valor Inquisition",
  "type": "feat",
  "img": "systems/pf1/icons/items/inventory/badge-cross.jpg",
  "system": {
    "description": {
      "value": "<p><b>Granted Powers:</b> It takes courage to confront the enemies of your faith.</p>"
    },
    "tags": ["Inquisition", "Valor Inquisition"],
    "tag": "classFeat_valorInquisition",
    "useCustomTag": true,
    "subType": "classFeat",
    "associations": {
      "classes": ["Inquisitor"]
    }
  }
}
