{
  "_id": "WUFd7HiRakgydhaW",
  "name": "Vampiric Cunning",
  "type": "feat",
  "img": "systems/pf1/icons/skills/beast_02.jpg",
  "system": {
    "description": {
      "value": "<p>The vampire hunter gains a bonus on <em>Perception</em> and <em>Stealth</em> checks equal to half his level. At 8th level, he can move at his normal <em>speed</em> while using <em>Stealth</em> with no penalty. At 16th level, the vampire hunter can use <em>Stealth</em> while charging (but not while making any other attack); when charging (and only when charging), he can attempt a <em>Stealth</em> check even if he lacks <em>cover</em> relative to his target.</p>"
    },
    "actions": [
      {
        "_id": "zx0irtijbps8sx54",
        "name": "Use",
        "img": "systems/pf1/icons/skills/beast_02.jpg",
        "activation": {
          "type": "passive",
          "unchained": {
            "type": "passive"
          }
        },
        "actionType": ""
      }
    ],
    "changes": [
      {
        "_id": "u1900evo",
        "formula": "floor(@classes.vampirehunter.level / 2)",
        "subTarget": "skill.per",
        "modifier": "untyped"
      },
      {
        "_id": "nxddvbsp",
        "formula": "floor(@classes.vampirehunter.level / 2)",
        "subTarget": "skill.ste",
        "modifier": "untyped"
      }
    ],
    "tag": "classFeat_vampiricCunning",
    "useCustomTag": true,
    "subType": "classFeat",
    "associations": {
      "classes": ["Vampire Hunter"]
    },
    "abilityType": "su"
  }
}
