{
  "_id": "Gqo2HXbYMeF43B6l",
  "name": "Venom Infusion",
  "type": "feat",
  "img": "systems/pf1/icons/spells/runes-blue-1.jpg",
  "system": {
    "description": {
      "value": "<p><b>Element</b> universal; <b>Type</b> substance infusion; <b>Level</b> 4; <b>Burn</b> 3<br><b>Prerequisite</b> venom speaker<br><b>Associated Blasts</b> any simple or composite<br><b>Saving Throw</b> Fortitude negates</p>\n<p>All of your blasts are mildly toxic. Creatures that take damage from your blast are sickened for 1 round.</p>"
    },
    "actions": [
      {
        "_id": "by9g2bvvbpgm6d9e",
        "name": "Use",
        "img": "systems/pf1/icons/spells/runes-blue-1.jpg",
        "actionType": "save",
        "save": {
          "type": "fort",
          "description": "Fortitude negates"
        }
      }
    ],
    "tag": "classFeat_venomInfusion",
    "useCustomTag": true,
    "subType": "classFeat",
    "associations": {
      "classes": ["Kineticist"]
    }
  }
}
