{
  "_id": "aaTBqEU1ERJYFD5j",
  "name": "Victory or Death",
  "type": "feat",
  "img": "systems/pf1/icons/skills/red_05.jpg",
  "system": {
    "description": {
      "value": "<p>At 20th level, you are immune to paralysis and petrification, as well as to the stunned, dazed, and staggered conditions. You have these benefits constantly, even while not bloodraging.</p>"
    },
    "tag": "classFeat_victoryOrDeath",
    "useCustomTag": true,
    "subType": "classFeat",
    "associations": {
      "classes": ["Bloodrager"]
    },
    "abilityType": "su"
  }
}
