{
  "_id": "ozDR6FwV88blNopw",
  "name": "Waverider",
  "type": "feat",
  "img": "systems/pf1/icons/items/inventory/banner-red.jpg",
  "system": {
    "description": {
      "value": "<p>At 2nd level, the cavalier gains a swim speed equal to his unmodified base land speed. If he already has a swim speed, his swim speed increases by 10 feet, and if he and his mount both have a swim speed, the mount’s swim speed also increases by 10 feet. He gains a +1 morale bonus on damage rolls when underwater.</p>"
    },
    "tag": "classFeat_waverider",
    "useCustomTag": true,
    "subType": "classFeat",
    "associations": {
      "classes": ["Cavalier"]
    },
    "abilityType": "ex"
  }
}
