{
  "_id": "qCSvyJt8O7tNF5QC",
  "name": "Weather Domain",
  "type": "feat",
  "img": "systems/pf1/icons/skills/yellow_39.jpg",
  "system": {
    "description": {
      "value": "<p><b>Granted Powers:</b> With power over storm and sky, you can call down the wrath of the gods upon the world below.</p>\n<p><b>Domain Spells:</b></p>\n<ul>\n<li>1st—@Compendium[pf1.spells.tuh5vc2bojaws3ig]{Obscuring Mist}</li>\n<li>2nd—@Compendium[pf1.spells.g33euis7yi9pwddy]{Fog Cloud}</li>\n<li>3rd—@Compendium[pf1.spells.rrheoc0h80mbss7z]{Call Lightning}</li>\n<li>4th—@Compendium[pf1.spells.qnp4eosajai8s3sf]{Sleet Storm}</li>\n<li>5th—@Compendium[pf1.spells.t1uhggjfimtabp4v]{Ice Storm}</li>\n<li>6th—@Compendium[pf1.spells.g9koefk7x9szoheo]{Control Winds}</li>\n<li>7th—@Compendium[pf1.spells.578t0lra5ll3aifs]{Control Weather}</li>\n<li>8th—@Compendium[pf1.spells.i9greyz3c0ap32vi]{Whirlwind}</li>\n<li>9th—@Compendium[pf1.spells.n4e35m6qu9nmkhgm]{Storm Of Vengeance}</li>\n</ul>"
    },
    "tag": "classFeat_weatherDomain",
    "useCustomTag": true,
    "subType": "classFeat",
    "associations": {
      "classes": ["Cleric"]
    }
  }
}
