{
  "_id": "wew6ophJrcab24m6",
  "name": "Well-Versed",
  "type": "feat",
  "img": "systems/pf1/icons/feats/extra-performance.png",
  "system": {
    "description": {
      "value": "<p>At 2nd level, the bard becomes resistant to the bardic performance of others, and to sonic effects in general. The bard gains a +4 bonus on saving throws made against bardic performance, sonic, and language-dependent effects.</p>"
    },
    "tag": "classFeat_wellversed",
    "useCustomTag": true,
    "subType": "classFeat",
    "associations": {
      "classes": ["Bard"]
    },
    "abilityType": "ex"
  }
}
