{
  "_id": "P5QhzMrjGHgPZK8v",
  "name": "Whisper of Ancients",
  "type": "feat",
  "img": "systems/pf1/icons/spells/shielding-spirit-2.jpg",
  "system": {
    "description": {
      "value": "<p>The psychic can send her consciousness into the Astral Plane for a glimpse of synchronous information. While casting a linked divination spell, the psychic can spend 1 point from her phrenic pool to gain a +2 bonus on any associated skill check.</p>\n<p>She can spend 2 points from her phrenic pool to instead gain a +4 bonus.</p>"
    },
    "actions": [
      {
        "_id": "vlcp1ia63vd604lv",
        "name": "Use",
        "img": "systems/pf1/icons/spells/shielding-spirit-2.jpg",
        "activation": {
          "type": "free",
          "unchained": {
            "type": "free"
          }
        },
        "actionType": ""
      }
    ],
    "tag": "classFeat_whisperOfAncients",
    "useCustomTag": true,
    "subType": "classFeat",
    "associations": {
      "classes": ["Psychic"]
    },
    "abilityType": "ex"
  }
}
