{
  "_id": "SBOOoBEHUIiAsagP",
  "name": "Willful Ignorance",
  "type": "feat",
  "img": "systems/pf1/icons/skills/violet_26.jpg",
  "system": {
    "description": {
      "value": "<p>The subject gains the ability to tell one undetectable lie. When the subject attempts to lie, the mesmerist can trigger this trick. That particular lie resists truth-detecting magic, and creatures attempting to use such magic must succeed at a caster level check against a DC equal to 15 + the mesmerist’s class level to succeed; failure means the magic doesn’t detect the subject’s lie or force her to speak only the truth.</p>"
    },
    "tag": "classFeat_willfulIgnorance",
    "useCustomTag": true,
    "subType": "classFeat",
    "associations": {
      "classes": ["Mesmerist"]
    }
  }
}
