{
  "_id": "IcChR6pf8RMqs4yK",
  "name": "Wings of Heaven",
  "type": "feat",
  "img": "systems/pf1/icons/spells/haste-royal-2.jpg",
  "system": {
    "description": {
      "value": "<p>At 9th level, you can sprout feathery wings and fly for a number of minutes per day equal to your sorcerer level, with a speed of 60 feet and good maneuverability. This duration does not need to be consecutive, but it must be used in 1 minute increments.</p>"
    },
    "actions": [
      {
        "_id": "u5pazts9h7e6wlpa",
        "name": "Use",
        "img": "systems/pf1/icons/spells/haste-royal-2.jpg",
        "activation": {
          "type": "swift",
          "unchained": {
            "type": "action"
          }
        },
        "duration": {
          "value": "1",
          "units": "minute"
        },
        "target": {
          "value": "self"
        },
        "range": {
          "units": "personal"
        },
        "actionType": ""
      }
    ],
    "uses": {
      "per": "day",
      "maxFormula": "@classes.sorcerer.level"
    },
    "tag": "classFeat_wingsOfHeaven",
    "useCustomTag": true,
    "subType": "classFeat",
    "associations": {
      "classes": ["Sorcerer"]
    },
    "abilityType": "su"
  }
}
