{
  "_id": "QTEheqVjpwGdGN3v",
  "name": "Wood Bond",
  "type": "feat",
  "img": "systems/pf1/icons/spells/light-royal-1.jpg",
  "system": {
    "description": {
      "value": "<p>Your mystical bond with wood is such that your weapons become an extension of your body. You gain a +1 competence bonus on attack rolls when wielding a weapon made of or mostly consisting of wood (such as a bow, club, quarterstaff, or spear).</p>\n<p>This bonus increases by +1 at 5th level and every five levels thereafter.</p>"
    },
    "actions": [
      {
        "_id": "uuj4buy59oimuqop",
        "name": "Use",
        "img": "systems/pf1/icons/spells/light-royal-1.jpg",
        "activation": {
          "type": "passive",
          "unchained": {
            "type": "passive"
          }
        },
        "actionType": ""
      }
    ],
    "changes": [
      {
        "_id": "z5ttwk4b",
        "formula": "1 + floor(@classes.oracle.level / 5)",
        "subTarget": "mattack",
        "modifier": "competence"
      }
    ],
    "tag": "classFeat_woodBond",
    "useCustomTag": true,
    "subType": "classFeat",
    "associations": {
      "classes": ["Oracle"]
    },
    "abilityType": "ex"
  }
}
