{
  "_id": "dsyhOjkMNJMu2KCs",
  "name": "Wood Armor",
  "type": "feat",
  "img": "systems/pf1/icons/spells/light-royal-1.jpg",
  "system": {
    "description": {
      "value": "<p>You can conjure wooden armor around yourself, which grants you a +4 armor bonus.</p>\n<p>At 7th level, and every four levels thereafter, this bonus increases by +2.</p>\n<p>At 13th level, this armor grants you DR 5/slashing.</p>\n<p>You can use this armor for 1 hour per day per oracle level. This duration does not need to be consecutive, but it must be spent in 1-hour increments. The armor vanishes if you remove it.</p>"
    },
    "actions": [
      {
        "_id": "o9xvuxhjqnd2gw4t",
        "name": "Use",
        "img": "systems/pf1/icons/spells/light-royal-1.jpg",
        "activation": {
          "type": "standard",
          "unchained": {
            "cost": 2,
            "type": "action"
          }
        },
        "duration": {
          "value": "1",
          "units": "hour"
        },
        "target": {
          "value": "self"
        },
        "range": {
          "units": "personal"
        },
        "actionType": ""
      }
    ],
    "uses": {
      "per": "day",
      "maxFormula": "@classes.oracle.level"
    },
    "tag": "classFeat_woodArmor",
    "useCustomTag": true,
    "subType": "classFeat",
    "associations": {
      "classes": ["Oracle"]
    },
    "abilityType": "su"
  }
}
