{
  "_id": "BAR9ZWd9r78OOgEJ",
  "name": "Zeal Inquisition",
  "type": "feat",
  "img": "systems/pf1/icons/items/inventory/badge-cross.jpg",
  "system": {
    "description": {
      "value": "<p><b>Granted Powers:</b> An inquisitor needs unyielding zeal in order to make sure her deity's work is done.</p>"
    },
    "tag": "classFeat_zealInquisition",
    "useCustomTag": true,
    "subType": "classFeat",
    "associations": {
      "classes": ["Inquisitor"]
    }
  }
}
