{
  "_id": "dVqLY99ECYnLeoB5",
  "name": "Cat's Grace",
  "type": "buff",
  "img": "systems/pf1/icons/spells/runes-orange-1.jpg",
  "system": {
    "description": {
      "value": "<p>The subject has a +4 enhancement bonus to Dexterity.</p>"
    },
    "changes": [
      {
        "_id": "67mmsygc",
        "formula": "4",
        "subTarget": "dex",
        "modifier": "enh"
      }
    ],
    "level": "3",
    "duration": {
      "value": "@item.level",
      "units": "minute"
    }
  }
}
