{
  "_id": "bleCnwZmMAOu4nE4",
  "name": "Mutagen, Dex",
  "type": "buff",
  "img": "icons/tools/laboratory/vial-orange.webp",
  "system": {
    "changes": [
      {
        "_id": "xm326qun",
        "formula": "4",
        "subTarget": "dex",
        "modifier": "alchemical"
      },
      {
        "_id": "4gdkxux3",
        "formula": "-2",
        "subTarget": "wis",
        "modifier": "alchemical"
      },
      {
        "_id": "l0cf69i5",
        "formula": "2",
        "subTarget": "nac",
        "modifier": "alchemical"
      }
    ],
    "tag": "mutagenDex",
    "level": "1",
    "duration": {
      "value": "@item.level * 10",
      "units": "minute"
    },
    "hideFromToken": true
  }
}
