{
  "id": "pf1",
  "name": "pf1",
  "title": "Pathfinder 1",
  "description": "A comprehensive game system for running games of Pathfinder 1 in the Foundry VTT environment.",
  "version": "0.82.5",
  "authors": [
    { "name": "Furyspark", "discord": "Furyspark#7513" },
    { "name": "Noon", "discord": "Noon#3951" },
    { "name": "Ethaks", "discord": "Ethaks#2903", "ko-fi": "ethaks", "url": "https://gitlab.com/Ethaks" },
    { "name": "MKAh", "discord": "Mana#4176", "ko-fi": "mkahvi", "url": "https://gitlab.com/mkahvi" }
  ],
  "esmodules": ["pf1.js"],
  "styles": ["pf1.css"],
  "packFolders": [
    {
      "name": "Equipment",
      "packs": ["weapons-and-ammo", "armors-and-shields", "items"],
      "color": "#777777"
    },
    {
      "name": "Character Building",
      "packs": [
        "races",
        "classes",
        "racialhd",
        "class-abilities",
        "mythicpaths",
        "feats",
        "monster-templates",
        "monster-abilities"
      ],
      "color": "#996300"
    },
    {
      "name": "Roll Tables",
      "packs": ["roll-tables", "ultimate-equipment"],
      "color": "#005755"
    }
  ],
  "packs": [
    {
      "name": "classes",
      "label": "Classes",
      "path": "packs/classes.db",
      "type": "Item",
      "ownership": {
        "PLAYER": "OBSERVER"
      }
    },
    {
      "name": "mythicpaths",
      "label": "Mythic Paths",
      "path": "packs/mythic-paths.db",
      "type": "Item",
      "ownership": {
        "PLAYER": "OBSERVER"
      }
    },
    {
      "name": "commonbuffs",
      "label": "Common Buffs",
      "path": "packs/commonbuffs.db",
      "type": "Item",
      "ownership": {
        "PLAYER": "OBSERVER"
      }
    },
    {
      "name": "spells",
      "label": "Spells",
      "path": "packs/spells.db",
      "type": "Item",
      "ownership": {
        "PLAYER": "OBSERVER"
      }
    },
    {
      "name": "feats",
      "label": "Feats",
      "path": "packs/feats.db",
      "type": "Item",
      "ownership": {
        "PLAYER": "OBSERVER"
      }
    },
    {
      "name": "items",
      "label": "Items",
      "path": "packs/items.db",
      "type": "Item",
      "ownership": {
        "PLAYER": "OBSERVER"
      }
    },
    {
      "name": "armors-and-shields",
      "label": "Armor and Shields",
      "path": "packs/armors-and-shields.db",
      "type": "Item",
      "ownership": {
        "PLAYER": "OBSERVER"
      }
    },
    {
      "name": "weapons-and-ammo",
      "label": "Weapons and Ammo",
      "path": "packs/weapons-and-ammo.db",
      "type": "Item",
      "ownership": {
        "PLAYER": "OBSERVER"
      }
    },
    {
      "name": "monster-abilities",
      "label": "Monster Abilities",
      "path": "packs/monster-abilities.db",
      "type": "Item",
      "ownership": {
        "PLAYER": "OBSERVER"
      }
    },
    {
      "name": "racialhd",
      "label": "Racial HD",
      "path": "packs/racial-hd.db",
      "type": "Item",
      "ownership": {
        "PLAYER": "OBSERVER"
      }
    },
    {
      "name": "races",
      "label": "Races",
      "path": "packs/races.db",
      "type": "Item",
      "ownership": {
        "PLAYER": "OBSERVER"
      }
    },
    {
      "name": "class-abilities",
      "label": "Class Abilities",
      "path": "packs/class-abilities.db",
      "type": "Item",
      "ownership": {
        "PLAYER": "OBSERVER"
      }
    },
    {
      "name": "monster-templates",
      "label": "Monster Templates",
      "path": "packs/monster-templates.db",
      "type": "Item",
      "ownership": {
        "PLAYER": "OBSERVER"
      }
    },
    {
      "name": "sample-macros",
      "label": "Sample Macros",
      "path": "packs/sample-macros.db",
      "type": "Macro",
      "ownership": {
        "PLAYER": "OBSERVER"
      }
    },
    {
      "name": "roll-tables",
      "label": "Roll Tables",
      "path": "packs/roll-tables.db",
      "type": "RollTable",
      "ownership": {
        "PLAYER": "OBSERVER"
      }
    },
    {
      "name": "ultimate-equipment",
      "label": "Ultimate Equipment",
      "path": "packs/ultimate-equipment.db",
      "type": "RollTable",
      "ownership": {
        "PLAYER": "OBSERVER"
      }
    },
    {
      "name": "pf1e-rules",
      "label": "Pathfinder 1e Rules",
      "path": "packs/pf1e-rules.db",
      "type": "JournalEntry",
      "ownership": {
        "PLAYER": "OBSERVER"
      }
    }
  ],
  "languages": [
    { "lang": "en", "name": "English", "path": "lang/en.json" },
    { "lang": "de", "name": "Deutsch (German)", "path": "lang/de.json" },
    { "lang": "fr", "name": "Française (French)", "path": "lang/fr.json" },
    { "lang": "it", "name": "Italiano (Italian)", "path": "lang/it.json" },
    { "lang": "es", "name": "Español (Spanish)", "path": "lang/es.json" },
    { "lang": "cn", "name": "Chinese", "path": "lang/cn.json" },
    { "lang": "pt-BR", "name": "Português (Brasil)", "path": "lang/pt_BR.json" }
  ],
  "socket": true,
  "initiative": "1d20 + @attributes.init.total + (@attributes.init.total / 100)",
  "gridDistance": 5,
  "gridUnits": "ft",
  "primaryTokenAttribute": "attributes.hp",
  "secondaryTokenAttribute": null,
  "minimumCoreVersion": "10",
  "compatibility": { "minimum": "10", "verified": "11", "maximum": "11" },
  "relationships": {
    "recommends": [{ "id": "pf-content", "type": "module" }]
  },
  "bugs": "https://gitlab.com/foundryvtt_pathfinder1e/foundryvtt-pathfinder1/-/issues",
  "flags": { "allowBugReporter": true },
  "url": "https://gitlab.com/foundryvtt_pathfinder1e/foundryvtt-pathfinder1",
  "manifest": "https://gitlab.com/foundryvtt_pathfinder1e/foundryvtt-pathfinder1/-/releases/permalink/latest/downloads/system.json",
  "download": "https://gitlab.com/foundryvtt_pathfinder1e/foundryvtt-pathfinder1/-/releases/permalink/latest/downloads/pf1.zip"
}
