{
  "_id": "4wq7yxu0wyl0na7y",
  "name": "Adhesive Blood",
  "type": "spell",
  "img": "systems/pf1/icons/misc/magic-swirl.png",
  "system": {
    "actions": [
      {
        "_id": "mrub1n7twvoibubj",
        "name": "Use",
        "img": "systems/pf1/icons/misc/magic-swirl.png",
        "activation": {
          "type": "standard",
          "unchained": {
            "cost": 2,
            "type": "action"
          }
        },
        "duration": {
          "value": "1 minute/level"
        },
        "target": {
          "value": "you"
        },
        "range": {
          "units": "personal"
        },
        "actionType": "spellsave",
        "save": {
          "type": "ref",
          "description": "Reflex negates (see text)"
        }
      }
    ],
    "learnedAt": {
      "class": {
        "sorcerer": 2,
        "wizard": 2,
        "alchemist": 2,
        "witch": 2,
        "bloodrager": 2,
        "psychic": 2
      }
    },
    "level": 2,
    "school": "trs",
    "components": {
      "verbal": true,
      "somatic": true
    },
    "sr": false,
    "shortDescription": "<p>Your blood thickens to becomes a glue-like substance upon contact with air. A piercing or slashing weapon that deals hit point damage to you is stuck fast unless the wielder succeeds at a Reflex save. A creature can pry off a stuck weapon on its turn as a standard action with a successful Strength check against the spell's DC. Strong alcohol or universal solvent dissolves the adhesive. The glue breaks down 5 rounds after you die, or when the duration ends. This glue has no while underwater or in environments that lack air.</p>"
  }
}
