{
  "_id": "em3w2o5wq7akr5sx",
  "name": "Adjustable Polymorph",
  "type": "spell",
  "img": "systems/pf1/icons/misc/magic-swirl.png",
  "system": {
    "actions": [
      {
        "_id": "eb87nqurtqp8z5o4",
        "name": "Use",
        "img": "systems/pf1/icons/misc/magic-swirl.png",
        "activation": {
          "type": "standard",
          "unchained": {
            "cost": 2,
            "type": "action"
          }
        },
        "duration": {
          "value": "1 minute/level (D)"
        },
        "target": {
          "value": "you"
        },
        "range": {
          "units": "personal"
        },
        "actionType": ""
      }
    ],
    "learnedAt": {
      "class": {
        "sorcerer": 4,
        "wizard": 4,
        "bard": 4,
        "alchemist": 4,
        "summoner": 4,
        "witch": 4,
        "magus": 4,
        "shaman": 4,
        "psychic": 4,
        "medium": 4,
        "unchained Summoner": 4
      }
    },
    "level": 4,
    "school": "trs",
    "subschool": "polymorph",
    "components": {
      "verbal": true,
      "somatic": true,
      "material": true
    },
    "materials": {
      "value": "a small piece of doppelganger flesh"
    },
    "sr": false,
    "shortDescription": "<p>This spell functions as <i><i>alter</i> self</i>, except you can as a swift action <i>alter</i> the disguise (within the limitations of <i><i>alter</i> self</i>).</p><p>For example, you could transform yourself into a halfling, then a lizardfolk, then an elf, and so on. You can change your form a number of times equal to your caster level.</p>"
  }
}
