{
  "_id": "w8v617tw8wjlcl53",
  "name": "Age Resistance, Lesser",
  "type": "spell",
  "img": "systems/pf1/icons/misc/magic-swirl.png",
  "system": {
    "actions": [
      {
        "_id": "dn1pabdux8b5efm7",
        "name": "Use",
        "img": "systems/pf1/icons/misc/magic-swirl.png",
        "activation": {
          "type": "standard",
          "unchained": {
            "cost": 2,
            "type": "action"
          }
        },
        "duration": {
          "value": "24 hours"
        },
        "target": {
          "value": "you"
        },
        "range": {
          "units": "personal"
        },
        "actionType": ""
      }
    ],
    "learnedAt": {
      "class": {
        "sorcerer": 4,
        "wizard": 4,
        "druid": 4,
        "alchemist": 3,
        "witch": 4,
        "psychic": 4,
        "occultist": 3,
        "hunter": 4
      }
    },
    "level": 4,
    "school": "trs",
    "components": {
      "verbal": true,
      "somatic": true
    },
    "sr": false,
    "shortDescription": "<p>You ignore the physical detriments of being middle-aged. This spell does not cause you to look younger, nor does it prevent you from dying of old age, but as long as the spell is in effect, you ignore the -1 penalties to Strength, Dexterity, and Constitution that accrue once you become middle-aged. You retain the agerelated bonuses to Intelligence, Wisdom, and Charisma while under the effects of this spell. Additional penalties that you accrue upon becoming old or venerable apply in full.</p>"
  }
}
