{
  "_id": "w9nstnema8nk0p3h",
  "name": "Align Weapon, Communal",
  "type": "spell",
  "img": "systems/pf1/icons/misc/magic-swirl.png",
  "system": {
    "actions": [
      {
        "_id": "jyztvznlzyboz6mv",
        "name": "Use",
        "img": "systems/pf1/icons/misc/magic-swirl.png",
        "activation": {
          "type": "standard",
          "unchained": {
            "cost": 2,
            "type": "action"
          }
        },
        "duration": {
          "value": "1 minute/level"
        },
        "target": {
          "value": "weapons or projectiles touched"
        },
        "range": {
          "units": "touch"
        },
        "actionType": "spellsave",
        "save": {
          "type": "will",
          "description": "Will negates (harmless, object)"
        }
      }
    ],
    "learnedAt": {
      "class": {
        "cleric": 3,
        "oracle": 3,
        "inquisitor": 3
      }
    },
    "level": 3,
    "school": "trs",
    "types": "see text",
    "components": {
      "verbal": true,
      "somatic": true,
      "divineFocus": 1
    },
    "shortDescription": "<p>This spell functions as <i>align weapon</i>, except you divide the duration in 1-minute increments between any number of touched weapons. Every group of up to 50 projectiles (which must be together at the time of casting) counts as one weapon for the purpose of dividing the spell's duration.</p>"
  }
}
