{
  "_id": "jubomtiq6ogxcqs7",
  "name": "Apsu's Shining Scales",
  "type": "spell",
  "img": "systems/pf1/icons/misc/magic-swirl.png",
  "system": {
    "actions": [
      {
        "_id": "bnagq67m2rqddvsp",
        "name": "Use",
        "img": "systems/pf1/icons/misc/magic-swirl.png",
        "activation": {
          "type": "standard",
          "unchained": {
            "cost": 2,
            "type": "action"
          }
        },
        "duration": {
          "value": "1 minute/level"
        },
        "target": {
          "value": "you"
        },
        "range": {
          "units": "personal"
        },
        "actionType": "spellsave",
        "save": {
          "type": "will",
          "description": "Will negates (harmless)"
        }
      }
    ],
    "learnedAt": {
      "class": {
        "sorcerer": 3,
        "wizard": 3,
        "alchemist": 3,
        "bloodrager": 3,
        "medium": 3
      }
    },
    "level": 3,
    "school": "evo",
    "types": "draconic, good",
    "components": {
      "verbal": true,
      "somatic": true,
      "material": true
    },
    "materials": {
      "value": "a drop of mercury"
    },
    "sr": false,
    "shortDescription": "<p>You envelop your body with silver radiance that manifests as scales surrounding your body, granting you a +5 armor bonus to your AC and causing your natural attacks and unarmed strikes to bypass damage reduction as if they were good and silver weapons.  Whenever you attack with a breath weapon (including effects that are similar to a dragon's breath weapon, such as an <i>elixir of dragon breath</i> or the dragon's breathAPG spell), you can discharge the Apsu's shining scales spell as a swift action in order to infuse your breath with silver light, causing any evil creature caught within the area of the breath to take a -4 penalty on its Reflex save and to lose the benefits of the evasion ability against that breath weapon attack. Evil creatures with improved evasion are instead treated as if they had only evasion when attempting to save against this breath weapon attack.  Clerics, inquisitors, oracles, paladins, and warpriests who worship Apsu add Apsu's shining scales to their class spell lists as a 3rd-level spell.</p>"
  }
}
