{
  "_id": "ufo5z8s3u6ff45t0",
  "name": "Aspect of the Bear",
  "type": "spell",
  "img": "systems/pf1/icons/misc/magic-swirl.png",
  "system": {
    "actions": [
      {
        "_id": "ohipt1bgaxkzlmge",
        "name": "Use",
        "img": "systems/pf1/icons/misc/magic-swirl.png",
        "activation": {
          "type": "standard",
          "unchained": {
            "cost": 2,
            "type": "action"
          }
        },
        "duration": {
          "value": "1 minute/level"
        },
        "target": {
          "value": "you"
        },
        "range": {
          "units": "personal"
        },
        "actionType": ""
      }
    ],
    "learnedAt": {
      "class": {
        "druid": 2,
        "ranger": 2,
        "hunter": 2
      }
    },
    "level": 2,
    "school": "trs",
    "subschool": "polymorph",
    "components": {
      "verbal": true,
      "somatic": true,
      "divineFocus": 1
    },
    "sr": false,
    "shortDescription": "<p>You take on an aspect of a bear. You gain a +2 enhancement bonus to natural armor and a +2 enhancement bonus on CMB rolls. You can also perform bull rush, grapple, and overrun combat maneuvers without provoking attacks of opportunity.</p>"
  }
}
