{
  "_id": "hojjvgtu18r6x9yy",
  "name": "Ban Corruption",
  "type": "spell",
  "img": "systems/pf1/icons/misc/magic-swirl.png",
  "system": {
    "actions": [
      {
        "_id": "qjzab6tz6ick6vej",
        "name": "Use",
        "img": "systems/pf1/icons/misc/magic-swirl.png",
        "activation": {
          "type": "standard",
          "unchained": {
            "cost": 2,
            "type": "action"
          }
        },
        "duration": {
          "value": "concentration plus 1 round/level, up to 1 hour/level"
        },
        "actionType": "spellsave",
        "save": {
          "type": "will",
          "description": "Will negates"
        },
        "spellArea": "30-ft.-radius emanation centered on you"
      }
    ],
    "learnedAt": {
      "class": {
        "cleric": 5,
        "oracle": 5,
        "paladin": 4,
        "inquisitor": 4,
        "shaman": 5,
        "medium": 3,
        "occultist": 4
      }
    },
    "level": 5,
    "school": "abj",
    "types": "good",
    "components": {
      "verbal": true,
      "somatic": true,
      "focus": true
    },
    "materials": {
      "focus": "a ceremonial dagger"
    },
    "shortDescription": "<p>You strip all creatures within the emanation of any gifts associated with corruptions (see page 14). Abilities associated with corruptions cease to function, as if they were magically dispelled. The corruption stains still fully affect creatures. A creature that enters the emanation and fails its saving throw loses its gifts until the spell's duration ends, even if it leaves the emanation, but a successful saving throw renders a creature immune to the spell, even if it enters and exits the emanation several times.</p>"
  }
}
