{
  "_id": "w5ctdt1qctqt5let",
  "name": "Bestow Auras",
  "type": "spell",
  "img": "systems/pf1/icons/misc/magic-swirl.png",
  "system": {
    "actions": [
      {
        "_id": "j5fa7ezb95km1qql",
        "name": "Use",
        "img": "systems/pf1/icons/misc/magic-swirl.png",
        "activation": {
          "type": "standard",
          "unchained": {
            "cost": 2,
            "type": "action"
          }
        },
        "duration": {
          "value": "1 minute/level (D)"
        },
        "target": {
          "value": "one creature"
        },
        "range": {
          "units": "close"
        },
        "actionType": "spellsave",
        "save": {
          "type": "will",
          "description": "Will negates (harmless)"
        }
      }
    ],
    "learnedAt": {
      "class": {
        "paladin": 3,
        "antipaladin": 3
      }
    },
    "level": 3,
    "school": "abj",
    "components": {
      "verbal": true,
      "somatic": true
    },
    "shortDescription": "<p>You transfer one or more of your paladin or antipaladin auras (such as aura of courage and aura of resolve) to another creature. You retain the personal effect of that aura, but the target becomes the center of the aura effect instead of you.</p><p>For example, if you transfer your aura of courage, you remain immune to fear, but the target becomes the center of the aura that grants a +4 morale bonus on saves against fear effects. If an aura functions only when you are conscious, the transferred aura functions only when the target is conscious.</p><p>If an aura functions only when you expend uses of another ability (such as with aura of justice or aura of vengeance), the transferred aura functions only if the target has that other ability and expends uses of it to activate the aura.</p><p>You cannot transfer an aura that affects only you (such as aura of good).</p>"
  }
}
