{
  "_id": "g2nrn75rqxt1alcl",
  "name": "Bladed Dash, Greater",
  "type": "spell",
  "img": "systems/pf1/icons/misc/magic-swirl.png",
  "system": {
    "actions": [
      {
        "_id": "l62lb3wrljfw1um5",
        "name": "Use",
        "img": "systems/pf1/icons/misc/magic-swirl.png",
        "activation": {
          "type": "standard",
          "unchained": {
            "cost": 2,
            "type": "action"
          }
        },
        "duration": {
          "value": "instantaneous"
        },
        "target": {
          "value": "you"
        },
        "range": {
          "units": "personal"
        },
        "actionType": ""
      }
    ],
    "learnedAt": {
      "class": {
        "bard": 5,
        "magus": 5
      }
    },
    "level": 5,
    "school": "trs",
    "components": {
      "verbal": true
    },
    "spellbook": "",
    "sr": false,
    "shortDescription": "<p>This spell functions like @Compendium[pf1.spells.vdmgs1xvnnobtg9y]{bladed dash}, save that you can make a single melee attack against every creature you pass during the 30 feet of your dash. You cannot attack an individual creature more than once with spell.</p>"
  }
}
