{
  "_id": "16ms1wen0vd3iezx",
  "name": "Blend with Surroundings",
  "type": "spell",
  "img": "systems/pf1/icons/misc/magic-swirl.png",
  "system": {
    "actions": [
      {
        "_id": "3bky4r1aztfd5e5e",
        "name": "Use",
        "img": "systems/pf1/icons/misc/magic-swirl.png",
        "activation": {
          "type": "round",
          "unchained": {
            "cost": 3,
            "type": "action"
          }
        },
        "duration": {
          "value": "10 minutes/level"
        },
        "target": {
          "value": "one creature"
        },
        "range": {
          "units": "close"
        },
        "actionType": "spellsave",
        "save": {
          "type": "fort",
          "description": "Fortitude negates (harmless) or Will disbelieves (if interacted with)"
        }
      }
    ],
    "learnedAt": {
      "class": {
        "sorcerer": 1,
        "wizard": 1,
        "cleric": 1,
        "oracle": 1,
        "druid": 1,
        "bard": 1,
        "summoner": 1,
        "witch": 1,
        "shaman": 1,
        "hunter": 1,
        "unchained Summoner": 1
      }
    },
    "school": "ill",
    "subschool": "glamer",
    "components": {
      "verbal": true,
      "somatic": true,
      "material": true,
      "divineFocus": 2
    },
    "materials": {
      "value": "a chess piece"
    },
    "shortDescription": "<p>This spell changes the appearance of the affected creature so that it better blends in with its surroundings. As chosen by you, the affected creature takes on the appearance of a statue, furniture, a tree, a bush, a rock, or another object of similar size. As long as the target stays still, it gains a +20 bonus on Stealth checks, and it can use Stealth even if it is being observed. The target's armor blends in perfectly with the illusory shape, and the target's armor check penalty on Stealth checks is negated for the duration of the spell. If the target moves at all while this spell is in effect, the spell ends.</p>"
  }
}
