{
  "_id": "MyyQSa5H4qYabx18",
  "name": "Bloodsworn Retribution",
  "type": "spell",
  "img": "icons/skills/wounds/blood-spurt-spray-red.webp",
  "system": {
    "actions": [
      {
        "_id": "ju56q9pmoti5le5g",
        "name": "Use",
        "img": "icons/skills/wounds/blood-spurt-spray-red.webp",
        "activation": {
          "type": "round"
        },
        "duration": {
          "value": "special (see text)"
        },
        "target": {
          "value": "you"
        },
        "range": {
          "units": "personal"
        },
        "uses": {
          "autoDeductChargesCost": "1 + @sl"
        },
        "actionType": ""
      }
    ],
    "uses": {
      "autoDeductChargesCost": ""
    },
    "learnedAt": {
      "class": {
        "cleric": 6,
        "oracle": 6,
        "hunter": 4,
        "paladin": 4,
        "ranger": 4,
        "warpriest": 6
      }
    },
    "level": 6,
    "school": "nec",
    "components": {
      "verbal": true,
      "somatic": true,
      "material": true
    },
    "materials": {
      "value": "your blood"
    },
    "spellbook": "",
    "sr": false,
    "shortDescription": "<p><em>Editor's Note:</em> In order to prepare this spell, the caster must spend an hour performing a ritual in which he beseeches <b>Dranngvit</b>. Further details can be found in <em>Pathfinder Companion: Dwarves of Golarion.</em></p><p>When you cast this spell, you cut yourself and swear an oath of retribution on your own blood. You decide how much damage you want to take from this attack, up to 25 points. This damage cannot be healed for as long as the spell is in effect. Anytime you perform an attack, save, or check that is directly related to the oath and brings you closer to the fulfillment of that oath, you gain a morale bonus to that roll equal to the number of hit points of damage you took from the oath divided by 5. The GM is the final arbiter over whether or not an action qualifies for this bonus. When you fulfill the oath (or choose to forsake it), the spell ends, and the lost hit points can be healed as normal.</p><p>For example, a notorious bandit leader killed Stigur’s brother, and Stigur wants to avenge his brother’s death. Stigur casts this spell and sacrifices 20 hit points. Thereafter Stigur gains a +4 morale bonus on attack rolls against the bandit leader’s minions, saves against spells from said minions, Intimidate checks to coerce an informant to tell him where the bandit leader is camped, and so on.</p>"
  }
}
