{
  "_id": "w76u0zl4b5e5ir3e",
  "name": "Break, Greater",
  "type": "spell",
  "img": "systems/pf1/icons/misc/magic-swirl.png",
  "system": {
    "actions": [
      {
        "_id": "ti05g62shccew0ah",
        "name": "Use",
        "img": "systems/pf1/icons/misc/magic-swirl.png",
        "activation": {
          "type": "round",
          "unchained": {
            "cost": 3,
            "type": "action"
          }
        },
        "duration": {
          "value": "instantaneous"
        },
        "target": {
          "value": "all Medium or smaller objects in a 30-ft. burst centered on you"
        },
        "range": {
          "value": "30",
          "units": "ft",
          "maxIncrements": "1"
        },
        "actionType": ""
      }
    ],
    "learnedAt": {
      "class": {
        "sorcerer": 6,
        "wizard": 6,
        "bloodrager": 4,
        "psychic": 6,
        "occultist": 6
      }
    },
    "level": 6,
    "school": "trs",
    "components": {
      "verbal": true,
      "somatic": true,
      "material": true
    },
    "materials": {
      "value": "an unbroken platinum tuning fork worth 100 gp",
      "gpValue": 100
    },
    "spellbook": "",
    "preparation": {
      "spontaneousPrepared": false
    },
    "shortDescription": "<p>You release a burst of destructive energy. Each Medium or smaller object in the area gains the broken condition unless it succeeds at a Fortitude saving throw. If a broken object fails this save, it is instead destroyed. Magic items can be broken by this spell, but not destroyed. Objects in your possession are not immune.</p>"
  }
}
