{
  "_id": "5lwbistj6waf2ei0",
  "name": "Brittle Portal",
  "type": "spell",
  "img": "systems/pf1/icons/misc/magic-swirl.png",
  "system": {
    "actions": [
      {
        "_id": "7crdc8mrqsho6wjv",
        "name": "Use",
        "img": "systems/pf1/icons/misc/magic-swirl.png",
        "activation": {
          "type": "standard",
          "unchained": {
            "cost": 2,
            "type": "action"
          }
        },
        "duration": {
          "value": "1 round/level"
        },
        "range": {
          "units": "close"
        },
        "actionType": "spellsave",
        "save": {
          "type": "will",
          "description": "Will negates (object)"
        },
        "spellArea": "5-ft.-radius spread"
      }
    ],
    "learnedAt": {
      "class": {
        "sorcerer": 2,
        "wizard": 2,
        "cleric": 2,
        "oracle": 2,
        "druid": 2,
        "witch": 2,
        "inquisitor": 2,
        "antipaladin": 2,
        "hunter": 2
      }
    },
    "level": 2,
    "school": "trs",
    "components": {
      "verbal": true,
      "somatic": true
    },
    "shortDescription": "<p>This spell weakens the bonds of existence, and reduces the hardness of any nonmagical surface within its area of effect by 2 per caster level. The spell is centered on a flat surface chosen by the caster, and the hardness reduction effect persists for the duration of the spell.</p>"
  }
}
