{
  "_id": "2wumtp2gzzcg8g5u",
  "name": "Burning Entanglement",
  "type": "spell",
  "img": "systems/pf1/icons/spells/shielding-fire-3.jpg",
  "system": {
    "actions": [
      {
        "_id": "7rbyecwzfwanbci3",
        "name": "Use",
        "img": "systems/pf1/icons/spells/shielding-fire-3.jpg",
        "activation": {
          "type": "standard",
          "unchained": {
            "cost": 2,
            "type": "action"
          }
        },
        "duration": {
          "value": "1 round/level"
        },
        "range": {
          "units": "long"
        },
        "measureTemplate": {
          "type": "circle",
          "size": "40"
        },
        "actionType": "spellsave",
        "save": {
          "type": "ref",
          "description": "Reflex negates or partial (see text)"
        },
        "spellArea": "40-ft.-radius spread"
      }
    ],
    "learnedAt": {
      "class": {
        "druid": 3,
        "ranger": 3,
        "witch": 3,
        "shaman": 3,
        "hunter": 3
      }
    },
    "level": 3,
    "school": "evo",
    "components": {
      "verbal": true,
      "somatic": true,
      "divineFocus": 1
    },
    "spellbook": "",
    "sr": false,
    "shortDescription": "<p>This spell functions as per <i>entangle</i>, except it sets the foliage on fire. A creature that begins its turn <i>entangle</i>d by the spell takes 4d6 points of fire damage (Reflex half), and a creature that begins its turn in the area but is not <i>entangle</i>d takes 2d6 points of fire damage (Reflex negates). Smoke rising from the vines partially obscures visibility. Creatures can see things in the smoke within 5 feet clearly, but attacks against anything farther away in the smoke must contend with concealment (20% miss chance). When the spell's duration expires, the vines burn away entirely.</p>"
  }
}
