{
  "_id": "tuie9FyaP6e35qMf",
  "name": "Carve Passage",
  "type": "spell",
  "img": "icons/magic/earth/barrier-stone-brown-green.webp",
  "system": {
    "actions": [
      {
        "_id": "5tgcydqf80wj09jj",
        "name": "Use",
        "img": "icons/magic/earth/barrier-stone-brown-green.webp",
        "activation": {
          "type": "standard"
        },
        "duration": {
          "value": "instantaneous"
        },
        "range": {
          "units": "close"
        },
        "uses": {
          "autoDeductChargesCost": "1 + @sl"
        },
        "actionType": "spellsave",
        "save": {
          "description": "see text"
        },
        "spellArea": "dirt or loose rock in one 5-ft. cube/level"
      }
    ],
    "learnedAt": {
      "class": {
        "arcanist": 5,
        "druid": 5,
        "hunter": 5,
        "sorcerer": 5,
        "wizard": 5
      }
    },
    "level": 5,
    "school": "trs",
    "types": "earth",
    "components": {
      "verbal": true,
      "somatic": true,
      "focus": true
    },
    "materials": {
      "focus": "a tiny diamond pick worth 500 gp"
    },
    "spellbook": "",
    "sr": false,
    "shortDescription": "<p>You can excavate and move an amount of snow, earth, dust, sand, and loose or packed rocks or ice chunks (each no more than 5 feet in diameter) whose volume fills one 5-foot cube per level. If you are buried, you can open a space around yourself and use any remaining cubes for tunneling. This spell is otherwise similar to @Compendium[pf1.spells.3v1k7qnzd13s5dj3]{Expeditious Excavation}. <em>Carve passage</em> has no effect on earth creatures or solid rock or ice.</p>"
  }
}
