{
  "_id": "im8z5kfg8ohowie9",
  "name": "Cloudkill",
  "type": "spell",
  "img": "systems/pf1/icons/misc/magic-swirl.png",
  "system": {
    "actions": [
      {
        "_id": "fsqtt01a869n1ted",
        "name": "Use",
        "img": "systems/pf1/icons/misc/magic-swirl.png",
        "activation": {
          "type": "standard",
          "unchained": {
            "cost": 2,
            "type": "action"
          }
        },
        "duration": {
          "value": "1 min./level"
        },
        "range": {
          "units": "medium"
        },
        "actionType": "spellsave",
        "save": {
          "type": "fort",
          "description": "Fortitude partial; see text"
        },
        "spellEffect": "cloud spreads in 20-ft. radius, 20 ft. high"
      }
    ],
    "learnedAt": {
      "class": {
        "sorcerer": 5,
        "wizard": 5,
        "witch": 5,
        "magus": 5,
        "spiritualist": 5,
        "unchained Summoner": 5
      },
      "subDomain": {
        "Venom": 6
      },
      "bloodline": {
        "Orc": 5
      }
    },
    "level": 5,
    "school": "con",
    "subschool": "creation",
    "components": {
      "verbal": true,
      "somatic": true
    },
    "sr": false,
    "shortDescription": "<p>This spell generates a bank of fog, similar to a <i>fog cloud</i>, except that its vapors are yellowish green and poisonous. These vapors automatically kill any living creature with 3 or fewer HD (no save).</p><p>A living creature with 4 to 6 HD is slain unless it succeeds on a Fortitude save (in which case it takes 1d4 points of Constitution damage on your turn each round while in the cloud).</p><p>A living creature with more than 6 HD takes 1d4 points of Constitution damage on your turn each round while in the cloud (a successful Fortitude save halves this damage). Holding one's breath doesn't help, but creatures immune to poison are unaffected by the spell.</p><p>Unlike a <i>fog cloud</i>, the <i>cloudkill</i> moves away from you at 10 feet per round, rolling along the surface of the ground.</p><p>Figure out the cloud's new spread each round based on its new point of origin, which is 10 feet farther away from the point of origin where you cast the spell.</p><p>Because the vapors are heavier than air, they sink to the lowest level of the land, even pouring down den or sinkhole openings. It cannot penetrate liquids, nor can it be cast underwater.</p>"
  }
}
