{
  "_id": "yrisj33ikqtddohw",
  "name": "Control Vermin",
  "type": "spell",
  "img": "systems/pf1/icons/misc/magic-swirl.png",
  "system": {
    "actions": [
      {
        "_id": "ccfvbbit2jk9vopc",
        "name": "Use",
        "img": "systems/pf1/icons/misc/magic-swirl.png",
        "activation": {
          "type": "standard",
          "unchained": {
            "cost": 2,
            "type": "action"
          }
        },
        "duration": {
          "value": "1 hour/level"
        },
        "target": {
          "value": "up to 1 HD/level of vermin, no two of which can be more than 30 ft. apart"
        },
        "range": {
          "units": "close"
        },
        "actionType": "spellsave",
        "save": {
          "type": "will",
          "description": "Will negates"
        }
      }
    ],
    "learnedAt": {
      "class": {
        "sorcerer": 3,
        "wizard": 3,
        "cleric": 3,
        "oracle": 3,
        "druid": 2,
        "ranger": 4,
        "witch": 2,
        "hunter": 2
      }
    },
    "level": 3,
    "school": "trs",
    "components": {
      "verbal": true,
      "somatic": true,
      "material": true,
      "divineFocus": 2
    },
    "materials": {
      "value": "a beetle"
    },
    "sr": false,
    "shortDescription": "<p>You and a number of allies less than or equal to your caster level designated upon casting can use Handle Animal and Ride checks to influence or control the targeted vermin as if they were animals and had animal-level intelligence.</p>"
  }
}
