{
  "_id": "3fe0fjpgv2qb9khz",
  "name": "Create Holds",
  "type": "spell",
  "img": "systems/pf1/icons/misc/magic-swirl.png",
  "system": {
    "actions": [
      {
        "_id": "wreztjfzt5iwwh9w",
        "name": "Use",
        "img": "systems/pf1/icons/misc/magic-swirl.png",
        "activation": {
          "type": "standard",
          "unchained": {
            "cost": 2,
            "type": "action"
          }
        },
        "duration": {
          "value": "1 hour/level (D)"
        },
        "range": {
          "units": "medium"
        },
        "actionType": "other",
        "spellEffect": "path of handholds"
      }
    ],
    "learnedAt": {
      "class": {
        "sorcerer": 4,
        "wizard": 4,
        "druid": 4,
        "ranger": 3,
        "hunter": 3
      }
    },
    "level": 4,
    "school": "trs",
    "components": {
      "verbal": true,
      "somatic": true,
      "material": true
    },
    "materials": {
      "value": "handful of pebbles"
    },
    "sr": false,
    "shortDescription": "<p>You create a path of handholds on earthen, plaster, stone, or wooden walls (not on walls made of metal or other, harder materials). The handholds are created in pairs and are approximately 3 feet apart, located in a specific path indicated by your gestures while casting the spell. The handholds' path can span up to 30 feet out from you plus an additional 10 feet per 3 caster levels (maximum 90 feet at 18th level). The handholds protrude approximately 6 inches from the wall, measure 10 inches lengthwise, and are perfectly suited for gripping with fingers or claws. At the end of the spell's duration, any creature being supported by the handholds immediately begins to fall.</p>"
  }
}
