{
  "_id": "1fkax61jr972560l",
  "name": "Create Variant Mummy",
  "type": "spell",
  "img": "systems/pf1/icons/misc/magic-swirl.png",
  "system": {
    "actions": [
      {
        "_id": "g32jxsin1rnrf28u",
        "name": "Use",
        "img": "systems/pf1/icons/misc/magic-swirl.png",
        "activation": {
          "type": "hour",
          "unchained": {
            "type": "hour"
          }
        },
        "duration": {
          "value": "instantaneous"
        },
        "target": {
          "value": "1 corpse steeped in a peat bog for at least 24 hours"
        },
        "range": {
          "units": "close"
        },
        "actionType": ""
      }
    ],
    "learnedAt": {
      "class": {
        "sorcerer": 7,
        "wizard": 7,
        "cleric": 7,
        "oracle": 7
      }
    },
    "level": 7,
    "school": "nec",
    "types": "evil",
    "components": {
      "verbal": true,
      "somatic": true,
      "material": true
    },
    "materials": {
      "value": "onyx gems worth 50 gp per HD of the undead to be created"
    },
    "sr": false,
    "shortDescription": "<p>This spell functions as <i>create undead</i> (Pathfinder <i>RPG Core Rulebook</i> 262), except it creates one of the following variant mummies: bog mummy, ice mummy, or Osirian tomb guardian.</p>"
  }
}
