{
  "_id": "dzctlcf0sy7o2fa3",
  "name": "Curse, Major",
  "type": "spell",
  "img": "systems/pf1/icons/misc/magic-swirl.png",
  "system": {
    "actions": [
      {
        "_id": "dknzidw7bhfc9k85",
        "name": "Use",
        "img": "systems/pf1/icons/misc/magic-swirl.png",
        "activation": {
          "type": "standard",
          "unchained": {
            "cost": 2,
            "type": "action"
          }
        },
        "duration": {
          "value": "permanent"
        },
        "target": {
          "value": "one creature"
        },
        "range": {
          "units": "close"
        },
        "actionType": "spellsave",
        "save": {
          "type": "will",
          "description": "Will negates"
        }
      }
    ],
    "learnedAt": {
      "class": {
        "sorcerer": 6,
        "wizard": 6,
        "cleric": 5,
        "oracle": 5,
        "witch": 5,
        "shaman": 5,
        "psychic": 6,
        "mesmerist": 4,
        "occultist": 5,
        "spiritualist": 5
      }
    },
    "level": 6,
    "school": "nec",
    "types": "curse",
    "components": {
      "verbal": true,
      "somatic": true
    },
    "shortDescription": "<p>This spell functions as <i>bestow curse</i>, except the DC to remove the curse is equal to the save DC + 5.</p>"
  }
}
