{
  "_id": "7ro7qm94j4d7bwfd",
  "name": "Debilitating Portent",
  "type": "spell",
  "img": "systems/pf1/icons/misc/magic-swirl.png",
  "system": {
    "actions": [
      {
        "_id": "8jqg0k5wo1svmbpk",
        "name": "Use",
        "img": "systems/pf1/icons/misc/magic-swirl.png",
        "activation": {
          "type": "standard",
          "unchained": {
            "cost": 2,
            "type": "action"
          }
        },
        "duration": {
          "value": "1 round/level (D) see text"
        },
        "target": {
          "value": "one creature"
        },
        "range": {
          "units": "medium"
        },
        "actionType": ""
      }
    ],
    "learnedAt": {
      "class": {
        "cleric": 4,
        "oracle": 4,
        "witch": 4,
        "psychic": 4,
        "spiritualist": 4
      }
    },
    "level": 4,
    "school": "enc",
    "subschool": "compulsion",
    "types": "mind-affecting",
    "components": {
      "verbal": true,
      "somatic": true,
      "divineFocus": 1
    },
    "shortDescription": "<p>The target is surrounded by a glowing green aura of ill fate. Each time the spell's subject makes an attack or casts a spell, it must succeed at a Will saving throw with a DC = 10 + 1/2 caster level + Charisma (in the case of oracles), Intelligence (in the case of witches), or Wisdom (in the case of clerics). If it fails the saving throw, it deals half damage with the attack or spell. You can dismiss this spell as an immediate action when the target confirms a critical hit; doing so negates the critical hit. The attack that you negated still hits, but only deals half damage.</p>"
  }
}
