{
  "_id": "9j2dpu038lp9rd1p",
  "name": "Detect Radiation",
  "type": "spell",
  "img": "systems/pf1/icons/misc/magic-swirl.png",
  "system": {
    "actions": [
      {
        "_id": "ldty4da0w8nlbhku",
        "name": "Use",
        "img": "systems/pf1/icons/misc/magic-swirl.png",
        "activation": {
          "type": "standard",
          "unchained": {
            "cost": 2,
            "type": "action"
          }
        },
        "duration": {
          "value": "10 minute/level"
        },
        "range": {
          "value": "120",
          "units": "ft"
        },
        "actionType": "",
        "spellArea": "spherical emanation, centered on you"
      }
    ],
    "learnedAt": {
      "class": {
        "sorcerer": 1,
        "wizard": 1,
        "cleric": 1,
        "oracle": 1,
        "druid": 1,
        "ranger": 1,
        "bard": 1,
        "hunter": 1
      }
    },
    "school": "div",
    "components": {
      "verbal": true,
      "somatic": true
    },
    "sr": false,
    "shortDescription": "<p>You detect radiation in the surrounding area. You see radioactive auras as a glowing green shimmer in the air that emanates from radioactive objects; the brighter and more intense the green, the more powerful the radioactivity. This glow does not provide illumination or allow you to see in darkness, apart from being able to see the glow itself. The spell can penetrate barriers, but 3 feet of dirt or wood, 1 foot of stone, 1 inch of common metal, or a thin sheet of lead blocks it-although radiation can seep into such barriers, causing them to become radioactive (and thus visible to the spell) in time.</p>"
  }
}
