{
  "_id": "sg3eq6xpsum65fgm",
  "name": "Dispel Evil",
  "type": "spell",
  "img": "systems/pf1/icons/misc/magic-swirl.png",
  "system": {
    "actions": [
      {
        "_id": "nhpuvpyor5s12ww8",
        "name": "Use",
        "img": "systems/pf1/icons/misc/magic-swirl.png",
        "activation": {
          "type": "standard",
          "unchained": {
            "cost": 2,
            "type": "action"
          }
        },
        "duration": {
          "value": "1 round/level or until discharged, whichever comes first"
        },
        "target": {
          "value": "you and a touched evil creature from another plane, or you and an enchantment or evil spell on a touched creature or object"
        },
        "range": {
          "units": "touch"
        },
        "actionType": "spellsave",
        "save": {
          "description": "see text"
        }
      }
    ],
    "learnedAt": {
      "class": {
        "cleric": 5,
        "oracle": 5,
        "paladin": 4,
        "inquisitor": 5,
        "shaman": 5
      },
      "domain": {
        "Good": 5
      }
    },
    "level": 5,
    "school": "abj",
    "types": "good",
    "components": {
      "verbal": true,
      "somatic": true,
      "divineFocus": 1
    },
    "sr": false,
    "shortDescription": "<p>Shimmering, white holy energy surrounds you. This energy has three effects.</p><p>First, you gain a +4 deflection bonus to AC against attacks by evil creatures.</p><p>Second, on making a successful melee touch attack against an evil creature from another plane, you can choose to drive that creature back to its home plane. The creature can negate the effects with a successful Will save (spell resistance applies). This use discharges and ends the spell.</p><p>Third, with a touch you can automatically dispel any one enchantment spell cast by an evil creature or any one evil spell. Spells that can't be dispelled by <i>dispel magic</i> also can't be dispelled by <i>dispel evil</i>. Saving throws and spell resistance do not apply to this effect. This use discharges and ends the spell.</p>"
  }
}
