{
  "_id": "66s5qm8kwycgobce",
  "name": "Dominate Monster",
  "type": "spell",
  "img": "systems/pf1/icons/misc/magic-swirl.png",
  "system": {
    "actions": [
      {
        "_id": "mc31nv0qmrqgdf26",
        "name": "Use",
        "img": "systems/pf1/icons/misc/magic-swirl.png",
        "activation": {
          "type": "round",
          "unchained": {
            "cost": 3,
            "type": "action"
          }
        },
        "duration": {
          "value": "1 day/level"
        },
        "target": {
          "value": "one creature"
        },
        "range": {
          "units": "close"
        },
        "actionType": "spellsave",
        "save": {
          "type": "will",
          "description": "Will negates"
        }
      }
    ],
    "learnedAt": {
      "class": {
        "sorcerer": 9,
        "wizard": 9,
        "summoner": 6,
        "witch": 9,
        "psychic": 9,
        "unchained Summoner": 6
      },
      "domain": {
        "Charm": 9
      },
      "bloodline": {
        "Oni": 9,
        "Rakshasa": 9,
        "Serpentine": 9
      }
    },
    "level": 9,
    "school": "enc",
    "subschool": "compulsion",
    "types": "mind-affecting",
    "components": {
      "verbal": true,
      "somatic": true
    },
    "shortDescription": "<p>This spell functions like <i>dominate person</i>, except that the spell is not restricted by creature type.</p>"
  }
}
