{
  "_id": "4ut0m4azu6ypktct",
  "name": "Ego Whip II",
  "type": "spell",
  "img": "systems/pf1/icons/misc/magic-swirl.png",
  "system": {
    "actions": [
      {
        "_id": "vfp1nmjjzl7lhj6u",
        "name": "Use",
        "img": "systems/pf1/icons/misc/magic-swirl.png",
        "activation": {
          "type": "standard",
          "unchained": {
            "cost": 2,
            "type": "action"
          }
        },
        "duration": {
          "value": "1 round/level"
        },
        "target": {
          "value": "one creature"
        },
        "range": {
          "units": "close"
        },
        "actionType": "spellsave",
        "save": {
          "type": "will",
          "description": "Will partial"
        }
      }
    ],
    "learnedAt": {
      "class": {
        "psychic": 4
      }
    },
    "level": 4,
    "school": "enc",
    "subschool": "compulsion",
    "types": "emotion, mind-affecting",
    "components": {
      "somatic": true
    },
    "shortDescription": "<p>This functions as <i>ego whip I</i>, but the target takes a -4 penalty to the chosen ability score and is staggered for 1d4 rounds on a failed Will save. This spell can be undercast.</p>"
  }
}
