{
  "_id": "6isran0p5phoru7x",
  "name": "Entice Fey, Greater",
  "type": "spell",
  "img": "systems/pf1/icons/misc/magic-swirl.png",
  "system": {
    "actions": [
      {
        "_id": "qd9srysrr3m57pm9",
        "name": "Use",
        "img": "systems/pf1/icons/misc/magic-swirl.png",
        "activation": {
          "cost": 10,
          "type": "minute",
          "unchained": {
            "cost": 10,
            "type": "minute"
          }
        },
        "duration": {
          "value": "instantaneous"
        },
        "range": {
          "units": "close"
        },
        "actionType": "other",
        "spellEffect": "up to three called fey, totaling no more than 18 Hit Dice, no two of which can appear more than 30 ft. apart"
      }
    ],
    "learnedAt": {
      "class": {
        "druid": 9,
        "shaman": 9
      }
    },
    "level": 9,
    "school": "con",
    "subschool": "calling",
    "components": {
      "verbal": true,
      "somatic": true,
      "material": true,
      "divineFocus": 1
    },
    "materials": {
      "value": "offerings worth 2,500 gp plus payment",
      "gpValue": 2500
    },
    "spellbook": "",
    "preparation": {
      "spontaneousPrepared": false
    },
    "sr": false,
    "shortDescription": "<p>This spell functions as @Compendium[pf1.spells.fv17a5jsmapb0wcz]{lesser entice fey}, except the spell's whimsical calling can produce a single fey of 18 Hit Dice or less, or up to three fey of the same kind whose Hit Dice total no more than 18.</p>"
  }
}
