{
  "_id": "q2z1tw7ehj8684yw",
  "name": "Extreme Flexibility",
  "type": "spell",
  "img": "systems/pf1/icons/misc/magic-swirl.png",
  "system": {
    "actions": [
      {
        "_id": "a07znh3my1foxtxt",
        "name": "Use",
        "img": "systems/pf1/icons/misc/magic-swirl.png",
        "activation": {
          "type": "standard",
          "unchained": {
            "cost": 2,
            "type": "action"
          }
        },
        "duration": {
          "value": "1 minute/level"
        },
        "target": {
          "value": "you"
        },
        "range": {
          "units": "personal"
        },
        "actionType": ""
      }
    ],
    "learnedAt": {
      "class": {
        "sorcerer": 2,
        "wizard": 2,
        "alchemist": 2,
        "witch": 2,
        "magus": 2,
        "bloodrager": 2,
        "psychic": 2,
        "medium": 2
      }
    },
    "level": 2,
    "school": "trs",
    "components": {
      "verbal": true,
      "somatic": true
    },
    "sr": false,
    "shortDescription": "<p>You gain a +1 dodge bonus to AC, a +4 circumstance bonus on Escape Artist checks and combat maneuver checks to escape a grapple, and a +4 circumstance bonus to your CMD against grapple attempts.</p>"
  }
}
