{
  "_id": "gk8fqfvj99d46p2h",
  "name": "False Vision",
  "type": "spell",
  "img": "systems/pf1/icons/misc/magic-swirl.png",
  "system": {
    "actions": [
      {
        "_id": "ir0l6e53lxp2ronm",
        "name": "Use",
        "img": "systems/pf1/icons/misc/magic-swirl.png",
        "activation": {
          "type": "standard",
          "unchained": {
            "cost": 2,
            "type": "action"
          }
        },
        "duration": {
          "value": "1 hour/level"
        },
        "range": {
          "units": "touch"
        },
        "actionType": "",
        "spellArea": "40-ft.-radius emanation"
      }
    ],
    "learnedAt": {
      "class": {
        "sorcerer": 5,
        "wizard": 5,
        "bard": 5,
        "psychic": 5,
        "medium": 4,
        "mesmerist": 5,
        "occultist": 5,
        "spiritualist": 5
      },
      "domain": {
        "Trickery": 5
      }
    },
    "level": 5,
    "school": "ill",
    "subschool": "glamer",
    "components": {
      "verbal": true,
      "somatic": true,
      "material": true
    },
    "materials": {
      "value": "crushed jade worth 250 gp",
      "gpValue": 250
    },
    "spellbook": "",
    "preparation": {
      "spontaneousPrepared": false
    },
    "sr": false,
    "shortDescription": "<p>This spell creates a subtle illusion, causing any divination (scrying) spell used to view anything within the area of this spell to instead receive a false image (as the <i>major image</i> spell), as defined by you at the time of casting. As long as the duration lasts, you can concentrate to change the image as desired. While you aren't concentrating, the image remains static.</p>"
  }
}
