{
  "_id": "ohp8i88xuxa02oyi",
  "name": "Forgetful Slumber",
  "type": "spell",
  "img": "systems/pf1/icons/misc/magic-swirl.png",
  "system": {
    "actions": [
      {
        "_id": "w08hsncm4fklucgh",
        "name": "Use",
        "img": "systems/pf1/icons/misc/magic-swirl.png",
        "activation": {
          "type": "round",
          "unchained": {
            "cost": 3,
            "type": "action"
          }
        },
        "duration": {
          "value": "1 minute/level"
        },
        "target": {
          "value": "one living creature"
        },
        "range": {
          "units": "close"
        },
        "actionType": "spellsave",
        "save": {
          "type": "will",
          "description": "Will negates"
        }
      }
    ],
    "learnedAt": {
      "class": {
        "sorcerer": 4,
        "wizard": 4,
        "bard": 4,
        "witch": 4,
        "psychic": 4,
        "mesmerist": 4
      }
    },
    "level": 4,
    "school": "enc",
    "subschool": "compulsion",
    "types": "mind-affecting",
    "components": {
      "verbal": true,
      "somatic": true,
      "material": true
    },
    "materials": {
      "value": "a few drops of river water"
    },
    "shortDescription": "<p>This spell acts as the <i>deeper slumber</i> spell, but only affects one creature of 10 Hit Dice or fewer. In addition, a creature affected by this spell awakens with no knowledge of the events that led to the spell's casting. The target loses all memory from the 5 minutes prior to falling asleep. No effect short of a <i>miracle</i> or <i>wish</i> can restore memories lost by this spell.</p>"
  }
}
