{
  "_id": "y02t95jfxtd6tewe",
  "name": "Gallant Inspiration",
  "type": "spell",
  "img": "systems/pf1/icons/misc/magic-swirl.png",
  "system": {
    "actions": [
      {
        "_id": "6yv31cjo3uxbq79q",
        "name": "Use",
        "img": "systems/pf1/icons/misc/magic-swirl.png",
        "activation": {
          "type": "immediate",
          "unchained": {
            "type": "reaction"
          }
        },
        "duration": {
          "value": "instantaneous"
        },
        "target": {
          "value": "one living creature"
        },
        "range": {
          "units": "close"
        },
        "actionType": "spellsave",
        "save": {
          "type": "will",
          "description": "Will negates (harmless)"
        }
      }
    ],
    "learnedAt": {
      "class": {
        "bard": 2
      }
    },
    "level": 2,
    "school": "div",
    "components": {
      "verbal": true
    },
    "shortDescription": "<p>This word of arcane-empowered inspiration often ensures success of a crucial endeavor. Cast this spell when a creature fails an attack roll or skill check. The creature gains a +2d4 competence bonus to the attack roll or skill check retroactively.</p><p>If the bonus is enough to turn the failure into a success, the roll succeeds.</p>"
  }
}
