{
  "_id": "ofw6gnp6r7t2wcba",
  "name": "Geas, Lesser",
  "type": "spell",
  "img": "systems/pf1/icons/misc/magic-swirl.png",
  "system": {
    "actions": [
      {
        "_id": "iz0fvn0vsw30rsqu",
        "name": "Use",
        "img": "systems/pf1/icons/misc/magic-swirl.png",
        "activation": {
          "type": "round",
          "unchained": {
            "cost": 3,
            "type": "action"
          }
        },
        "duration": {
          "value": "1 day/level or until discharged"
        },
        "target": {
          "value": "one living creature with 7 HD or less"
        },
        "range": {
          "units": "close"
        },
        "actionType": "spellsave",
        "save": {
          "type": "will",
          "description": "Will negates"
        }
      }
    ],
    "learnedAt": {
      "class": {
        "sorcerer": 4,
        "wizard": 4,
        "bard": 3,
        "witch": 4,
        "inquisitor": 4,
        "psychic": 4,
        "mesmerist": 3
      }
    },
    "level": 4,
    "school": "enc",
    "subschool": "compulsion",
    "types": "language-dependent, mind-affecting, curse",
    "components": {
      "verbal": true
    },
    "shortDescription": "<p>A <i>lesser <i>geas</i></i> places a magical command on a creature to carry out some service or to refrain from some action or course of activity, as desired by you. The creature must have 7 or fewer HD and be able to understand you. While a <i>geas</i> cannot compel a creature to kill itself or perform acts that would result in certain death, it can cause almost any other course of activity.</p><p>The <i>geas</i>ed creature must follow the given instructions until the <i>geas</i> is completed, no matter how long it takes.</p><p>If the instructions involve some open-ended task that the recipient cannot complete through his own actions, the spell remains in effect for a maximum of 1 day per caster level. A clever recipient can subvert some instructions.</p><p>If the subject is prevented from obeying the <i>lesser <i>geas</i></i> for 24 hours, it takes a -2 penalty to each of its ability scores. Each day, another -2 penalty accumulates, up to a total of -8. No ability score can be reduced to less than 1 by this effect. The ability score penalties are removed 24 hours after the subject resumes obeying the <i>lesser <i>geas</i></i>.</p><p>A <i>lesser <i>geas</i></i> (and all ability score penalties) can be ended by break enchantment, limited wish, remove curse, miracle, or <i>wish. Dispel magic</i> does not affect a <i>lesser <i>geas</i></i>.</p>"
  }
}
