{
  "_id": "bqvzc3pn68fhsd9r",
  "name": "Halfling Vengeance, Mass",
  "type": "spell",
  "img": "systems/pf1/icons/misc/magic-swirl.png",
  "system": {
    "actions": [
      {
        "_id": "wipgy9816eixud02",
        "name": "Use",
        "img": "systems/pf1/icons/misc/magic-swirl.png",
        "activation": {
          "type": "standard",
          "unchained": {
            "cost": 2,
            "type": "action"
          }
        },
        "duration": {
          "value": "1 round/level"
        },
        "target": {
          "value": "one Small or smaller creature/level, no two of which can be more than 30 ft. apart"
        },
        "range": {
          "units": "close"
        },
        "actionType": "spellsave",
        "save": {
          "type": "will",
          "description": "Will negates (harmless)"
        }
      }
    ],
    "learnedAt": {
      "class": {
        "cleric": 7,
        "oracle": 7,
        "inquisitor": 6,
        "antipaladin": 4
      }
    },
    "level": 7,
    "school": "div",
    "components": {
      "verbal": true,
      "somatic": true
    },
    "shortDescription": "<p>This spell functions like <i>halfling vengeance</i>, except that it affects multiple creatures.</p>"
  }
}
