{
  "name": "Influence Wild Magic",
  "type": "spell",
  "img": "systems/pf1/icons/misc/magic-swirl.png",
  "system": {
    "actions": [
      {
        "_id": "Bn52E4cinmKToQZC",
        "name": "Use",
        "img": "systems/pf1/icons/misc/magic-swirl.png",
        "activation": {
          "type": "standard",
          "unchained": {
            "cost": 2,
            "type": "action"
          }
        },
        "duration": {
          "value": "10 minutes/level"
        },
        "target": {
          "value": "you"
        },
        "range": {
          "units": "personal"
        },
        "actionType": "other",
        "formulaicAttacks": {
          "label": ""
        },
        "spellEffect": "20-foot-radius burst of stabilizing magic centered on you"
      }
    ],
    "uses": {
      "autoDeductChargesCost": ""
    },
    "learnedAt": {
      "class": {
        "arcanist": 2,
        "bard": 2,
        "cleric": 2,
        "druid": 2,
        "hunter": 2,
        "medium": 2,
        "mesmerist": 2,
        "oracle": 2,
        "ranger": 2,
        "skald": 2,
        "sorcerer": 2,
        "summoner": 2,
        "summoner (unchained)": 2,
        "warpriest": 2,
        "witch": 2,
        "wizard": 2
      }
    },
    "level": 2,
    "school": "abj",
    "components": {
      "verbal": true,
      "somatic": true
    },
    "spellbook": "",
    "sr": false,
    "shortDescription": "<p>This spell creates an area of stabilizing magical energy that emanates from you. Any creature within this area that fails a concentration check to cast a spell normally in an area of wild magic rolls twice to determine the wild magic effect and choose its preferred result.</p>"
  },
  "_id": "4iT5C0izh25ADJk0"
}
