{
  "_id": "9d9rk0olitnscems",
  "name": "Invigorate",
  "type": "spell",
  "img": "systems/pf1/icons/misc/magic-swirl.png",
  "system": {
    "actions": [
      {
        "_id": "7fh5tbyrfrqex11s",
        "name": "Use",
        "img": "systems/pf1/icons/misc/magic-swirl.png",
        "activation": {
          "type": "standard",
          "unchained": {
            "cost": 2,
            "type": "action"
          }
        },
        "duration": {
          "value": "10 minutes/level (D)"
        },
        "target": {
          "value": "creature touched"
        },
        "range": {
          "units": "touch"
        },
        "actionType": "spellsave",
        "save": {
          "type": "will",
          "description": "Will negates (harmless)"
        }
      }
    ],
    "learnedAt": {
      "class": {
        "bard": 1,
        "psychic": 1,
        "medium": 1,
        "mesmerist": 1
      }
    },
    "school": "ill",
    "subschool": "figment",
    "components": {
      "verbal": true
    },
    "shortDescription": "<p>This spell banishes feelings of weariness. For the duration, the subject takes no penalties from the fatigued or exhausted conditions. The effect of <i>invigorate</i> is merely an illusion, however, not a substitute for actual rest or respite. When the spell ends, the subject takes 1d6 points of nonlethal damage, along with the return of the original condition(s). A creature can be under the effects of only one <i>invigorate</i> spell at a time; if it is cast a second time on that creature, the first immediately ends.</p>"
  }
}
