{
  "_id": "hosf489xyoexmp57",
  "name": "Longstrider",
  "type": "spell",
  "img": "systems/pf1/icons/misc/magic-swirl.png",
  "system": {
    "actions": [
      {
        "_id": "rfs55tlax2azw4h1",
        "name": "Use",
        "img": "systems/pf1/icons/misc/magic-swirl.png",
        "activation": {
          "type": "standard",
          "unchained": {
            "cost": 2,
            "type": "action"
          }
        },
        "duration": {
          "value": "1 hour/level"
        },
        "target": {
          "value": "you"
        },
        "range": {
          "units": "personal"
        },
        "actionType": ""
      }
    ],
    "learnedAt": {
      "class": {
        "druid": 1,
        "ranger": 1,
        "hunter": 1
      },
      "domain": {
        "Travel": 1
      }
    },
    "school": "trs",
    "components": {
      "verbal": true,
      "somatic": true,
      "material": true
    },
    "materials": {
      "value": "a pinch of dirt"
    },
    "sr": false,
    "shortDescription": "<p>This spell gives you a +10 foot enhancement bonus to your base speed. It has no effect on other modes of movement, such as burrow, climb, fly, or swim.</p>"
  }
}
