{
  "_id": "73han2zqxg59u18g",
  "name": "Magic Vestment",
  "type": "spell",
  "img": "systems/pf1/icons/misc/magic-swirl.png",
  "system": {
    "actions": [
      {
        "_id": "5s7kdguqrsxp5jvd",
        "name": "Use",
        "img": "systems/pf1/icons/misc/magic-swirl.png",
        "activation": {
          "type": "standard",
          "unchained": {
            "cost": 2,
            "type": "action"
          }
        },
        "duration": {
          "value": "1 hour/level"
        },
        "target": {
          "value": "armor or shield touched"
        },
        "range": {
          "units": "touch"
        },
        "actionType": "spellsave",
        "save": {
          "type": "will",
          "description": "Will negates (harmless, object)"
        }
      }
    ],
    "learnedAt": {
      "class": {
        "cleric": 3,
        "oracle": 3,
        "inquisitor": 3,
        "shaman": 3,
        "occultist": 3
      },
      "domain": {
        "Nobility": 3,
        "Strength": 3,
        "War": 3
      }
    },
    "level": 3,
    "school": "trs",
    "components": {
      "verbal": true,
      "somatic": true,
      "divineFocus": 1
    },
    "shortDescription": "<p>You imbue a suit of armor or a shield with an enhancement bonus of +1 per four caster levels (maximum +5 at 20th level).</p><p>An outfit of regular clothing counts as armor that grants no AC bonus for the purpose of this spell.</p>"
  }
}
