{
  "_id": "ym1we9ko60qcvn4t",
  "name": "Magic Circle against Good",
  "type": "spell",
  "img": "systems/pf1/icons/misc/magic-swirl.png",
  "system": {
    "actions": [
      {
        "_id": "fn0634rlqr41f79y",
        "name": "Use",
        "img": "systems/pf1/icons/misc/magic-swirl.png",
        "activation": {
          "type": "standard",
          "unchained": {
            "cost": 2,
            "type": "action"
          }
        },
        "duration": {
          "value": "10 min./level"
        },
        "range": {
          "units": "touch"
        },
        "measureTemplate": {
          "type": "circle",
          "size": "10"
        },
        "actionType": "spellsave",
        "save": {
          "type": "will",
          "description": "Will negates (harmless)"
        },
        "spellArea": "10-ft.-radius emanation from touched creature"
      }
    ],
    "learnedAt": {
      "class": {
        "sorcerer": 3,
        "wizard": 3,
        "cleric": 3,
        "oracle": 3,
        "summoner": 3,
        "inquisitor": 3,
        "antipaladin": 3,
        "shaman": 3,
        "medium": 3,
        "occultist": 3,
        "spiritualist": 3,
        "unchained Summoner": 3
      },
      "domain": {
        "Evil": 3
      }
    },
    "level": 3,
    "school": "abj",
    "types": "evil",
    "components": {
      "verbal": true,
      "somatic": true,
      "material": true,
      "divineFocus": 2
    },
    "materials": {
      "value": "a 3-ft.-diameter circle of powdered silver"
    },
    "sr": false,
    "shortDescription": "<p>This spell functions like <i>magic circle against evil,</i> except that it is similar to <i>Protection from Good</i> instead of <i>Protection from Evil</i>, and it can imprison a nonevil called creature.</p>"
  }
}
