{
  "_id": "cvv6oimqks9n62vy",
  "name": "Magic Weapon",
  "type": "spell",
  "img": "systems/pf1/icons/misc/magic-swirl.png",
  "system": {
    "actions": [
      {
        "_id": "g1k20srmb3mod0p8",
        "name": "Use",
        "img": "systems/pf1/icons/misc/magic-swirl.png",
        "activation": {
          "type": "standard",
          "unchained": {
            "cost": 2,
            "type": "action"
          }
        },
        "duration": {
          "value": "1 min./level"
        },
        "target": {
          "value": "weapon touched"
        },
        "range": {
          "units": "touch"
        },
        "actionType": "spellsave",
        "save": {
          "type": "will",
          "description": "Will negates (harmless, object)"
        }
      }
    ],
    "learnedAt": {
      "class": {
        "sorcerer": 1,
        "wizard": 1,
        "cleric": 1,
        "oracle": 1,
        "paladin": 1,
        "inquisitor": 1,
        "antipaladin": 1,
        "magus": 1,
        "bloodrager": 1,
        "shaman": 1,
        "occultist": 1
      },
      "domain": {
        "War": 1
      }
    },
    "school": "trs",
    "components": {
      "verbal": true,
      "somatic": true,
      "divineFocus": 1
    },
    "shortDescription": "<p><i>Magic weapon</i> gives a weapon a +1 enhancement bonus on attack and damage rolls. An enhancement bonus does not stack with a masterwork weapon's +1 bonus on attack rolls.</p><p>You can't cast this spell on a natural weapon, such as an unarmed strike (instead, see magic fang). A monk's unarmed strike is considered a weapon, and thus it can be enhanced by this spell.</p>"
  }
}
