{
  "_id": "qkzhfe8f0wshad53",
  "name": "Mind Thrust VI",
  "type": "spell",
  "img": "systems/pf1/icons/misc/magic-swirl.png",
  "system": {
    "actions": [
      {
        "_id": "297ihm9q4pm431av",
        "name": "Use",
        "img": "systems/pf1/icons/misc/magic-swirl.png",
        "activation": {
          "type": "standard",
          "unchained": {
            "cost": 2,
            "type": "action"
          }
        },
        "duration": {
          "value": "instantaneous"
        },
        "target": {
          "value": "one creature"
        },
        "range": {
          "units": "close"
        },
        "actionType": "spellsave",
        "save": {
          "type": "will",
          "description": "Will half"
        }
      }
    ],
    "learnedAt": {
      "class": {
        "psychic": 6
      }
    },
    "level": 6,
    "school": "div",
    "components": {
      "somatic": true
    },
    "shortDescription": "<p>This functions as <i>mind thrust IV</i>, but the target takes 1d8 points of damage per caster level (maximum 20d8) and is exhausted and stunned for 1 round if it fails its save. This spell can be undercast.</p>"
  }
}
