{
  "_id": "p46zbz8sj1are8yj",
  "name": "Oath of Peace",
  "type": "spell",
  "img": "systems/pf1/icons/misc/magic-swirl.png",
  "system": {
    "actions": [
      {
        "_id": "no0gre01m2qdt19d",
        "name": "Use",
        "img": "systems/pf1/icons/misc/magic-swirl.png",
        "activation": {
          "type": "standard",
          "unchained": {
            "cost": 2,
            "type": "action"
          }
        },
        "duration": {
          "value": "1 round/level"
        },
        "target": {
          "value": "you"
        },
        "range": {
          "units": "personal"
        },
        "actionType": ""
      }
    ],
    "learnedAt": {
      "class": {
        "paladin": 4
      }
    },
    "level": 4,
    "school": "abj",
    "components": {
      "verbal": true,
      "somatic": true
    },
    "sr": false,
    "shortDescription": "<p>Entreating your deity for aid, you make a temporary Oath of Peace, granting you superior defenses but means you can't attack for the duration of the oath. For as long as you are subject to this spell, you gain a +5 sacred bonus to AC and on saving throws, as well as DR 10/evil. If you make a direct or indirect attack or any show any hostility toward any creature, the spell immediately ends.</p>"
  }
}
