{
  "_id": "4qi3kgyoxtf44wa2",
  "name": "Open Book",
  "type": "spell",
  "img": "systems/pf1/icons/misc/magic-swirl.png",
  "system": {
    "actions": [
      {
        "_id": "qyu1p25ppjqfwkj5",
        "name": "Use",
        "img": "systems/pf1/icons/misc/magic-swirl.png",
        "activation": {
          "type": "standard",
          "unchained": {
            "cost": 2,
            "type": "action"
          }
        },
        "duration": {
          "value": "permanent"
        },
        "target": {
          "value": "one creature"
        },
        "range": {
          "units": "close"
        },
        "actionType": "spellsave",
        "save": {
          "type": "will",
          "description": "Will negates"
        }
      }
    ],
    "learnedAt": {
      "class": {
        "sorcerer": 3,
        "wizard": 3,
        "bard": 2,
        "witch": 3,
        "inquisitor": 2,
        "antipaladin": 2,
        "psychic": 2,
        "mesmerist": 2
      }
    },
    "level": 3,
    "school": "div",
    "types": "curse",
    "components": {
      "verbal": true,
      "somatic": true,
      "material": true
    },
    "materials": {
      "value": "a page torn from a book"
    },
    "shortDescription": "<p>You lay bare not only the mind of a target, but the target's history as well. The target takes a -2 penalty on saving throws against  divinations, and Diplomacy checks to gather information about the target gain a bonus equal to half your caster level (maximum +10).</p>"
  }
}
