{
  "_id": "rifw5peupd2hjtq9",
  "name": "Pack Empathy",
  "type": "spell",
  "img": "systems/pf1/icons/misc/magic-swirl.png",
  "system": {
    "actions": [
      {
        "_id": "naa0707o29yqrd4c",
        "name": "Use",
        "img": "systems/pf1/icons/misc/magic-swirl.png",
        "activation": {
          "type": "standard",
          "unchained": {
            "cost": 2,
            "type": "action"
          }
        },
        "duration": {
          "value": "1 hour/level (D)"
        },
        "target": {
          "value": "you plus one willing living creature per 3 levels, no two of which can be more than 30 ft. apart"
        },
        "range": {
          "units": "close"
        },
        "actionType": ""
      }
    ],
    "learnedAt": {
      "class": {
        "sorcerer": 3,
        "wizard": 3,
        "druid": 3,
        "ranger": 2,
        "summoner": 3,
        "witch": 3,
        "inquisitor": 3,
        "bloodrager": 3,
        "medium": 2,
        "spiritualist": 3,
        "hunter": 2,
        "unchained Summoner": 3
      }
    },
    "level": 3,
    "school": "div",
    "components": {
      "verbal": true,
      "somatic": true
    },
    "sr": false,
    "shortDescription": "<p>You create an instinctual connection between the targets. Each can sense the others' overall emotional states, which allows them to communicate basic emotional concepts (such as alerting each other of danger due to increased stress). Once the spell has been cast on the subjects, the distance between them and the caster doesn't affect the spell as long as they are on the same plane of existence. If a subject leaves the plane, or if it dies, the spell ceases to function for it.</p>"
  }
}
