{
  "_id": "brw5fsblcj8snqo2",
  "name": "Perceive Cues",
  "type": "spell",
  "img": "systems/pf1/icons/misc/magic-swirl.png",
  "system": {
    "actions": [
      {
        "_id": "ir0yafzdnifik9w9",
        "name": "Use",
        "img": "systems/pf1/icons/misc/magic-swirl.png",
        "activation": {
          "type": "standard",
          "unchained": {
            "cost": 2,
            "type": "action"
          }
        },
        "duration": {
          "value": "10 minutes/level"
        },
        "target": {
          "value": "you"
        },
        "range": {
          "units": "personal"
        },
        "actionType": ""
      }
    ],
    "learnedAt": {
      "class": {
        "ranger": 2,
        "alchemist": 2,
        "witch": 2,
        "inquisitor": 2,
        "psychic": 2,
        "mesmerist": 2,
        "occultist": 2,
        "hunter": 2
      }
    },
    "level": 2,
    "school": "trs",
    "components": {
      "verbal": true,
      "somatic": true,
      "material": true
    },
    "materials": {
      "value": "a drop of water"
    },
    "sr": false,
    "shortDescription": "<p>Your senses become preternaturally keen, and you gain insight into subtle behavioral cues. For the duration of the spell, you receive a +5 competence bonus on Perception and Sense Motive checks.</p>"
  }
}
