{
  "name": "Phase Step",
  "type": "spell",
  "img": "systems/pf1/icons/skills/armor_01.jpg",
  "system": {
    "actions": [
      {
        "_id": "pqwl0WgVzg2eHMIr",
        "name": "Use",
        "img": "systems/pf1/icons/skills/armor_01.jpg",
        "activation": {
          "type": "standard",
          "unchained": {
            "cost": 2,
            "type": "action"
          }
        },
        "duration": {
          "value": "instantaneous"
        },
        "target": {
          "value": "one willing creature touched"
        },
        "range": {
          "units": "close"
        },
        "actionType": "",
        "touch": true
      }
    ],
    "uses": {
      "autoDeductChargesCost": ""
    },
    "learnedAt": {
      "class": {
        "alchemist": 3,
        "arcanist": 3,
        "bard": 3,
        "investigator": 3,
        "magus": 3,
        "skald": 3,
        "sorcerer": 3,
        "summoner": 3,
        "summoner (unchained)": 3,
        "witch": 3,
        "wizard": 3
      }
    },
    "level": 3,
    "school": "con",
    "subschool": "teleportation",
    "components": {
      "verbal": true,
      "somatic": true
    },
    "spellbook": "",
    "shortDescription": "<p>You instantly transfer the touched creature to a point you designate within range. This otherwise functions as the spell @Compendium[pf1.spells.ojwg1ki98tq8xyh9]{dimension door}, except that you must have line of sight and line of effect to the target’s destination for this spell’s effects to properly function.</p>"
  },
  "_id": "9pCd1KUeaQsiB6n6"
}
