{
  "_id": "glsuavyjkhtpevrz",
  "name": "Piercing Shriek",
  "type": "spell",
  "img": "systems/pf1/icons/misc/magic-swirl.png",
  "system": {
    "actions": [
      {
        "_id": "giz3qmiiarpnc91n",
        "name": "Use",
        "img": "systems/pf1/icons/misc/magic-swirl.png",
        "activation": {
          "type": "standard",
          "unchained": {
            "cost": 2,
            "type": "action"
          }
        },
        "duration": {
          "value": "1 round/level"
        },
        "target": {
          "value": "one creature"
        },
        "range": {
          "units": "medium"
        },
        "actionType": "spellsave",
        "save": {
          "type": "fort",
          "description": "Fortitude negates"
        }
      }
    ],
    "learnedAt": {
      "class": {
        "bard": 2,
        "psychic": 2
      }
    },
    "level": 2,
    "school": "evo",
    "types": "pain, sonic",
    "components": {
      "verbal": true
    },
    "shortDescription": "<p>You emit an ear-splitting shriek which can be heard only by the target of this spell; all other observers merely see you screaming silently. The target suffers wracking pain from the scream, gaining the staggered condition. This spell has no effect on deaf creatures and cannot penetrate an area of <i>silence</i>.</p>"
  }
}
