{
  "_id": "bbmd0fj17jsf5300",
  "name": "Planar Binding, Greater",
  "type": "spell",
  "img": "systems/pf1/icons/misc/magic-swirl.png",
  "system": {
    "actions": [
      {
        "_id": "iugt6wxs2l01eb5i",
        "name": "Use",
        "img": "systems/pf1/icons/misc/magic-swirl.png",
        "activation": {
          "cost": 10,
          "type": "minute",
          "unchained": {
            "cost": 10,
            "type": "minute"
          }
        },
        "duration": {
          "value": "instantaneous"
        },
        "target": {
          "value": "up to three elementals or outsiders, totaling no more than 18 HD, no two of which can be more than 30 ft. apart when they appear."
        },
        "range": {
          "units": "close"
        },
        "actionType": "spellsave",
        "save": {
          "type": "will",
          "description": "Will negates"
        }
      }
    ],
    "learnedAt": {
      "class": {
        "sorcerer": 8,
        "wizard": 8,
        "summoner": 6,
        "psychic": 8,
        "unchained Summoner": 6
      },
      "domain": {
        "Void": 8
      },
      "bloodline": {
        "Djinni": 8
      }
    },
    "level": 8,
    "school": "con",
    "subschool": "calling",
    "types": "see text for lesser planar binding",
    "components": {
      "verbal": true,
      "somatic": true
    },
    "spellbook": "",
    "sr": false,
    "shortDescription": "<p>This spell functions like @Compendium[pf1.spells.y4b1zmhmsa0gvf06]{Lesser Planar Binding}, except that you may call a single creature of 18 HD or less, or up to three creatures of the same kind whose Hit Dice total no more than 18. Each creature gets a saving throw, makes an independent attempt to escape, and must be individually persuaded to aid you.</p>"
  }
}
