{
  "_id": "qf4bqjgeff1q4hjt",
  "name": "Planar Binding",
  "type": "spell",
  "img": "systems/pf1/icons/misc/magic-swirl.png",
  "system": {
    "actions": [
      {
        "_id": "tv3dwm5murk1jjjz",
        "name": "Use",
        "img": "systems/pf1/icons/misc/magic-swirl.png",
        "activation": {
          "cost": 10,
          "type": "minute",
          "unchained": {
            "cost": 10,
            "type": "minute"
          }
        },
        "duration": {
          "value": "instantaneous"
        },
        "target": {
          "value": "up to three elementals or outsiders, totaling no more than 12 HD, no two of which can be more than 30 ft. apart when they appear"
        },
        "range": {
          "units": "close"
        },
        "actionType": "spellsave",
        "save": {
          "type": "will",
          "description": "Will negates"
        }
      }
    ],
    "learnedAt": {
      "class": {
        "sorcerer": 6,
        "wizard": 6,
        "summoner": 5,
        "psychic": 6,
        "occultist": 6,
        "unchained Summoner": 6
      },
      "domain": {
        "Void": 6
      },
      "subDomain": {
        "Daemon": 6,
        "Demon": 6,
        "Devil": 6,
        "Inevitable": 6,
        "Protean": 6,
        "Aeon": 6
      },
      "bloodline": {
        "Efreeti": 6,
        "Infernal": 6
      }
    },
    "level": 6,
    "school": "con",
    "subschool": "calling",
    "types": "see text for lesser planar binding",
    "components": {
      "verbal": true,
      "somatic": true
    },
    "spellbook": "",
    "sr": false,
    "shortDescription": "<p>This spell functions like @Compendium[pf1.spells.y4b1zmhmsa0gvf06]{Lesser Planar Binding}, except that you may call a single creature of 12 HD or less, or up to three creatures of the same kind whose Hit Dice total no more than 12. Each creature gets a saving throw, makes an independent attempt to escape, and must be individually persuaded to aid you.</p>"
  }
}
