{
  "_id": "vdh0yuzpjwhky6kr",
  "name": "Poison",
  "type": "spell",
  "img": "systems/pf1/icons/misc/magic-swirl.png",
  "system": {
    "actions": [
      {
        "_id": "a7ziwhcxmluhphh1",
        "name": "Use",
        "img": "systems/pf1/icons/misc/magic-swirl.png",
        "activation": {
          "type": "standard",
          "unchained": {
            "cost": 2,
            "type": "action"
          }
        },
        "duration": {
          "value": "instantaneous; see text"
        },
        "target": {
          "value": "living creature touched"
        },
        "range": {
          "units": "touch"
        },
        "actionType": "spellsave",
        "save": {
          "type": "fort",
          "description": "Fortitude negates; see text"
        }
      }
    ],
    "learnedAt": {
      "class": {
        "cleric": 4,
        "oracle": 4,
        "druid": 3,
        "witch": 4,
        "antipaladin": 4,
        "shaman": 4,
        "mesmerist": 4,
        "occultist": 4,
        "hunter": 3
      },
      "domain": {
        "Scalykind": 4
      },
      "subDomain": {
        "Decay": 4
      },
      "bloodline": {
        "Fey": 4,
        "Serpentine": 4
      }
    },
    "level": 4,
    "school": "nec",
    "types": "poison",
    "components": {
      "verbal": true,
      "somatic": true,
      "divineFocus": 1
    },
    "shortDescription": "<p>Calling upon the venomous powers of natural predators, you infect the subject with a horrible poison by making a successful melee touch attack. This poison deals 1d3 Constitution damage per round for 6 rounds. Poisoned creatures can make a Fortitude save each round to negate the damage and end the affliction.</p>"
  }
}
