{
  "_id": "r766yilaweb60ek8",
  "name": "Poison Breath",
  "type": "spell",
  "img": "systems/pf1/icons/misc/magic-swirl.png",
  "system": {
    "actions": [
      {
        "_id": "itvcclbwwuqjboen",
        "name": "Use",
        "img": "systems/pf1/icons/misc/magic-swirl.png",
        "activation": {
          "type": "standard",
          "unchained": {
            "cost": 2,
            "type": "action"
          }
        },
        "duration": {
          "value": "instantaneous"
        },
        "range": {
          "value": "15",
          "units": "ft"
        },
        "actionType": "spellsave",
        "save": {
          "type": "fort",
          "description": "Fortitude negates"
        },
        "spellArea": "cone-shaped burst"
      }
    ],
    "learnedAt": {
      "class": {
        "cleric": 7,
        "oracle": 7,
        "druid": 6,
        "witch": 7,
        "hunter": 6
      }
    },
    "level": 7,
    "school": "evo",
    "types": "poison",
    "components": {
      "verbal": true,
      "somatic": true,
      "material": true,
      "divineFocus": 2
    },
    "materials": {
      "value": "a spider's mandible"
    },
    "shortDescription": "<p>You expel a cone-shaped burst of toxic mist from your mouth, subjecting everyone caught in the area to a deadly <i>poison</i>, as per the <i>poison</i> spell.</p>"
  }
}
