{
  "_id": "8jq1atxonnerix55",
  "name": "Polar Ray",
  "type": "spell",
  "img": "systems/pf1/icons/misc/magic-swirl.png",
  "system": {
    "actions": [
      {
        "_id": "97nvnmjz1hveboeb",
        "name": "Use",
        "img": "systems/pf1/icons/misc/magic-swirl.png",
        "activation": {
          "type": "standard",
          "unchained": {
            "cost": 2,
            "type": "action"
          }
        },
        "duration": {
          "value": "instantaneous"
        },
        "range": {
          "units": "medium"
        },
        "actionType": "rsak",
        "damage": {
          "parts": [
            {
              "formula": "(min(25, @cl))d6",
              "type": {
                "values": ["cold"],
                "custom": ""
              }
            }
          ]
        },
        "ability": {
          "attack": "dex"
        },
        "effectNotes": ["[[1d4]] Dexterity Drain"],
        "spellEffect": "ray"
      }
    ],
    "learnedAt": {
      "class": {
        "sorcerer": 8,
        "wizard": 8
      },
      "subDomain": {
        "Ice": 9
      },
      "bloodline": {
        "Boreal": 8,
        "Marid": 8
      }
    },
    "level": 8,
    "school": "evo",
    "types": "cold",
    "components": {
      "verbal": true,
      "somatic": true,
      "focus": true
    },
    "materials": {
      "focus": "a white ceramic cone or prism"
    },
    "shortDescription": "<p>A blue-white ray of freezing air and ice springs from your hand.</p><p>You must succeed on a ranged touch attack with the ray to deal damage to a target. The ray deals 1d6 points of cold damage per caster level (maximum 25d6) and 1d4 points of Dexterity drain.</p>"
  }
}
