{
  "_id": "bd6v1kuektkdkblx",
  "name": "Possess Object",
  "type": "spell",
  "img": "systems/pf1/icons/misc/magic-swirl.png",
  "system": {
    "actions": [
      {
        "_id": "kjqyi38oo1gq5pw5",
        "name": "Use",
        "img": "systems/pf1/icons/misc/magic-swirl.png",
        "activation": {
          "type": "standard",
          "unchained": {
            "cost": 2,
            "type": "action"
          }
        },
        "duration": {
          "value": "1 hour/level or until you return to your body"
        },
        "target": {
          "value": "one object; see text"
        },
        "range": {
          "units": "medium"
        },
        "actionType": ""
      }
    ],
    "learnedAt": {
      "class": {
        "sorcerer": 5,
        "wizard": 5,
        "witch": 5
      }
    },
    "level": 5,
    "school": "nec",
    "components": {
      "verbal": true,
      "somatic": true,
      "focus": true
    },
    "materials": {
      "focus": "a gem or crystal worth at least 100 gp"
    },
    "sr": false,
    "shortDescription": "<p>This spell functions as <i>magic jar</i>, except you transfer your mind to a single object, animating it as if using <i>animate objects</i>, except your mind controls the object as if it were your own body. You cannot speak or cast spells while possessing the object. Because your original body is effectively dead while under the effect of this spell, this temporarily suspends disease, poisons, and other afflictions affecting you.</p>"
  }
}
