{
  "_id": "ol9newf4vrcx0kpf",
  "name": "Power Word Stun",
  "type": "spell",
  "img": "systems/pf1/icons/misc/magic-swirl.png",
  "system": {
    "actions": [
      {
        "_id": "rkurfe1mvfkv61es",
        "name": "Use",
        "img": "systems/pf1/icons/misc/magic-swirl.png",
        "activation": {
          "type": "standard",
          "unchained": {
            "cost": 2,
            "type": "action"
          }
        },
        "duration": {
          "value": "see text"
        },
        "target": {
          "value": "one creature with 150 hp or less"
        },
        "range": {
          "units": "close"
        },
        "actionType": ""
      }
    ],
    "learnedAt": {
      "class": {
        "sorcerer": 8,
        "wizard": 8,
        "witch": 8,
        "psychic": 8
      },
      "domain": {
        "War": 8
      },
      "bloodline": {
        "Arcane": 8,
        "Infernal": 8
      }
    },
    "level": 8,
    "school": "enc",
    "subschool": "compulsion",
    "types": "mind-affecting",
    "components": {
      "verbal": true
    },
    "shortDescription": "<p>You utter a single word of power that instantly causes one creature of your choice to become stunned, whether the creature can hear the word or not. The duration of the spell depends on the target's current hit point total. Any creature that currently has 151 or more hit points is unaffected by <i>power word stun</i>.</p><table><tr><th>Hit Points</th><th>Duration</th></tr><tr><td>50 or less</td><td>4d4 rounds</td></tr><tr><td>51-100</td><td>2d4 rounds</td></tr><tr><td>101-150</td><td>1d4 rounds</td></tr></table>"
  }
}
