{
  "_id": "8wjn8wfe7pirs54o",
  "name": "Primal Regression",
  "type": "spell",
  "img": "systems/pf1/icons/misc/magic-swirl.png",
  "system": {
    "actions": [
      {
        "_id": "rjqe7kcqk24yxo2d",
        "name": "Use",
        "img": "systems/pf1/icons/misc/magic-swirl.png",
        "activation": {
          "type": "standard",
          "unchained": {
            "cost": 2,
            "type": "action"
          }
        },
        "duration": {
          "value": "1 minute/level"
        },
        "target": {
          "value": "one creature/2 levels, no two of which can be more than 30 feet apart"
        },
        "range": {
          "units": "close"
        },
        "actionType": "spellsave",
        "save": {
          "type": "will",
          "description": "Will negates"
        }
      }
    ],
    "learnedAt": {
      "class": {
        "druid": 6,
        "witch": 7,
        "shaman": 6,
        "psychic": 6,
        "mesmerist": 5,
        "hunter": 6
      }
    },
    "level": 6,
    "school": "enc",
    "subschool": "compulsion",
    "types": "mind-affecting",
    "components": {
      "somatic": true
    },
    "shortDescription": "<p>This spell sequesters the targets' ability for higher reasoning, allowing their darker impulses to come to the fore. An affected target becomes a ravening monster-savage, bloodthirsty, and brutish. Until the spell ends, the targets have all of the following benefits and drawbacks. <ul><li> Targets' Intelligence and Charisma scores drop to 3 (if the scores were higher), and they are unable to use Intelligence-or Charisma-based skills, cast spells, understand language, or communicate coherently. <li> Targets take a -4 penalty on Will saves. <li> Targets gain a +6 enhancement bonus to Strength, a +2 natural armor bonus to AC, and 2d8 temporary hit points. These temporary hit points disappear at the end of the spell's duration. </ul> When the spell ends, each affected creature must succeed at a Will saving throw or take 1d4 points of Intelligence drain and 1d4 points of Charisma damage.</p>"
  }
}
