{
  "_id": "o9kqm42x6xkfjem3",
  "name": "Programmed Image",
  "type": "spell",
  "img": "systems/pf1/icons/misc/magic-swirl.png",
  "system": {
    "actions": [
      {
        "_id": "n3mad0t8o67dwj7n",
        "name": "Use",
        "img": "systems/pf1/icons/misc/magic-swirl.png",
        "activation": {
          "type": "standard",
          "unchained": {
            "cost": 2,
            "type": "action"
          }
        },
        "duration": {
          "value": "permanent until triggered, then 1 round/level"
        },
        "range": {
          "units": "long"
        },
        "actionType": "spellsave",
        "save": {
          "type": "will",
          "description": "Will disbelief (if interacted with)"
        },
        "spellEffect": "visual figment that cannot extend beyond a 20-ft. cube + one 10-ft. cube/level (S)"
      }
    ],
    "learnedAt": {
      "class": {
        "sorcerer": 6,
        "wizard": 6,
        "bard": 6,
        "psychic": 6,
        "mesmerist": 6
      }
    },
    "level": 6,
    "school": "ill",
    "subschool": "figment",
    "components": {
      "verbal": true,
      "somatic": true,
      "material": true
    },
    "materials": {
      "value": "fleece and jade dust worth 25 gp",
      "gpValue": 25
    },
    "spellbook": "",
    "preparation": {
      "spontaneousPrepared": false
    },
    "sr": false,
    "shortDescription": "<p>This spell functions like <i>silent image,</i> except that this spell's figment activates when a specific condition occurs. The figment includes visual, auditory, olfactory, and thermal elements, including intelligible speech.</p><p>You set the triggering condition (which may be a special word) when casting the spell. The event that triggers the illusion can be as general or as specific and detailed as desired but must be based on an audible, tactile, olfactory, or visual trigger. The trigger cannot be based on some quality not normally obvious to the senses, such as alignment. See <i>magic mouth</i> for more details about such triggers.</p>"
  }
}
