{
  "_id": "y11razkerweu0z4z",
  "name": "Restore Corpse",
  "type": "spell",
  "img": "systems/pf1/icons/misc/magic-swirl.png",
  "system": {
    "actions": [
      {
        "_id": "sfaj2cjtcgf5nkx6",
        "name": "Use",
        "img": "systems/pf1/icons/misc/magic-swirl.png",
        "activation": {
          "type": "standard",
          "unchained": {
            "cost": 2,
            "type": "action"
          }
        },
        "duration": {
          "value": "instantaneous"
        },
        "target": {
          "value": "corpse touched"
        },
        "range": {
          "units": "touch"
        },
        "actionType": ""
      }
    ],
    "learnedAt": {
      "class": {
        "sorcerer": 1,
        "wizard": 1,
        "cleric": 1,
        "oracle": 1,
        "druid": 1,
        "witch": 1,
        "psychic": 1,
        "medium": 1,
        "occultist": 1,
        "hunter": 1
      }
    },
    "school": "nec",
    "components": {
      "verbal": true,
      "somatic": true
    },
    "sr": false,
    "shortDescription": "<p>You grow flesh on a decomposed or skeletonized corpse of a Medium or smaller creature, providing it with sufficient flesh that it can be animated as a zombie rather than a skeleton. The corpse looks as it did when the creature died. The new flesh is somewhat rotted and not fit for eating.</p>"
  }
}
