{
  "_id": "1yy070vempzgwz6g",
  "name": "Restore Eidolon, Lesser",
  "type": "spell",
  "img": "systems/pf1/icons/misc/magic-swirl.png",
  "system": {
    "actions": [
      {
        "_id": "4kdgurs9v7ixsa0r",
        "name": "Use",
        "img": "systems/pf1/icons/misc/magic-swirl.png",
        "activation": {
          "cost": 3,
          "type": "round",
          "unchained": {
            "cost": 9,
            "type": "action"
          }
        },
        "duration": {
          "value": "instantaneous"
        },
        "target": {
          "value": "eidolon touched"
        },
        "range": {
          "units": "touch"
        },
        "actionType": "heal",
        "save": {
          "type": "will",
          "description": "Will negates (harmless)"
        }
      }
    ],
    "learnedAt": {
      "class": {
        "summoner": 2,
        "unchained Summoner": 2
      }
    },
    "level": 2,
    "school": "con",
    "subschool": "healing",
    "components": {
      "verbal": true,
      "somatic": true
    },
    "shortDescription": "<p>This spell functions as <i>lesser restoration</i>, except it only affects an eidolon.</p>"
  }
}
