{
  "_id": "zaw5yh1c7ftk45tf",
  "name": "Rest Eternal",
  "type": "spell",
  "img": "systems/pf1/icons/misc/magic-swirl.png",
  "system": {
    "actions": [
      {
        "_id": "7n9p0o5pf0ruimgn",
        "name": "Use",
        "img": "systems/pf1/icons/misc/magic-swirl.png",
        "activation": {
          "type": "round",
          "unchained": {
            "cost": 3,
            "type": "action"
          }
        },
        "duration": {
          "value": "permanent"
        },
        "target": {
          "value": "one dead creature touched"
        },
        "range": {
          "units": "touch"
        },
        "actionType": ""
      }
    ],
    "learnedAt": {
      "class": {
        "cleric": 4,
        "oracle": 4,
        "druid": 5,
        "witch": 5,
        "shaman": 5,
        "hunter": 5
      },
      "subDomain": {
        "Ancestors": 4
      }
    },
    "level": 4,
    "school": "nec",
    "types": "curse",
    "components": {
      "verbal": true,
      "somatic": true,
      "material": true,
      "divineFocus": 2
    },
    "materials": {
      "value": "ashes and a vial of holy or unholy water"
    },
    "sr": false,
    "shortDescription": "<p>You place a curse upon a dead creature that bars its spirit from returning. Anyone casting a spell that would communicate with the dead creature, return it to life, or turn it into an undead creature must succeed on a caster level check with a DC of 11 plus your caster level. <i>Rest eternal</i> cannot be dispelled, but it can be negated with <i>remove curse</i> or <i>break enchantment</i>.</p>"
  }
}
