{
  "_id": "ld8vm51vaavu0p2a",
  "name": "Returning Weapon",
  "type": "spell",
  "img": "systems/pf1/icons/misc/magic-swirl.png",
  "system": {
    "actions": [
      {
        "_id": "we35e4fb8opug2jn",
        "name": "Use",
        "img": "systems/pf1/icons/misc/magic-swirl.png",
        "activation": {
          "type": "standard",
          "unchained": {
            "cost": 2,
            "type": "action"
          }
        },
        "duration": {
          "value": "1 minute/level"
        },
        "target": {
          "value": "one weapon that can be thrown"
        },
        "range": {
          "units": "close"
        },
        "actionType": "spellsave",
        "save": {
          "type": "will",
          "description": "Will negates (harmless, object)"
        }
      }
    ],
    "learnedAt": {
      "class": {
        "sorcerer": 2,
        "wizard": 2,
        "cleric": 2,
        "oracle": 2,
        "ranger": 1,
        "bard": 2,
        "witch": 2,
        "inquisitor": 1,
        "magus": 1,
        "bloodrager": 1,
        "psychic": 2,
        "occultist": 1,
        "hunter": 1
      }
    },
    "level": 2,
    "school": "con",
    "subschool": "teleportation",
    "components": {
      "verbal": true,
      "somatic": true
    },
    "shortDescription": "<p>For the duration of the spell, the target weapon acts as if it had the <i>returning</i> weapon special ability (see page 471 of the <i>Core</i> Rulebook).  This spell can be used as the prerequisite for the <i>returning</i> weapon special ability.</p>"
  }
}
