{
  "_id": "75bgl52r3qmp1wh4",
  "name": "Sacred Bond",
  "type": "spell",
  "img": "systems/pf1/icons/misc/magic-swirl.png",
  "system": {
    "actions": [
      {
        "_id": "46yrrfgcnhsaenpw",
        "name": "Use",
        "img": "systems/pf1/icons/misc/magic-swirl.png",
        "activation": {
          "type": "round",
          "unchained": {
            "cost": 3,
            "type": "action"
          }
        },
        "duration": {
          "value": "10 minutes/level (D)"
        },
        "target": {
          "value": "creature touched"
        },
        "range": {
          "units": "touch"
        },
        "actionType": "heal",
        "save": {
          "type": "will",
          "description": "Will negates (harmless)"
        }
      }
    ],
    "learnedAt": {
      "class": {
        "cleric": 3,
        "oracle": 3,
        "paladin": 2,
        "inquisitor": 2
      }
    },
    "level": 3,
    "school": "con",
    "subschool": "healing",
    "components": {
      "verbal": true,
      "somatic": true,
      "focus": true
    },
    "materials": {
      "focus": "a pair of golden bracelets worth 100 gp each worn by both you and the target"
    },
    "shortDescription": "<p>To use this spell, you first touch the intended recipient, creating a sympathetic field of healing energies between you.</p><p>Once the spell has been cast, you and the target may cast conjuration (healing) spells with a range of touch upon each other so long as you are within close range (25 ft. + 5 ft./2 levels). Should either you or the target remove your bracelet, the spell immediately ends.</p>"
  }
}
