{
  "_id": "5o8uysrb153tnvci",
  "name": "Sanctify Corpse",
  "type": "spell",
  "img": "systems/pf1/icons/misc/magic-swirl.png",
  "system": {
    "actions": [
      {
        "_id": "t3uv51sf4y13fcre",
        "name": "Use",
        "img": "systems/pf1/icons/misc/magic-swirl.png",
        "activation": {
          "type": "standard",
          "unchained": {
            "cost": 2,
            "type": "action"
          }
        },
        "duration": {
          "value": "24 hours"
        },
        "range": {
          "units": "touch"
        },
        "actionType": "",
        "spellArea": "corpse touched"
      }
    ],
    "learnedAt": {
      "class": {
        "cleric": 1,
        "oracle": 1,
        "paladin": 1,
        "witch": 1,
        "inquisitor": 1,
        "spiritualist": 1
      }
    },
    "school": "evo",
    "types": "good",
    "components": {
      "verbal": true,
      "somatic": true,
      "material": true,
      "divineFocus": 1
    },
    "materials": {
      "value": "a pinch of silver dust"
    },
    "sr": false,
    "shortDescription": "<p>This spell blesses a corpse with positive energy, preventing it from being turned into an undead creature. Attempts to raise the corpse as an undead automatically fail. If the corpse is of a person slain by a creature that creates undead out of its slain foes (such as a shadow, vampire, or wraith), that is delayed until the end of this spell. It is possible to protect a corpse for an extended time by casting this spell each day.</p><p><i>Sanctify corpse</i> can be made permanent with a <i>permanency</i> spell by a caster of 9th level or higher for the cost of 500 gp.</p>"
  }
}
