{
  "_id": "uaznzgoz4h9bw9fr",
  "name": "Sea Steed",
  "type": "spell",
  "img": "systems/pf1/icons/misc/magic-swirl.png",
  "system": {
    "actions": [
      {
        "_id": "jo2bygzn3uaukpc9",
        "name": "Use",
        "img": "systems/pf1/icons/misc/magic-swirl.png",
        "activation": {
          "type": "standard",
          "unchained": {
            "cost": 2,
            "type": "action"
          }
        },
        "duration": {
          "value": "10 minutes/level (D)"
        },
        "target": {
          "value": "a creature you are mounted upon"
        },
        "range": {
          "units": "touch"
        },
        "actionType": "spellsave",
        "save": {
          "type": "will",
          "description": "Will negates (harmless)"
        }
      }
    ],
    "learnedAt": {
      "class": {
        "druid": 2,
        "ranger": 2,
        "paladin": 2,
        "hunter": 2
      }
    },
    "level": 2,
    "school": "trs",
    "subschool": "polymorph",
    "components": {
      "verbal": true,
      "somatic": true,
      "divineFocus": 1
    },
    "shortDescription": "<p>The target adapts to life in the water, gaining piscine scales that cover its body and growing fins in place of feet. It gains the aquatic subtype, the amphibious quality, and a swim speed equal to its base speed before it came under the effect of this spell. While under the effects of this spell, the target's base speed is reduced by 10 feet (minimum 10 feet).</p>"
  }
}
