{
  "_id": "oys2rpkf55cfmly9",
  "name": "Secret Coffer",
  "type": "spell",
  "img": "systems/pf1/icons/misc/magic-swirl.png",
  "system": {
    "actions": [
      {
        "_id": "2m2am9aqlp4gw5nx",
        "name": "Use",
        "img": "systems/pf1/icons/misc/magic-swirl.png",
        "activation": {
          "cost": 10,
          "type": "minute",
          "unchained": {
            "cost": 10,
            "type": "minute"
          }
        },
        "duration": {
          "value": "60 days or until discharged"
        },
        "target": {
          "value": "one small chest or coffer and up to 1 cu. ft. of goods"
        },
        "actionType": ""
      }
    ],
    "learnedAt": {
      "class": {
        "sorcerer": 3,
        "wizard": 3,
        "witch": 3
      }
    },
    "level": 3,
    "school": "con",
    "subschool": "summoning",
    "components": {
      "verbal": true,
      "somatic": true,
      "focus": true
    },
    "materials": {
      "focus": "the chest and its replica"
    },
    "sr": false,
    "shortDescription": "<p>This spell functions like <i>secret chest</i>, except the coffer is only 1 foot square and can contain only 1 cubic foot of goods, and the container can remain safely hidden on the Ethereal Plane for only 14 days before it risks becoming lost. The spell automatically fails if a living creature enters the coffer. The coffer used as a focus for <i>secret coffer</i> must cost at least 500 gp, and its replica costs 5 gp.</p>"
  }
}
