{
  "_id": "kltebh5gymh6cngf",
  "name": "Seducer's Eyes",
  "type": "spell",
  "img": "systems/pf1/icons/misc/magic-swirl.png",
  "system": {
    "actions": [
      {
        "_id": "i8fnh523c2damd8s",
        "name": "Use",
        "img": "systems/pf1/icons/misc/magic-swirl.png",
        "activation": {
          "type": "standard",
          "unchained": {
            "cost": 2,
            "type": "action"
          }
        },
        "duration": {
          "value": "10 minutes/level (D)"
        },
        "target": {
          "value": "you"
        },
        "range": {
          "units": "personal"
        },
        "actionType": ""
      }
    ],
    "learnedAt": {
      "class": {
        "sorcerer": 2,
        "wizard": 2,
        "bard": 2,
        "witch": 2
      }
    },
    "level": 2,
    "school": "enc",
    "subschool": "charm",
    "types": "mind-affecting",
    "components": {
      "verbal": true,
      "somatic": true,
      "divineFocus": 1
    },
    "sr": false,
    "shortDescription": "<p>You gain a bonus on Charisma-based skill checks equal to 1 + 1 for every 4 caster levels you possess (to a maximum of +5), but only when interacting with those who might conceivably find you sexually attractive. You do not gain this bonus against those you or your allies are attacking or threatening.</p>"
  }
}
