{
  "_id": "barpek2qx79eoqb3",
  "name": "Sense Spirit Magic",
  "type": "spell",
  "img": "systems/pf1/icons/misc/magic-swirl.png",
  "system": {
    "actions": [
      {
        "_id": "khml624f9ebul6d8",
        "name": "Use",
        "img": "systems/pf1/icons/misc/magic-swirl.png",
        "activation": {
          "type": "standard",
          "unchained": {
            "cost": 2,
            "type": "action"
          }
        },
        "duration": {
          "value": "24 hours"
        },
        "target": {
          "value": "you"
        },
        "range": {
          "units": "personal"
        },
        "actionType": ""
      }
    ],
    "learnedAt": {
      "class": {
        "shaman": 1
      }
    },
    "school": "div",
    "components": {
      "verbal": true,
      "somatic": true
    },
    "sr": false,
    "shortDescription": "<p>You gain greater sensitivity to magic associated with your primary spirit and your wandering spirits (any spells on the spirit magic spell lists for these spirits, as well as spell-like abilities that duplicate the effects of those spells). You gain a +10 circumstance bonus on Spellcraft checks to identify these spells if they are cast within the area, and a +2 circumstance bonus on saving throws to resist the effects of such spells. If any of these spells require an attack roll, you are never considered flat-footed against such attacks.</p>"
  }
}
