{
  "_id": "gc3kp62t8ut2wiqz",
  "name": "Shadow Enchantment, Greater",
  "type": "spell",
  "img": "systems/pf1/icons/misc/magic-swirl.png",
  "system": {
    "actions": [
      {
        "_id": "p7mad0fgxsrv6vvr",
        "name": "Use",
        "img": "systems/pf1/icons/misc/magic-swirl.png",
        "activation": {
          "type": "standard",
          "unchained": {
            "cost": 2,
            "type": "action"
          }
        },
        "duration": {
          "value": "see text"
        },
        "actionType": "spellsave",
        "save": {
          "type": "will",
          "description": "Will disbelief; see text"
        },
        "spellEffect": "see text"
      }
    ],
    "learnedAt": {
      "class": {
        "sorcerer": 6,
        "wizard": 6,
        "bard": 6,
        "psychic": 6,
        "mesmerist": 6
      }
    },
    "level": 6,
    "school": "ill",
    "subschool": "shadow",
    "types": "shadow",
    "components": {
      "verbal": true,
      "somatic": true
    },
    "shortDescription": "<p>This spell functions like <i>shadow enchantment</i>, except that it enables you to create partially real, illusory versions of psychic, sorcerer, or wizard enchantment spells of 5th level or lower. If the spell is recognized as a greater <i>shadow enchantment</i>, it's only three-fifths (60%) as effective.</p>"
  }
}
