{
  "_id": "33pe0bge7b7aq3io",
  "name": "Shocking Grasp",
  "type": "spell",
  "img": "systems/pf1/icons/misc/magic-swirl.png",
  "system": {
    "actions": [
      {
        "_id": "leo1kqmkzelocqq4",
        "name": "Use",
        "img": "systems/pf1/icons/misc/magic-swirl.png",
        "activation": {
          "type": "standard",
          "unchained": {
            "cost": 2,
            "type": "action"
          }
        },
        "duration": {
          "value": "instantaneous"
        },
        "target": {
          "value": "creature or object touched"
        },
        "range": {
          "units": "touch"
        },
        "actionType": "msak",
        "damage": {
          "parts": [
            {
              "formula": "(min(5, @cl))d6",
              "type": {
                "values": ["electric"],
                "custom": ""
              }
            }
          ]
        },
        "ability": {
          "attack": "str"
        }
      }
    ],
    "learnedAt": {
      "class": {
        "sorcerer": 1,
        "wizard": 1,
        "magus": 1,
        "bloodrager": 1,
        "occultist": 1
      },
      "bloodline": {
        "Djinni": 1,
        "Stormborn": 1
      }
    },
    "school": "evo",
    "types": "electricity",
    "components": {
      "verbal": true,
      "somatic": true
    },
    "shortDescription": "<p>Your successful melee touch attack deals 1d6 points of electricity damage per caster level (maximum 5d6). When delivering the jolt, you gain a +3 bonus on attack rolls if the opponent is wearing metal armor (or is carrying a metal weapon or is made of metal).</p>"
  }
}
