{
  "_id": "ryr9ng43nvcwv4ml",
  "name": "Silk To Steel",
  "type": "spell",
  "img": "systems/pf1/icons/misc/magic-swirl.png",
  "system": {
    "actions": [
      {
        "_id": "hj2ch5bj1c9bv82s",
        "name": "Use",
        "img": "systems/pf1/icons/misc/magic-swirl.png",
        "activation": {
          "type": "standard",
          "unchained": {
            "cost": 2,
            "type": "action"
          }
        },
        "duration": {
          "value": "1 round/level"
        },
        "target": {
          "value": "one scarf"
        },
        "range": {
          "units": "touch"
        },
        "actionType": ""
      }
    ],
    "learnedAt": {
      "class": {
        "sorcerer": 2,
        "wizard": 2,
        "bard": 2,
        "witch": 2,
        "occultist": 2
      }
    },
    "level": 2,
    "school": "trs",
    "components": {
      "verbal": true,
      "somatic": true
    },
    "sr": false,
    "shortDescription": "<p>You imbue an ordinary scarf (or similar piece of clothing) with the strength of steel without altering its weight or flexibility.</p><p>Each round on your turn, you can decide to use the scarf to defend yourself (gaining a +2 shield bonus to your Armor Class) or to attack as if the scarf were a whip.</p>"
  }
}
