{
  "_id": "zrg6zgoc5l2zjo5k",
  "name": "Siphon Might",
  "type": "spell",
  "img": "systems/pf1/icons/misc/magic-swirl.png",
  "system": {
    "actions": [
      {
        "_id": "c4pfr5ekuxuy8bwq",
        "name": "Use",
        "img": "systems/pf1/icons/misc/magic-swirl.png",
        "activation": {
          "type": "round",
          "unchained": {
            "cost": 3,
            "type": "action"
          }
        },
        "duration": {
          "value": "1 round/level"
        },
        "target": {
          "value": "one creature"
        },
        "range": {
          "units": "close"
        },
        "actionType": "spellsave",
        "save": {
          "type": "fort",
          "description": "Fortitude half"
        }
      }
    ],
    "learnedAt": {
      "class": {
        "sorcerer": 3,
        "wizard": 3,
        "druid": 3,
        "summoner": 3,
        "witch": 3,
        "magus": 3,
        "hunter": 3,
        "unchained Summoner": 3
      }
    },
    "level": 3,
    "school": "nec",
    "components": {
      "verbal": true,
      "somatic": true
    },
    "shortDescription": "<p>You drain the might of the target and transfer that power to another creature. The subject takes a penalty to Strength equal to 1d6 + 1 per 2 caster levels (maximum 1d6 + 5). This effect can't cause the subject's Strength score to drop below 1. A successful Fortitude save halves this penalty. This penalty doesn't stack with itself or the penalty applied from <i>Ray of Enfeeblement</i>.  You can grant any one creature adjacent to you (including yourself) an enhancement bonus to Strength equal to the Strength penalty imposed by this spell.</p>"
  }
}
