{
  "_id": "aijcbslqrha12j77",
  "name": "Smite Abomination",
  "type": "spell",
  "img": "systems/pf1/icons/misc/magic-swirl.png",
  "system": {
    "actions": [
      {
        "_id": "c30sjhadnzb0127t",
        "name": "Use",
        "img": "systems/pf1/icons/misc/magic-swirl.png",
        "activation": {
          "type": "standard",
          "unchained": {
            "cost": 2,
            "type": "action"
          }
        },
        "duration": {
          "value": "1 round/level"
        },
        "target": {
          "value": "you"
        },
        "range": {
          "units": "personal"
        },
        "actionType": ""
      }
    ],
    "learnedAt": {
      "class": {
        "cleric": 5,
        "oracle": 5,
        "inquisitor": 4
      }
    },
    "level": 5,
    "school": "evo",
    "components": {
      "verbal": true,
      "somatic": true,
      "divineFocus": 1
    },
    "sr": false,
    "shortDescription": "<p>Drawing upon positive energy, you emulate some of a paladin's power to smite undead. Choose one undead creature as your target.</p><p>Your melee attacks against that target gain a bonus equal to your Charisma or Wisdom modifier, whichever is higher, on your attack rolls, and a bonus equal to your caster level on damage rolls. Your melee attacks also bypass the target's damage reduction. These bonuses do not stack with the bonuses from a paladin's smite.</p>"
  }
}
