{
  "_id": "dm53hbl8lin781e2",
  "name": "Snapdragon Fireworks",
  "type": "spell",
  "img": "systems/pf1/icons/misc/magic-swirl.png",
  "system": {
    "actions": [
      {
        "_id": "ahhxbixu2os7x7ku",
        "name": "Use",
        "img": "systems/pf1/icons/misc/magic-swirl.png",
        "activation": {
          "type": "standard",
          "unchained": {
            "cost": 2,
            "type": "action"
          }
        },
        "duration": {
          "value": "1 round/level"
        },
        "range": {
          "units": "long"
        },
        "actionType": "spellsave",
        "save": {
          "type": "ref",
          "description": "Reflex negates"
        },
        "spellEffect": "dragon-shaped fireworks"
      }
    ],
    "learnedAt": {
      "class": {
        "sorcerer": 1,
        "wizard": 1,
        "bard": 2
      }
    },
    "school": "trs",
    "types": "fire, light",
    "components": {
      "verbal": true,
      "somatic": true,
      "material": true
    },
    "materials": {
      "value": "a bundle of sulfur wrapped in cloth"
    },
    "shortDescription": "<p>A favorite display at halfling midsummer festivals, this spell lets you create fireworks in the shape of tiny dragons.</p><p>Once per round, as a move action, you may designate a target 5-foot-square within range and launch a pyrotechnic in that direction. The pyrotechnic takes a zigzag path from you to that square, always missing creatures and objects in its path, and detonates in that square with a bang and a colorful burst of fire and light. Creatures in the target square take 1d4 points of fire damage and are dazzled for 1 round (Reflex half, a successful save negates the dazzled condition).</p><p>Normally when this spell is used as part of a festival, the chosen target is high in the sky to increase visibility and protect observers.</p>"
  }
}
