{
  "_id": "7xrhh9ima7jqtegg",
  "name": "Soothe Construct",
  "type": "spell",
  "img": "systems/pf1/icons/misc/magic-swirl.png",
  "system": {
    "actions": [
      {
        "_id": "ji0i1jqdem2r7fev",
        "name": "Use",
        "img": "systems/pf1/icons/misc/magic-swirl.png",
        "activation": {
          "type": "round",
          "unchained": {
            "cost": 3,
            "type": "action"
          }
        },
        "duration": {
          "value": "instantaneous"
        },
        "target": {
          "value": "one construct"
        },
        "range": {
          "units": "close"
        },
        "actionType": ""
      }
    ],
    "learnedAt": {
      "class": {
        "sorcerer": 5,
        "wizard": 5,
        "cleric": 4,
        "oracle": 4,
        "occultist": 4
      }
    },
    "level": 5,
    "school": "abj",
    "components": {
      "verbal": true,
      "somatic": true
    },
    "sr": false,
    "shortDescription": "<p>You soothe the elemental spirit of a targeted construct, reducing its chance of going berserk by 1d4% per four caster levels (maximum 5d4%). If cast on a construct that has already gone berserk and you are its master, you may immediately roll d% to end the construct's berserk state, it returns to normal functioning, and its berserk chance returns to 0%.</p>"
  }
}
