{
  "_id": "5s8jqu87susjxarc",
  "name": "Sotto Voce",
  "type": "spell",
  "img": "systems/pf1/icons/misc/magic-swirl.png",
  "system": {
    "actions": [
      {
        "_id": "9c7z6ot4f7cttg5k",
        "name": "Use",
        "img": "systems/pf1/icons/misc/magic-swirl.png",
        "activation": {
          "type": "standard",
          "unchained": {
            "cost": 2,
            "type": "action"
          }
        },
        "duration": {
          "value": "1 round"
        },
        "target": {
          "value": "one humanoid creature of 4 HD or less"
        },
        "range": {
          "units": "close"
        },
        "actionType": "spellsave",
        "save": {
          "type": "will",
          "description": "Will negates"
        }
      }
    ],
    "uses": {
      "autoDeductChargesCost": "0"
    },
    "learnedAt": {
      "class": {
        "sorcerer": 0,
        "wizard": 0,
        "cleric": 0,
        "oracle": 0,
        "bard": 1
      }
    },
    "level": 0,
    "school": "nec",
    "types": "fear, mind-affecting, sonic",
    "components": {
      "verbal": true
    },
    "shortDescription": "<p>Your dry, rasping whisper fills a living creature of 4 or fewer Hit Dice with unnatural dread. The affected creature must make a Will save or be shaken for 1 round.</p><p>This spell originated among the followers of the Whispering Way, but necromancers and other intimidating folk outside that group are known to use it.</p>"
  }
}
