{
  "_id": "nowxktq1nvisdk3k",
  "name": "Sound Burst",
  "type": "spell",
  "img": "systems/pf1/icons/misc/magic-swirl.png",
  "system": {
    "actions": [
      {
        "_id": "bl4acni7ycp0155v",
        "name": "Use",
        "img": "systems/pf1/icons/misc/magic-swirl.png",
        "activation": {
          "type": "standard",
          "unchained": {
            "cost": 2,
            "type": "action"
          }
        },
        "duration": {
          "value": "instantaneous"
        },
        "range": {
          "units": "close"
        },
        "measureTemplate": {
          "type": "circle",
          "size": "10"
        },
        "actionType": "spellsave",
        "damage": {
          "parts": [
            {
              "formula": "1d8",
              "type": {
                "values": ["sonic"],
                "custom": ""
              }
            }
          ]
        },
        "save": {
          "type": "fort",
          "description": "Fortitude partial"
        },
        "spellArea": "10-ft.-radius spread"
      }
    ],
    "uses": {
      "autoDeductChargesCost": ""
    },
    "learnedAt": {
      "class": {
        "cleric": 2,
        "oracle": 2,
        "bard": 2,
        "occultist": 2,
        "warpriest": 2,
        "skald": 2
      }
    },
    "level": 2,
    "school": "evo",
    "types": "sonic",
    "components": {
      "verbal": true,
      "somatic": true,
      "focus": true,
      "divineFocus": 3
    },
    "materials": {
      "focus": "a musical instrument"
    },
    "spellbook": "",
    "shortDescription": "<p>You blast an area with a tremendous cacophony. Every creature in the area takes 1d8 points of sonic damage and must succeed on a Fortitude save to avoid being stunned for 1 round. Creatures that cannot hear are not stunned but are still damaged.</p>"
  }
}
