{
  "_id": "6rndjc976yelg14e",
  "name": "Speak with Plane",
  "type": "spell",
  "img": "systems/pf1/icons/misc/magic-swirl.png",
  "system": {
    "actions": [
      {
        "_id": "1kjkh9kuh63ha1v9",
        "name": "Use",
        "img": "systems/pf1/icons/misc/magic-swirl.png",
        "activation": {
          "type": "standard",
          "unchained": {
            "cost": 2,
            "type": "action"
          }
        },
        "duration": {
          "value": "1 minute/level"
        },
        "target": {
          "value": "one plane with a sentient structure"
        },
        "range": {
          "units": "close"
        },
        "actionType": "spellsave",
        "save": {
          "type": "will",
          "description": "Will negates (see text)"
        }
      }
    ],
    "learnedAt": {
      "class": {
        "sorcerer": 4,
        "wizard": 4,
        "cleric": 4,
        "oracle": 4,
        "summoner": 3,
        "witch": 4,
        "shaman": 4,
        "medium": 3
      }
    },
    "level": 4,
    "school": "div",
    "components": {
      "verbal": true,
      "somatic": true,
      "focus": true,
      "divineFocus": 3
    },
    "materials": {
      "focus": "a small glass bead"
    },
    "shortDescription": "<p>You tap into the awareness and consciousness of a plane with a sentient structure (<i>Planar Adventures</i> 60), allowing it to answer questions. A tangible manifestation of the plane (such as the ground) must be within the spell's range upon casting.  You can ask the sentient plane one question per 2 caster levels. If the plane's alignment is at least one step away from yours, the plane can attempt a Will save to resist the spell. A plane typically has a +20 bonus on Will saves, and a demiplane typically has a +15 bonus on Will saves. A plane's traits can further affect these bonuses: a mildly aligned plane receives a +2 bonus, and a strongly aligned plane or a plane with the wild magic trait receives a +4 bonus on its save.  If a plane has been subject to this spell within the past week, a new casting of this spell targeting the same plane fails. If <i>Speak with Plane</i> targets a plane that does not have a sentient structure, the spell fails.</p>"
  }
}
