{
  "_id": "w74yfh5n4302nxcq",
  "name": "Stay the Hand",
  "type": "spell",
  "img": "systems/pf1/icons/misc/magic-swirl.png",
  "system": {
    "actions": [
      {
        "_id": "x84vd945al8csk0m",
        "name": "Use",
        "img": "systems/pf1/icons/misc/magic-swirl.png",
        "activation": {
          "type": "immediate",
          "unchained": {
            "type": "reaction"
          }
        },
        "duration": {
          "value": "1 round/level and special; see text"
        },
        "target": {
          "value": "one creature"
        },
        "range": {
          "units": "medium"
        },
        "actionType": "spellsave",
        "save": {
          "type": "will",
          "description": "Will partial"
        }
      }
    ],
    "learnedAt": {
      "class": {
        "paladin": 4
      }
    },
    "level": 4,
    "school": "enc",
    "subschool": "compulsion",
    "types": "mind-affecting",
    "components": {
      "verbal": true,
      "somatic": true,
      "divineFocus": 1
    },
    "shortDescription": "<p>You cause a creature's arm to waver and prevent it from striking another creature. You can cast this spell when the target is about to make a melee attack against another creature. On a failed saving throw, the target does not follow through with its attack, and its entire action is wasted for the round. On a successful saving throw, the target can make its attack, forcing its strike though the compulsion but losing both accuracy and power, taking a -5 penalty on its attack and damage rolls. Whether or not the target makes its initial save or not, it is subject to a -2 penalty on attack and damage rolls against the creature it originally targeted for the duration of the spell.</p>"
  }
}
