{
  "_id": "vurxdi6fkx3ll2gz",
  "name": "Steal Size",
  "type": "spell",
  "img": "systems/pf1/icons/misc/magic-swirl.png",
  "system": {
    "actions": [
      {
        "_id": "tjw19x0eyt4berdr",
        "name": "Use",
        "img": "systems/pf1/icons/misc/magic-swirl.png",
        "activation": {
          "type": "standard",
          "unchained": {
            "cost": 2,
            "type": "action"
          }
        },
        "duration": {
          "value": "1 minute/level (D)"
        },
        "target": {
          "value": "one humanoid creature larger than you"
        },
        "range": {
          "units": "close"
        },
        "actionType": "spellsave",
        "save": {
          "type": "fort",
          "description": "Fortitude negates"
        }
      }
    ],
    "learnedAt": {
      "class": {
        "sorcerer": 2,
        "wizard": 2,
        "druid": 3,
        "witch": 2,
        "magus": 3,
        "bloodrager": 2,
        "hunter": 3
      }
    },
    "level": 2,
    "school": "trs",
    "components": {
      "verbal": true,
      "somatic": true,
      "material": true
    },
    "materials": {
      "value": "a piece of iron shaped like a scale tray"
    },
    "shortDescription": "<p>This spell reduces the target's size by one size category, as if it were affected by <i>reduce person</i>. You grow in size by one category, as if affected by <i>enlarge person</i> ( if y ou c an b e targeted by that spell). If the spell is dispelled or otherwise ends for either you or the target, both you and the target return to your normal sizes.</p>"
  }
}
