{
  "_id": "zabdd9lwvsarn3v6",
  "name": "Summon Laborers",
  "type": "spell",
  "img": "systems/pf1/icons/misc/magic-swirl.png",
  "system": {
    "actions": [
      {
        "_id": "r5ral03pvbn7o2d2",
        "name": "Use",
        "img": "systems/pf1/icons/misc/magic-swirl.png",
        "activation": {
          "cost": 10,
          "type": "minute",
          "unchained": {
            "cost": 10,
            "type": "minute"
          }
        },
        "duration": {
          "value": "8 hours (D)"
        },
        "range": {
          "units": "close"
        },
        "actionType": "other",
        "spellEffect": "one summoned petitioner/caster level"
      }
    ],
    "learnedAt": {
      "class": {
        "cleric": 6,
        "oracle": 6,
        "summoner": 6,
        "witch": 6,
        "shaman": 6,
        "unchained Summoner": 6
      }
    },
    "level": 6,
    "school": "con",
    "subschool": "summoning",
    "components": {
      "verbal": true,
      "somatic": true,
      "focus": true,
      "divineFocus": 3
    },
    "materials": {
      "focus": "a strip of rune-inscribed parchment"
    },
    "sr": false,
    "shortDescription": "<p><i>Summon laborers</i> summons one humanoid petitioner per caster level. These petitioners hail from one plane of your choice and perform tasks at your direction. The petitioners cannot fight or travel to dangerous lands, but do assist your downtime activities (<i>Pathfinder RPG Ultimate Campaign</i> 8 4) w ithin a s ettlement, increasing the effect of Influence or Labor you spend by 50%, to  a maximum of 1 additional point of Influence or Labor for every 2 caster levels you possess. This stacks with any increase to the effect of Influence or Labor that you receive from your followers within the settlement where the downtime activity takes place (if any). <i>Summon laborers</i> is a spell of the same alignment type as the plane from which the summoned petitioners hail (chaotic and evil for the Abyss, lawful and good for Heaven, and so on). <b>Effect</b>s that increase the number of creatures summoned by a spell (such as Superior SummoningUM) do not affect <i>summon laborers</i>.</p>"
  }
}
