{
  "_id": "sbdsqekv6fgqkdlm",
  "name": "Sunder Breaker",
  "type": "spell",
  "img": "systems/pf1/icons/misc/magic-swirl.png",
  "system": {
    "actions": [
      {
        "_id": "fi8wbvtob0ac39h9",
        "name": "Use",
        "img": "systems/pf1/icons/misc/magic-swirl.png",
        "activation": {
          "type": "standard",
          "unchained": {
            "cost": 2,
            "type": "action"
          }
        },
        "duration": {
          "value": "1 minute/level (D) or until discharged"
        },
        "target": {
          "value": "creature touched"
        },
        "range": {
          "units": "touch"
        },
        "actionType": "spellsave",
        "save": {
          "type": "will",
          "description": "Will negates (harmless) and see text"
        }
      }
    ],
    "learnedAt": {
      "class": {
        "sorcerer": 1,
        "wizard": 1,
        "magus": 1,
        "psychic": 1
      }
    },
    "school": "abj",
    "types": "force",
    "components": {
      "verbal": true,
      "somatic": true
    },
    "shortDescription": "<p>You place an invisible ward upon the target. The next time a creature succeeds at a sunder combat maneuver against the target, the attacker's weapon takes 1d6 points of damage per caster level (maximum 10d6). If the attacker used a natural weapon for the sunder, the attacker takes half this damage. Spell resistance applies to this damage. The attacker can attempt a Fortitude save to halve this damage.</p><p>The ward on the target counts as a magical trap and can be detected and disabled as such.</p>"
  }
}
