{
  "_id": "spmmt3l9ch7t3zfj",
  "name": "Tiny Hut",
  "type": "spell",
  "img": "systems/pf1/icons/misc/magic-swirl.png",
  "system": {
    "actions": [
      {
        "_id": "bsw319zvzfuqnmwd",
        "name": "Use",
        "img": "systems/pf1/icons/misc/magic-swirl.png",
        "activation": {
          "type": "standard",
          "unchained": {
            "cost": 2,
            "type": "action"
          }
        },
        "duration": {
          "value": "2 hours/level"
        },
        "range": {
          "value": "20",
          "units": "ft"
        },
        "actionType": "other",
        "spellEffect": "20-ft.-radius sphere centered on your location"
      }
    ],
    "learnedAt": {
      "class": {
        "sorcerer": 3,
        "wizard": 3,
        "bard": 3,
        "occultist": 3
      }
    },
    "level": 3,
    "school": "evo",
    "types": "force",
    "components": {
      "verbal": true,
      "somatic": true,
      "material": true
    },
    "materials": {
      "value": "a small crystal bead"
    },
    "sr": false,
    "shortDescription": "<p>You create an unmoving, opaque sphere of force of any color you desire around yourself. Half the sphere projects above the ground, and the lower hemisphere passes through the ground. As many as nine other Medium creatures can fit into the field with you; they can freely pass into and out of the hut without harming it. However, if you remove yourself from the hut, the spell ends.</p><p>The temperature inside the hut is 70 F if the exterior temperature is between 0 and 100 F. An exterior temperature below 0 or above 100 lowers or raises the interior temperature on a 1-degree-for-1 basis. The hut also provides protection against the elements, such as rain, dust, and sandstorms. The hut withstands any wind of less than hurricane force, but a hurricane (75+ mph wind speed) or greater force destroys it.</p><p>The interior of the hut is a hemisphere. You can illuminate it dimly upon command or extinguish the light as desired. Although the force field is opaque from the outside, it is transparent from within. Missiles, weapons, and most spell effects can pass through the hut without affecting it, although the occupants cannot be seen from outside the hut (they have total concealment).</p>"
  }
}
