{
  "_id": "fe4zq5n7gewou9mg",
  "name": "Tower of Iron Will III",
  "type": "spell",
  "img": "systems/pf1/icons/misc/magic-swirl.png",
  "system": {
    "actions": [
      {
        "_id": "vq2ufrwkjdez6m10",
        "name": "Use",
        "img": "systems/pf1/icons/misc/magic-swirl.png",
        "activation": {
          "type": "immediate",
          "unchained": {
            "type": "reaction"
          }
        },
        "duration": {
          "value": "3 rounds"
        },
        "range": {
          "value": "10",
          "units": "ft"
        },
        "actionType": "",
        "spellArea": "10-ft.-radius emanation centered on you"
      }
    ],
    "learnedAt": {
      "class": {
        "psychic": 7
      },
      "bloodline": {
        "Psychic": 7
      }
    },
    "level": 7,
    "school": "abj",
    "components": {
      "verbal": true
    },
    "shortDescription": "<p>This functions as <i>Tower of Iron Will I</i>, except as noted above. This spell can be undercast.</p>"
  }
}
