{
  "_id": "aer23mbtykma1n1s",
  "name": "Unliving Rage",
  "type": "spell",
  "img": "systems/pf1/icons/misc/magic-swirl.png",
  "system": {
    "actions": [
      {
        "_id": "bksu85d7d0p1qguf",
        "name": "Use",
        "img": "systems/pf1/icons/misc/magic-swirl.png",
        "activation": {
          "type": "standard",
          "unchained": {
            "cost": 2,
            "type": "action"
          }
        },
        "duration": {
          "value": "concentration + 1 round/level (D)"
        },
        "target": {
          "value": "one willing undead creature per 3 levels, no two of which can be more than 30 ft. apart"
        },
        "range": {
          "units": "medium"
        },
        "actionType": ""
      }
    ],
    "learnedAt": {
      "class": {
        "sorcerer": 3,
        "wizard": 3,
        "cleric": 2,
        "oracle": 2,
        "witch": 3,
        "mesmerist": 2,
        "spiritualist": 3
      }
    },
    "level": 3,
    "school": "nec",
    "components": {
      "verbal": true,
      "somatic": true
    },
    "shortDescription": "<p>This spell functions as <i>rage</i>, except it affects only undead creatures and bolsters them with necromantic energy rather than emotion. Each affected creature gains a +2 profane bonus to Strength and Charisma, a +1 profane bonus on Will saves, and a -2 penalty to AC. The effect is otherwise identical to a barbarian's <i>rage</i>.</p>"
  }
}
