{
  "_id": "3efy1ico48ccrzni",
  "name": "Vampiric Touch",
  "type": "spell",
  "img": "systems/pf1/icons/misc/magic-swirl.png",
  "system": {
    "actions": [
      {
        "_id": "7a2zgwkxj9i4u5pr",
        "name": "Use",
        "img": "systems/pf1/icons/misc/magic-swirl.png",
        "activation": {
          "type": "standard",
          "unchained": {
            "cost": 2,
            "type": "action"
          }
        },
        "duration": {
          "value": "instantaneous/1 hour; see text"
        },
        "target": {
          "value": "living creature touched"
        },
        "range": {
          "units": "touch"
        },
        "actionType": "msak",
        "ability": {
          "attack": "str"
        }
      }
    ],
    "learnedAt": {
      "class": {
        "sorcerer": 3,
        "wizard": 3,
        "witch": 3,
        "antipaladin": 3,
        "magus": 3,
        "bloodrager": 3,
        "psychic": 3,
        "medium": 3,
        "mesmerist": 3,
        "spiritualist": 3
      },
      "subDomain": {
        "Blood": 3,
        "Daemon": 3
      },
      "bloodline": {
        "Undead": 3,
        "Daemon": 3,
        "Ghoul": 3
      }
    },
    "level": 3,
    "school": "nec",
    "components": {
      "verbal": true,
      "somatic": true
    },
    "shortDescription": "<p>You must succeed on a melee touch attack. Your touch deals 1d6 points of damage per two caster levels (maximum 10d6). You gain temporary hit points equal to the damage you deal. You can't gain more than the subject's current hit points + the subject's Constitution score (which is enough to kill the subject). The temporary hit points disappear 1 hour later.</p>"
  }
}
