{
  "_id": "i8nw5zx8det7y4pg",
  "name": "Virtuoso Performance",
  "type": "spell",
  "img": "systems/pf1/icons/misc/magic-swirl.png",
  "system": {
    "actions": [
      {
        "_id": "i8fac81hut80fkww",
        "name": "Use",
        "img": "systems/pf1/icons/misc/magic-swirl.png",
        "activation": {
          "type": "standard",
          "unchained": {
            "cost": 2,
            "type": "action"
          }
        },
        "duration": {
          "value": "1 round/level"
        },
        "target": {
          "value": "you"
        },
        "range": {
          "units": "personal"
        },
        "actionType": ""
      }
    ],
    "learnedAt": {
      "class": {
        "bard": 4
      }
    },
    "level": 4,
    "school": "trs",
    "components": {
      "verbal": true
    },
    "sr": false,
    "shortDescription": "<p>While this spell is active, you may start a second bardic performance while maintaining another. Starting the second performance costs 2 rounds of bardic performance instead of 1. Maintaining both performances costs a total of 3 rounds of bardic performance for each round they are maintained.</p><p>When this spell ends, one of the performances ends immediately (your choice).</p><p>Virtuoso performance does not stack with any other method of maintaining simultaneous bardic performances.</p>"
  }
}
