{
  "_id": "22x4iooz3c3vqof9",
  "name": "Virtue",
  "type": "spell",
  "img": "systems/pf1/icons/misc/magic-swirl.png",
  "system": {
    "actions": [
      {
        "_id": "9c883op3rlkxixnb",
        "name": "Use",
        "img": "systems/pf1/icons/misc/magic-swirl.png",
        "activation": {
          "type": "standard",
          "unchained": {
            "cost": 2,
            "type": "action"
          }
        },
        "duration": {
          "value": "1 min."
        },
        "target": {
          "value": "creature touched"
        },
        "range": {
          "units": "touch"
        },
        "actionType": ""
      }
    ],
    "uses": {
      "autoDeductChargesCost": "0"
    },
    "learnedAt": {
      "class": {
        "cleric": 0,
        "oracle": 0,
        "druid": 0,
        "paladin": 1,
        "inquisitor": 0,
        "shaman": 0,
        "psychic": 0,
        "medium": 0,
        "spiritualist": 0,
        "hunter": 0
      }
    },
    "level": 0,
    "school": "trs",
    "components": {
      "verbal": true,
      "somatic": true,
      "divineFocus": 1
    },
    "shortDescription": "<p>With a touch, you infuse a creature with a tiny surge of life, granting the subject 1 temporary hit point.</p>"
  }
}
