{
  "_id": "mt3gozaeg6qqy180",
  "name": "Warp Wood",
  "type": "spell",
  "img": "systems/pf1/icons/misc/magic-swirl.png",
  "system": {
    "actions": [
      {
        "_id": "t72t1q2j8fczuxko",
        "name": "Use",
        "img": "systems/pf1/icons/misc/magic-swirl.png",
        "activation": {
          "type": "standard",
          "unchained": {
            "cost": 2,
            "type": "action"
          }
        },
        "duration": {
          "value": "instantaneous"
        },
        "target": {
          "value": "1 Small wooden object/level, all within a 20-ft. radius"
        },
        "range": {
          "units": "close"
        },
        "actionType": "spellsave",
        "save": {
          "type": "will",
          "description": "Will negates (object)"
        }
      }
    ],
    "learnedAt": {
      "class": {
        "druid": 2,
        "shaman": 2,
        "occultist": 2,
        "hunter": 2
      }
    },
    "level": 2,
    "school": "trs",
    "components": {
      "verbal": true,
      "somatic": true
    },
    "shortDescription": "<p>You cause wood to bend and warp, permanently destroying its straightness, form, and strength. A warped door springs open (or becomes stuck, requiring a Strength check to open, at your option). A boat or ship springs a leak. Warped ranged weapons are useless. A warped melee weapon causes a -4 penalty on attack rolls.</p><p>You may warp one Small or smaller object or its equivalent per caster level. A Medium object counts as two Small objects, a Large object as four, a Huge object as eight, a Gargantuan object as 16, and a Colossal object as 32.</p><p>Alternatively, you can un<i>warp wood</i> (effectively warping it back to normal) with this spell. <i>Make whole</i>, on the other hand, does no good in repairing a warped item.</p><p>You can combine multiple consecutive <i>warp wood</i> spells to warp (or unwarp) an object that is too large for you to warp with a single spell. Until the object is completely warped, it suffers no ill effects.</p>"
  }
}
