{
  "_id": "wfp7p703hom627ti",
  "name": "Water Walk, Communal",
  "type": "spell",
  "img": "systems/pf1/icons/misc/magic-swirl.png",
  "system": {
    "actions": [
      {
        "_id": "af7z5j8e7q1543h2",
        "name": "Use",
        "img": "systems/pf1/icons/misc/magic-swirl.png",
        "activation": {
          "type": "standard",
          "unchained": {
            "cost": 2,
            "type": "action"
          }
        },
        "duration": {
          "value": "10 min./level (D)"
        },
        "target": {
          "value": "creatures touched"
        },
        "range": {
          "units": "touch"
        },
        "actionType": "spellsave",
        "save": {
          "type": "will",
          "description": "Will negates (harmless)"
        }
      }
    ],
    "learnedAt": {
      "class": {
        "cleric": 2,
        "oracle": 2,
        "ranger": 2,
        "psychic": 4,
        "hunter": 2
      }
    },
    "level": 2,
    "school": "trs",
    "types": "water",
    "components": {
      "verbal": true,
      "somatic": true,
      "divineFocus": 1
    },
    "shortDescription": "<p>This spell functions like <i>water walk</i>, except you divide the duration in 10-minute intervals among the creatures touched.</p>"
  }
}
