{
  "_id": "ul22siduwtj2nzpo",
  "name": "Whip of Centipedes",
  "type": "spell",
  "img": "systems/pf1/icons/misc/magic-swirl.png",
  "system": {
    "actions": [
      {
        "_id": "icqs7any13h4rcd3",
        "name": "Use",
        "img": "systems/pf1/icons/misc/magic-swirl.png",
        "activation": {
          "type": "standard",
          "unchained": {
            "cost": 2,
            "type": "action"
          }
        },
        "duration": {
          "value": "1 round/level (D (see text)"
        },
        "range": {
          "value": "0",
          "units": "ft"
        },
        "actionType": "other",
        "spellEffect": "whiplike swarm"
      }
    ],
    "learnedAt": {
      "class": {
        "sorcerer": 5,
        "wizard": 5,
        "druid": 5,
        "bard": 5,
        "summoner": 5,
        "witch": 5,
        "hunter": 5,
        "unchained Summoner": 5
      }
    },
    "level": 5,
    "school": "con",
    "subschool": "summoning",
    "components": {
      "verbal": true,
      "somatic": true,
      "material": true,
      "divineFocus": 2
    },
    "materials": {
      "value": "a square of red cloth"
    },
    "shortDescription": "<p>This spell functions as <i>Whip of Spiders</i>, except it summons centipedes, and any creature you strike with the whip takes swarm damage as if it were attacked by a centipede swarm (2d6 points of damage plus poison and distraction, <i>Bestiary</i> 43). If you transform the whip into a centipede swarm, it has 10 hit points.</p>"
  }
}
