{
  "_id": "xhd6734dulevnwef",
  "name": "Wind Wall",
  "type": "spell",
  "img": "systems/pf1/icons/misc/magic-swirl.png",
  "system": {
    "actions": [
      {
        "_id": "jwjziihwajv7rczu",
        "name": "Use",
        "img": "systems/pf1/icons/misc/magic-swirl.png",
        "activation": {
          "type": "standard",
          "unchained": {
            "cost": 2,
            "type": "action"
          }
        },
        "duration": {
          "value": "1 round/level"
        },
        "range": {
          "units": "medium"
        },
        "actionType": "spellsave",
        "save": {
          "description": "none; see text"
        },
        "spellEffect": "wall up to 10 ft./level long and 5 ft./level high (S)"
      }
    ],
    "learnedAt": {
      "class": {
        "sorcerer": 3,
        "wizard": 3,
        "cleric": 3,
        "oracle": 3,
        "druid": 3,
        "ranger": 2,
        "summoner": 2,
        "magus": 3,
        "bloodrager": 3,
        "shaman": 3,
        "occultist": 3,
        "spiritualist": 3,
        "hunter": 2,
        "unchained Summoner": 3
      },
      "domain": {
        "Air": 2
      }
    },
    "level": 3,
    "school": "evo",
    "types": "air",
    "components": {
      "verbal": true,
      "somatic": true,
      "material": true,
      "divineFocus": 2
    },
    "materials": {
      "value": "a tiny fan and an exotic feather"
    },
    "shortDescription": "<p>An invisible vertical curtain of wind appears. It is 2 feet thick and of considerable strength. It is a roaring blast sufficient to blow away any bird smaller than an eagle, or tear papers and similar materials from unsuspecting hands. (A Reflex save allows a creature to maintain its grasp on an object.) Tiny and Small flying creatures cannot pass through the barrier. Loose materials and cloth garments fly upward when caught in a <i>wind wall.</i> Arrows and bolts are deflected upward and miss, while any other normal ranged weapon passing through the wall has a 30% miss chance. (A giant-thrown boulder, a siege engine projectile, and other massive ranged weapons are not affected.) Gases, most gaseous breath weapons, and creatures in gaseous form cannot pass through the wall (although it is no barrier to incorporeal creatures).</p><p>While the wall must be vertical, you can shape it in any continuous path along the ground that you like. It is possible to create cylindrical or square <i>wind walls</i> to enclose specific points.</p>"
  }
}
