{
  "_id": "1gz3zdpxu7uic5ky",
  "name": "Wrathful Mantle",
  "type": "spell",
  "img": "systems/pf1/icons/misc/magic-swirl.png",
  "system": {
    "actions": [
      {
        "_id": "f27fobsmuph1q1um",
        "name": "Use",
        "img": "systems/pf1/icons/misc/magic-swirl.png",
        "activation": {
          "type": "standard",
          "unchained": {
            "cost": 2,
            "type": "action"
          }
        },
        "duration": {
          "value": "1 minute/level"
        },
        "target": {
          "value": "creature touched or all creatures within 5 ft.; see text"
        },
        "range": {
          "units": "touch"
        },
        "actionType": "spellsave",
        "save": {
          "type": "will",
          "description": "Will negates (harmless)"
        }
      }
    ],
    "learnedAt": {
      "class": {
        "cleric": 3,
        "oracle": 3,
        "paladin": 3
      },
      "subDomain": {
        "Hatred": 2
      }
    },
    "level": 3,
    "school": "evo",
    "types": "force, light",
    "components": {
      "verbal": true,
      "somatic": true,
      "divineFocus": 1
    },
    "shortDescription": "<p>A shimmering mantle of light shrouds the subject, light like a torch. The subject of the spell gains a +1 resistance bonus on all saving throws per four caster levels (maximum +5 at 20th level). The subject can end the <i>wrathful mantle</i> at any time as a swift action to deal 2d8 points of force damage to all creatures within 5 feet.</p>"
  }
}
