{
  "_id": "RC4D4WFT5kRKkdqp",
  "name": "Witch",
  "type": "class",
  "img": "systems/pf1/icons/skills/affliction_21.jpg",
  "system": {
    "description": {
      "value": "<p>Some gain power through study, some through devotion, others through blood, but the witch gains power from her communion with the unknown. Generally feared and misunderstood, the witch draws her magic from a pact made with an otherworldly power. Communing with that source, using her familiar as a conduit, the witch gains not only a host of spells, but a number of strange abilities known as hexes. As a witch grows in power, she might learn about the source of her magic, but some remain blissfully unaware. Some are even afraid of that source, fearful of what it might be or where its true purposes lie.</p>\n<p><b>Role</b>: While many witches are recluses, living on the edge of civilization, some live within society, openly or in hiding. The blend of witches’ spells makes them adept at filling a number of different roles, from seer to healer, and their hexes grant them a number of abilities that are useful in a fight. Some witches travel about, seeking greater knowledge and better understanding of the mysterious powers that guide them.</p>\n<p><b>Alignment</b>: Any.</p>\n<p><b>Hit Die</b>: d6.</p>\n<p><b>Starting Wealth</b>: 3d6 × 10 gp (average 105 gp.) In addition, each character begins play with an outfit worth 10 gp or less.</p>\n<h2>Class Skills</h2>\n<p>The witch’s class skills are <em>Craft</em> (<em>Int</em>), <em>Fly</em> (<em>Dex</em>), <em>Heal</em> (<em>Wis</em>), <em>Intimidate</em> (<em>Cha</em>), <em>Knowledge</em> (arcana) (<em>Int</em>), <em>Knowledge</em> (history) (<em>Int</em>), <em>Knowledge</em> (nature) (<em>Int</em>), <em>Knowledge</em> (planes) (<em>Int</em>), <em>Profession</em> (<em>Wis</em>), <em>Spellcraft</em> (<em>Int</em>), and <em>Use Magic Device</em> (<em>Cha</em>).</p>\n<p><b>Skill Ranks per Level</b>: 2 + <em>Int</em> modifier.</p>"
    },
    "links": {
      "classAssociations": [
        {
          "name": "Hex",
          "level": 1,
          "_index": 0,
          "uuid": "Compendium.pf1.class-abilities.GBkIhC1Bpp2MAD4e"
        },
        {
          "name": "Witch's Familiar",
          "level": 1,
          "_index": 1,
          "uuid": "Compendium.pf1.class-abilities.3d9Rgw40NV8ohRtf"
        },
        {
          "name": "Major Hex",
          "level": 10,
          "_index": 2,
          "uuid": "Compendium.pf1.class-abilities.aZ5eCIRrsvax5CZZ"
        },
        {
          "name": "Grand Hex",
          "level": 18,
          "_index": 3,
          "uuid": "Compendium.pf1.class-abilities.IMhG1JjaWP6p9ORe"
        }
      ]
    },
    "tag": "witch",
    "useCustomTag": true,
    "weaponProf": {
      "value": ["sim"]
    },
    "hd": 6,
    "hp": 6,
    "skillsPerLevel": 2,
    "savingThrows": {
      "will": {
        "value": "high"
      }
    },
    "classSkills": {
      "art": true,
      "crf": true,
      "fly": true,
      "hea": true,
      "int": true,
      "kar": true,
      "khi": true,
      "kna": true,
      "kpl": true,
      "lor": true,
      "pro": true,
      "spl": true,
      "umd": true
    },
    "casting": {
      "type": "prepared",
      "progression": "high",
      "ability": "int",
      "spells": "arcane"
    }
  }
}
